{
  "en": {
    "hideOnHome": false,
    "segments": [
      "ADULTS"
    ],
    "author": {
      "nickname": ""
    },
    "name": "Values",
    "about": {
      "courseValue": "#### What will I Learn?\n* Guide to finding your values\n* Live a more meaningful life\n* Opening up to life\n",
      "howThisWorks": "#### How this works\n\n* This course takes 7 weeks to complete\n* One lesson per week\n* One video sharing per week",
      "body": "In our everyday life, we easily lose touch with what matters to us. This is especially true when we’re dealing with a challenging situation. That is also when we tend to give up on the activities that fill us up.\n\nConnecting to our core values is a powerful tool to take meaningful action in every moment of our lives.",
      "createdBy": {
        "text": "."
      }
    },
    "featured": false,
    "background": {
      "color": "#2B3541",
      "uri": "https://storage.googleapis.com/k-org-879a8.appspot.com/images/courses/cc77500f-bca0-48bd-a282-14842b25aa2f/background.jpg"
    },
    "cta": "Take the first step on a journey to a more meaningful life, based on what matters to you.",
    "ratingCount": 163,
    "duration": {
      "count": 7,
      "type": "week"
    },
    "coverUri": "https://storage.googleapis.com/k-org-879a8.appspot.com/images/courses/cc77500f-bca0-48bd-a282-14842b25aa2f/background.jpg",
    "tags": [
      "Personal growth",
      "Values",
      "Finding meaning"
    ],
    "id": "cc77500f-bca0-48bd-a282-14842b25aa2f",
    "lessons": [
      {
        "id": "c9903941-28ad-4287-9f3b-87272558a829",
        "name": "Feeling lost",
        "index": 0,
        "completionScreen": {
          "content": "Well done for completing **Feeling Lost.**\n\nYou're now ready to share.\n\n1. Please have your notes from ***Finding that special place in time*** handy."
        },
        "description": "This course is about connecting to your values and living a more meaningful life. We’re walking straight into a jungle in this first lesson.",
        "time": "40 min",
        "conversations": [
          {
            "conversationId": "FLiF3XRNMrZCXKvU56K6wC",
            "title": "Feeling lost"
          }
        ]
      },
      {
        "id": "a5f12e6b-5a23-4a27-a6c3-66d40bbc16e9",
        "name": "The Compass",
        "index": 1,
        "completionScreen": {
          "content": "Now, take a moment to think about your values. Pick an area from your life where it feels more difficult to live in line with your values. \n\n1. Imagine your life 5 years from now. What does this part of your life look like if you change nothing? \n2. Now imagine you follow your heart and implement your values in this area of your life. What does this part of your life look like in 5 years?\n\nThis is what you'll be offered to share with your group."
        },
        "description": "Put in writing how you want to be in life and what’s most important to you.",
        "time": "40 min",
        "conversations": [
          {
            "conversationId": "LFQLkspDS5KYxewmjzrZYN",
            "title": "The Compass"
          }
        ]
      },
      {
        "id": "0324886b-225e-4394-baab-943878fb49e6",
        "name": "Your choices",
        "index": 2,
        "completionScreen": {
          "content": "You're now ready to share.\n\n1. Does any of your values contradict each other? \n2.  Try to think of ways to balance them by using a good enough strategy"
        },
        "description": "Learn how to make your compass clearer, more practical and true to yourself.",
        "time": "40 min",
        "conversations": [
          {
            "conversationId": "gpjsbXwUA8eJLn1nPbRC9",
            "title": "Your choices"
          }
        ]
      },
      {
        "id": "5a771ac2-d05f-4eec-af37-37b399326f16",
        "name": "A colorful life",
        "index": 3,
        "completionScreen": {
          "content": "You're now ready to share.\n\n1. Looking at your compass, which of your values feel hard to pursue and in what way?\n2. What's the cost of not pursuing these values?"
        },
        "description": "This lesson is all about opening up and truly experiencing life.",
        "time": "40 min",
        "conversations": [
          {
            "conversationId": "T8D5NvrXdZkspWMpGqfPV6",
            "title": "A colorful life"
          }
        ]
      },
      {
        "id": "bea39a23-0d72-4b42-8889-9f70b27330db",
        "name": "Making it happen",
        "index": 4,
        "wip": false,
        "description": "This lesson is about putting your plans into action.",
        "time": "40 min",
        "completionScreen": {
          "content": "Well done for completing **Making it happen.**\n\nYou are now ready to share.\n\n1. Which goal are you working towards?\n2. What actions are you taking to make it happen?"
        },
        "conversations": [
          {
            "conversationId": "U3Y8zfaZbq32NKw7VyKFkx",
            "title": "Making it happen"
          }
        ]
      },
      {
        "wip": false,
        "id": "29316145-c41a-4140-bcab-43877c6a14c6",
        "name": "Obstacles ",
        "time": "40 min",
        "description": "This lesson is about overcoming the hurdles on your journey to the life you want.",
        "completionScreen": {
          "content": "You're now ready to share.\n\n1. What small step can you take towards your goal this week?"
        },
        "conversations": [
          {
            "conversationId": "LVcQtZqVqjSEUh69zeJ5u1",
            "title": "Obstacles "
          }
        ]
      },
      {
        "wip": false,
        "id": "60f3e116-477a-4ba4-a3c3-da2d07ab9f64",
        "name": "The story about yourself",
        "time": "40 min",
        "description": "Today’s lesson explores a different way to look at your past.",
        "completionScreen": {
          "content": "You're now ready to share.\n\n1. Describe what it would feel like to be fully aligned with your values and what daily actions would help you achieve so."
        },
        "conversations": [
          {
            "conversationId": "4dRrqEWxLSo7DCMrSphd1c",
            "title": "The story about yourself"
          }
        ]
      }
    ],
    "rating": 4.2,
    "backgroundImageUri": "https://storage.googleapis.com/k-org-879a8.appspot.com/images/courses/cc77500f-bca0-48bd-a282-14842b25aa2f/background.jpg"
  },
  "sv": {
    "hideOnHome": false,
    "segments": [
      "ADULTS"
    ],
    "author": {
      "nickname": ""
    },
    "name": "Värderingar",
    "about": {
      "courseValue": "#### Vad lär jag mig?\n\n* Guide för att hitta dina värderingar\n* Lev ett mer meningsfullt liv\n* Öppnar upp för livet",
      "howThisWorks": "#### Så här fungerar det\n* Kursen tar fyra veckor att genomföra\n* En lektion per vecka\n* En videodelning per vecka",
      "body": "I vardagen kan vi lätt tappa kontakten med det som betyder något för oss. Detta gäller särskilt när vi har att göra med utmanande situationer eller känner oss konsumerade av ansvar - som arbete eller vård av en sjuk förälder. Det är också när vi tenderar att ge upp aktiviteter som laddar våra batterier.\n\nAtt ansluta till våra djupaste värderingar är ett kraftfullt verktyg som leder oss till att göra meningsfulla åtgärder i varje ögonblick av våra liv."
    },
    "background": {
      "color": "#2B3541",
      "uri": "https://storage.googleapis.com/k-org-879a8.appspot.com/images/courses/cc77500f-bca0-48bd-a282-14842b25aa2f/background.jpg"
    },
    "cta": "Ta det första steget på en resa till ett mer meningsfullt liv, baserat på vad som betyder något för dig.",
    "ratingCount": 163,
    "duration": {
      "count": 7,
      "type": "week"
    },
    "coverUri": "https://storage.googleapis.com/k-org-879a8.appspot.com/images/courses/cc77500f-bca0-48bd-a282-14842b25aa2f/background.jpg",
    "tags": [],
    "id": "cc77500f-bca0-48bd-a282-14842b25aa2f",
    "lessons": [
      {
        "id": "c9903941-28ad-4287-9f3b-87272558a829",
        "name": "Känner mig vilsen",
        "index": 0,
        "completionScreen": {
          "content": "Bra gjort! Du har slutfört lektionen Känner mig vilsen. \n\nOm du väljer att delta i gruppdelning, vänligen ha dina anteckningar från  *Hitta den speciella platsen i tid*  till hands."
        },
        "description": "Den här kursen handlar om att ansluta till dina värderingar och leva ett mer meningsfullt liv. Vi går rakt in i en djungel i den här första lektionen.",
        "time": "40 min",
        "conversations": [
          {
            "conversationId": "FLiF3XRNMrZCXKvU56K6wC",
            "title": "Känner mig vilsen"
          }
        ]
      },
      {
        "id": "a5f12e6b-5a23-4a27-a6c3-66d40bbc16e9",
        "name": "Kompassen",
        "index": 1,
        "completionScreen": {
          "content": "Bra gjort med att slutföra kompassen! Du är nu redo för nästa steg - att dela med din grupp.\n\nVad lärde du dig själv när du skapade din kompass? Har något överraskat dig eller var du inte medveten om det förrän nu?\n"
        },
        "description": "Skriv ut hur du vill vara och vad som är viktigast i ditt liv - dina egna värderingar.",
        "time": "40 min",
        "conversations": [
          {
            "conversationId": "LFQLkspDS5KYxewmjzrZYN",
            "title": "Kompassen"
          }
        ]
      },
      {
        "id": "0324886b-225e-4394-baab-943878fb49e6",
        "name": "Dina val",
        "index": 2,
        "completionScreen": {},
        "description": "Lär dig hur du gör värdena i din kompass tydligare, mer praktisk och trogen mot dig själv.",
        "time": "40 min",
        "conversations": [
          {
            "conversationId": "gpjsbXwUA8eJLn1nPbRC9",
            "title": "Dina val"
          }
        ]
      },
      {
        "id": "5a771ac2-d05f-4eec-af37-37b399326f16",
        "name": "Upplevelser",
        "index": 3,
        "completionScreen": {
          "content": "### Bra gjort för att slutföra upplevelser.\n\nAtt välja att leva i linje med dina värderingar innebär att vara öppen för några negativa upplevelser på vägen.\n\nÄven om vi inte helt kan skydda oss från känslomässig smärta, är ett värdedrivet liv ofta mindre smärtsamt på lång sikt än att undvika smärta.\n\nDu är nu redo för nästa viktiga steg - att dela med din grupp.\n"
        },
        "description": "Den här lektionen handlar om att öppna upp och verkligen uppleva livet.",
        "time": "40 min",
        "conversations": [
          {
            "conversationId": "T8D5NvrXdZkspWMpGqfPV6",
            "title": "Upplevelser"
          }
        ]
      }
    ],
    "rating": 4.2,
    "wip": true,
    "backgroundImageUri": "https://storage.googleapis.com/k-org-879a8.appspot.com/images/courses/cc77500f-bca0-48bd-a282-14842b25aa2f/background.jpg"
  },
  "pt": {
    "hideOnHome": false,
    "segments": [
      "ADULTS"
    ],
    "author": {
      "nickname": "Luís Portela",
      "name": "Luís Portela"
    },
    "name": "Valores",
    "about": {
      "courseValue": "#### O que vou aprender?\n\n* Um guião para encontrares os teus valores\n* A viver uma vida com mais significado\n* A abrires-te para a vida",
      "howThisWorks": "#### Como funciona este curso?\n\n* O curso tem a duração de 7 semanas\n* Uma lição por semana\n* Uma partilha de vídeo todas as semanas",
      "body": "Na nossa vida diária, perdemos facilmente o contacto com o que é importante para nós. Isto é particularmente verdade quando lidamos com situações desafiantes. É também nestas alturas que temos tendência a abdicar das atividades que nos preenchem e satisfazem.\n\nConectarmo-nos com os nossos valores fundamentais é uma ferramenta poderosa para despoletar ações com significado em todos os momentos da nossa vida.",
      "createdBy": {
        "profiles": [
          {
            "name": "Com Luís Portela"
          }
        ]
      }
    },
    "featured": true,
    "background": {
      "color": "#2B3541",
      "uri": "https://res.cloudinary.com/twentyninek/image/upload/q_auto,t_global/v1621848299/29k%20FJN/Courses/Values/Photos/Values_MENU_xh7xwn.jpg"
    },
    "cta": "Dá o primeiro passo na caminhada para uma vida com mais significado baseada no que é importante para ti.",
    "ratingCount": 163,
    "duration": {
      "count": 7,
      "type": "week"
    },
    "coverUri": "https://res.cloudinary.com/twentyninek/image/upload/q_auto,t_global/v1621855721/29k%20FJN/Courses/Values/Photos/luisportelaMIRROR_gmuofn.jpg",
    "tags": [
      "Valores",
      "Desenvolvimento pessoal",
      "Encontrar significado"
    ],
    "id": "cc77500f-bca0-48bd-a282-14842b25aa2f",
    "lessons": [
      {
        "id": "c9903941-28ad-4287-9f3b-87272558a829",
        "name": "Sentirmo-nos perdidos",
        "index": 0,
        "completionScreen": {
          "content": "Parabéns por completares **Sentirmo-nos perdidos.**\n\nAgora já podes partilhar.\n\n1. Prepara as tuas notas relativas ao exercício ***Encontrar aquele lugar especial no tempo***."
        },
        "description": "Neste curso vais conectar-te aos teus valores para viveres uma vida com mais significado. Nesta primeira lição vamos entrar diretamente numa selva.",
        "time": "40 min",
        "conversations": [
          {
            "conversationId": "FLiF3XRNMrZCXKvU56K6wC",
            "title": "Sentirmo-nos perdidos"
          }
        ]
      },
      {
        "id": "a5f12e6b-5a23-4a27-a6c3-66d40bbc16e9",
        "name": "A bússola ",
        "index": 1,
        "completionScreen": {
          "content": "Agora reserva uns momentos para pensares nos teus valores. Escolhe uma área da tua vida em que seja mais difícil viveres de acordo com os teus valores. \n\n1. Imagina a tua vida daqui a 5 anos. Qual será o aspeto dessa parte da tua vida se não fizeres nada para mudar?\n2. Agora imagina que segues o teu coração e implementas os teus valores nessa área da tua vida. Qual será o aspeto dessa parte da tua vida daqui a 5 anos?\n\nSerá isto que terás oportunidade de partilhar com o teu grupo."
        },
        "description": "Escreve como queres ser na vida e o que é mais importante para ti",
        "time": "40 min",
        "conversations": [
          {
            "conversationId": "LFQLkspDS5KYxewmjzrZYN",
            "title": "A bússola "
          }
        ]
      },
      {
        "id": "0324886b-225e-4394-baab-943878fb49e6",
        "name": "As tuas escolhas",
        "index": 2,
        "completionScreen": {
          "content": "Agora já podes partilhar.\n\n1. Tens valores que se contradizem? \n2. Tenta pensar em estratégias suficientemente boas para os equilibrar"
        },
        "description": "Aprende a tornar a tua bússola mais compreensível, prática e fiel a ti.",
        "time": "40 min",
        "conversations": [
          {
            "conversationId": "gpjsbXwUA8eJLn1nPbRC9",
            "title": "As tuas escolhas"
          }
        ]
      },
      {
        "id": "5a771ac2-d05f-4eec-af37-37b399326f16",
        "name": "Uma vida cheia de cor",
        "index": 3,
        "completionScreen": {
          "content": "Agora já podes partilhar.\n\n1. Olhando para a tua bússola, quais dos teus valores parecem difíceis de seguir? De que forma? \n2. O que perdes por não seguires estes valores?"
        },
        "description": "Esta lição é sobre como te abrires e experienciares verdadeiramente a vida.",
        "time": "40 min",
        "conversations": [
          {
            "conversationId": "T8D5NvrXdZkspWMpGqfPV6",
            "title": "Uma vida cheia de cor"
          }
        ]
      },
      {
        "id": "bea39a23-0d72-4b42-8889-9f70b27330db",
        "name": "Fazer acontecer",
        "index": 4,
        "wip": false,
        "description": "Esta lição é sobre como colocares os teus planos em ação.",
        "time": "40 min",
        "completionScreen": {
          "content": "Parabéns por concluíres o **Fazer acontecer**.\n\nAgora já podes partilhar.\n\n1. Para que objetivo estás a trabalhar?\n2. Que ações estás a aplicar para o fazer acontecer?"
        },
        "conversations": [
          {
            "conversationId": "U3Y8zfaZbq32NKw7VyKFkx",
            "title": "Fazer acontecer"
          }
        ]
      },
      {
        "wip": false,
        "id": "29316145-c41a-4140-bcab-43877c6a14c6",
        "name": "Os obstáculos",
        "time": "40 min",
        "description": "Esta lição é sobre como superar os obstáculos no caminho da vida que desejas.",
        "completionScreen": {
          "content": "Já podes partilhar.\n\n1. Que pequeno passo podes dar em direção ao teu objetivo esta semana?"
        },
        "conversations": [
          {
            "conversationId": "LVcQtZqVqjSEUh69zeJ5u1",
            "title": "Os obstáculos"
          }
        ]
      },
      {
        "wip": false,
        "id": "60f3e116-477a-4ba4-a3c3-da2d07ab9f64",
        "name": "A tua história",
        "time": "40 min",
        "description": "A lição de hoje explora uma forma diferente de olhares para o teu passado.",
        "completionScreen": {
          "content": "Já podes partilhar.\n\n1. Descreve como seria estar totalmente alinhada/o com os teus valores e que ações diárias te ajudariam a alcançá-los."
        },
        "conversations": [
          {
            "conversationId": "4dRrqEWxLSo7DCMrSphd1c",
            "title": "A tua história"
          }
        ]
      }
    ],
    "rating": 4.2,
    "backgroundImageUri": "https://res.cloudinary.com/twentyninek/image/upload/q_auto,t_global/v1621855721/29k%20FJN/Courses/Values/Photos/luisportelaMIRROR_gmuofn.jpg"
  }
}