{
  "en": {
    "title": "Something went wrong!",
    "text": "Oh no! We encountered an error. \nCheck your internet connection and try again.",
    "contact": "If the problem persist please contact",
    "needHelp": "help@29k.org",
    "noEmailClientAlert": {
      "title": "We couldn't detect an email client on your device.",
      "message": "Do you want to copy our email to your clipboard?"
    }
  },
  "sv": {
    "title": "Något gick fel!",
    "text": "Åh, nej! Vi stötte på ett fel. \nKolla din internetanslutning och försök igen.",
    "contact": "Om problemet kvarstår kontakta",
    "needHelp": "help@29k.org"
  },
  "pt": {
    "title": "Alguma coisa correu mal!",
    "text": "Oh, não! Econtrámos um erro. Verifica a tua ligação à Internet e tenta outra vez.",
    "contact": "Se o problema persistir, por favor contacta",
    "noEmailClientAlert": {
      "title": "Não conseguimos encontrar um email de cliente no teu dispositivo.",
      "message": "Queres copiar o teu email para a área de transferência?"
    },
    "needHelp": "help+pt@29k.org"
  }
}