{
  "en": {
    "faq_link_text": "For general questions, please visit",
    "faq_link_anchor_text": "Frequently Asked Questions",
    "guidelines": [
      {
        "content__markdown": "**First, choose someone to facilitate this sharing session.**\n\nThat person isn't responsible for the session, but helps the group remember the time and follow the structure.\n\nSwipe to navigate <--",
        "facilitatorHeader": "",
        "facilitator__markdown": "",
        "chapterIndex": "0"
      },
      {
        "facilitatorHeader": "Facilitator says:",
        "facilitator__markdown": "Welcome to a safe space where we can all listen and be vulnerable.\n\nI would like to remind us all to engage and create the environment we want.\n\nWhat's going on inside of us is okay. We can express our experiences, feelings or thoughts just as they are.",
        "chapterIndex": "0"
      },
      {
        "facilitatorHeader": "Facilitator says:",
        "facilitator__markdown": "During this video sharing, we are all responsible for:\n\n* Participating and sharing.\n* Indicating to others that we are done sharing, for example by saying “Thank you”.\n* Listening and letting others finish. Show that you are listening by keeping your camera on.\n* Keeping what's been said within the group.\n* Trying to understand - not fix or solve others’ problems",
        "content__markdown": "",
        "chapterIndex": "0"
      },
      {
        "facilitatorHeader": "Facilitator says:",
        "facilitator__markdown": "We are now ready to check in to our safe space for sharing.\n\nThe first stage of checking in is to take a minute of silence and deep breathing.\n\nCould someone please set a timer for **1 minute**?",
        "content__markdown": "",
        "chapterIndex": "1"
      },
      {
        "content__markdown": "",
        "chapterIndex": "1",
        "facilitatorHeader": "Facilitator says:",
        "facilitator__markdown": "Each person will now check in by answering the question: *How do you feel?*\n\nAnswer with a word or a short sentence."
      },
      {
        "content__markdown": "",
        "chapterIndex": "2",
        "facilitatorHeader": "Facilitator says:",
        "facilitator__markdown": "Now we are ready to share.\n\nEach person has 5 minutes to share their reflections from the exercises. Remember to thank each person and avoid giving advice.\n\nPlease be mindful of time. We will leave the last 10 minutes before the session ends to have time for check out."
      },
      {
        "facilitatorHeader": "Facilitator says:",
        "facilitator__markdown": "We will now check out from today's session.\n\nEach person has two minutes to answer the question: *What are you grateful for from this sharing?*",
        "chapterIndex": "3"
      },
      {
        "facilitatorHeader": "Facilitator says:",
        "facilitator__markdown": "To finish the call, let's all take a moment to thank each other.\n\nLet's also confirm the date for our next sharing.",
        "chapterIndex": "3"
      }
    ],
    "chapters": [
      {
        "title": "Introduction"
      },
      {
        "title": "Check-in"
      },
      {
        "title": "Share"
      },
      {
        "title": "Check-out"
      }
    ],
    "button_prev_page": "Back",
    "button_next_page": "Next"
  },
  "sv": {
    "faq_link_text": "För vanliga frågor, se",
    "faq_link_anchor_text": "vanliga frågor",
    "guidelines": [
      {
        "content__markdown": "**Börja med att välja en facilitator för gruppdelningen.**\n\nFacilitatorn påminner gruppen om att följa strukturen och hjälper till att hålla koll på tiden.\n\nDu navigerar genom att svajpa <--",
        "chapterIndex": "0",
        "facilitatorHeader": "",
        "facilitator__markdown": ""
      },
      {
        "content__markdown": "",
        "chapterIndex": "0",
        "facilitator__markdown": "Välkommen till en trygg plats där vi lyssnar och kan vara öppna med vad vi verkligen känner.\n\nJag vill påminna oss alla om att engagera oss och skapa en säker miljö.\n\nAllt som pågår inuti oss är okej. Vi kan uttrycka våra upplevelser, känslor och tankar precis som de är.",
        "facilitatorHeader": "Facilitatorn säger:"
      },
      {
        "facilitatorHeader": "Facilitatorn säger:",
        "facilitator__markdown": "Under den här gruppdelningen är vi tillsammans ansvariga för att:\n\n* Delta och dela med oss.\n* Visa andra att vi är färdiga med att dela, exempelvis genom att säga \"Tack\".\n* Lyssna och låta andra tala till punkt. Visa att du lyssnar genom att ha på din kamera.\n* Inte berätta om det som sägs utanför gruppen.\n* Försöka förstå varandra, men inte fixa eller lösa andras problem.",
        "chapterIndex": "0"
      },
      {
        "facilitatorHeader": "Facilitatorn säger:",
        "facilitator__markdown": "Vi är nu redo att sätta igång.\n\nDet första steget i incheckningen är att vi är tysta och andas djupt i en minut.\n\nKan någon ställa en timer på **en minut?**",
        "content__markdown": "",
        "chapterIndex": "1"
      },
      {
        "facilitatorHeader": "Facilitatorn säger:",
        "facilitator__markdown": "Alla checkar nu in genom att svara på frågan: *Hur mår du?*\n\nSvara med ett ord eller en kort mening.",
        "content__markdown": "",
        "chapterIndex": "1"
      },
      {
        "content__markdown": "",
        "chapterIndex": "2",
        "facilitator__markdown": "Vi är nu redo att börja gruppdelningen.\n\nVarje person har **fem minuter** var att dela sina reflektioner från övningarna. Kom ihåg att säga tack och undvika att ge råd.\n\nVar uppmärksam på tiden. Vi lämnar de sista **tio minuterna** innan sessionen avslutas för att ha tid för utcheckning.",
        "facilitatorHeader": "Facilitatorn säger:"
      },
      {
        "content__markdown": "",
        "chapterIndex": "3",
        "facilitatorHeader": "Facilitatorn säger:",
        "facilitator__markdown": "Det är nu dags att checka ut från dagens gruppdelning.\n\nAlla har **två minuter** var på sig att svara på frågan: *Vad är du tacksam för efter att ha deltagit i den här gruppdelningen?*"
      },
      {
        "facilitatorHeader": "Facilitatorn säger:",
        "facilitator__markdown": "Innan vi avslutar samtalet kan vi ta en liten stund för att tacka varandra.\n\nLåt oss också bekräfta datumet för nästa delningstillfälle.",
        "chapterIndex": "3"
      }
    ],
    "chapters": [
      {
        "title": "Introduktion"
      },
      {
        "title": "Checka in"
      },
      {
        "title": "Dela"
      },
      {
        "title": "Checka ut"
      }
    ],
    "button_prev_page": "Tillbaka",
    "button_next_page": "Nästa"
  },
  "pt": {
    "faq_link_text": "Para questões gerais, por favor visita (joseneves.org/)",
    "faq_link_anchor_text": "FAQ's",
    "guidelines": [
      {
        "content__markdown": "**Neste espaço, vais ligar-te a ti e às outras pessoas.**\n\nAs instruções no ecrã ajudar-te-ão a partilhar e a tornar mais profunda a experiência com os outros elementos do grupo.\n\nDesliza para navegar...",
        "facilitatorHeader": "",
        "facilitator__markdown": "",
        "chapterIndex": "0"
      },
      {
        "content__markdown": "**Primeiro, escolhe um membro do grupo para facilitar esta sessão de partilha.**\n\nEssa pessoa não é a responsável pela sessão, mas ajuda o grupo a seguir a estrutura de partilha e a respeitar o tempo.",
        "chapterIndex": "1"
      },
      {
        "facilitatorHeader": "O membro do grupo que está a facilitar a sessão diz:",
        "facilitator__markdown": "Este é o nosso espaço seguro onde todos podemos ouvir e ser vulneráveis.\n\nGostaria de relembrar, a todos nós, a importância de nos envolvermos e criarmos o ambiente que pretendemos, seguindo **três regras** e **três princípios**.",
        "chapterIndex": "1"
      },
      {
        "facilitatorHeader": "O membro do grupo que facilita a sessão diz:",
        "facilitator__markdown": "Alguém pode por favor ler as **três regras** da partilha?",
        "content__markdown": "1. Eu sou um/a co-criador/a responsável pela sessão. O membro do grupo que facilita a sessão apoia mas não lidera.\n2. Eu ouço ativamente mas deixo a pessoa que está a partilhar falar sem interrupções até sinalizar que terminou.\n3. Eu sigo as regras, os princípios e a agenda. Eu prometo manter totalmente confidencial e privado tudo o que é partilhado.",
        "chapterIndex": "1"
      },
      {
        "facilitatorHeader": "O membro do grupo que facilita a sessão diz:",
        "facilitator__markdown": "Alguém pode por favor ler os **três princípios** para nós?",
        "content__markdown": "**1. Tudo é permitido no teu mundo interior**\n\nJulgar o que tu ou os outros sentem como sendo 'bom' ou 'mau' é uma oportunidade de aprendizagem perdida e pode resultar em sentimentos de culpa.\nEm vez disso, celebra as imperfeições como oportunidades de crescimento.",
        "chapterIndex": "1"
      },
      {
        "content__markdown": "**2. Ouve para compreender**\n\nTodos podem contribuir estando totalmente presentes e escutando. Assume a responsabilidade pela forma como te relacionas com tudo.\n\nEncara todos os pensamentos de julgamento e culpabilização como uma oportunidade de praticar ouvir e ser compassiva/o por ti e pelos outros.\n\nAo pensarmos que percebemos tudo, fechamo-nos à aprendizagem e evolução.",
        "chapterIndex": "1"
      },
      {
        "content__markdown": "**3. Mostra-te e partilha**\n\nExpressar o sentimento do que é seres tu é muitas vezes o que mais contribui para uma cura. Para ti e para os outros. Os teus medos e vergonhas assim como os sonhos e desajustes.\n\nTransporta o grupo para um nível de abertura e confiança mais profundo escolhendo expores as tuas vulnerabilidades e partilhando as tuas histórias.",
        "chapterIndex": "1"
      },
      {
        "facilitatorHeader": "O membro do grupo que facilita a sessão diz:",
        "facilitator__markdown": "Alguém tem perguntas para o grupo acerca das regras ou princípios?",
        "chapterIndex": "1"
      },
      {
        "facilitatorHeader": "O membro do grupo que facilita a sessão diz:",
        "facilitator__markdown": "Estamos prontos para fazer a entrada no nosso espaço de partilha.\n\nAlguém pode por favor colocar um alarme para **10 minutos antes do final da sessão**, para termos tempo para fazer uma saída do nosso espaço?",
        "chapterIndex": "2"
      },
      {
        "facilitatorHeader": "O membro do grupo que facilita a sessão diz:",
        "facilitator__markdown": "A primeira fase da entrada é fazermos um minuto de silêncio, respirando de forma profunda.\n\nAlguém pode ativar um cronómetro durante **1 minuto?**",
        "chapterIndex": "2"
      },
      {
        "facilitatorHeader": "O membro do grupo que facilita a sessão diz:",
        "facilitator__markdown": "Cada pessoa fará agora a entrada repondendo a esta pergunta: *Como te sentes?*\n\nResponde com uma palavra ou frase curta.",
        "chapterIndex": "2"
      },
      {
        "facilitatorHeader": "O membro do grupo que facilita a sessão diz:",
        "facilitator__markdown": "Agora estamos prontos para partilhar.\n\n**Quando estiveres a partilhar:**\n\n* Sê consciente do tempo\n* Termina dizendo *obrigada ou obrigado* (mesmo que termines mais cedo)\n\n**Quando estiveres a ouvir:**\n\n* Quando uma pessoa terminar a partilha diz *obrigada ou obrigado*\n* Se quiseres partilhar algo em que pensaste, primeiro pergunta se podes e sê breve\n* Evita assumir a responsabilidade de outra pessoa corrigindo-a ou dando conselhos",
        "chapterIndex": "3"
      },
      {
        "facilitatorHeader": "O membro do grupo que facilita a sessão diz:",
        "facilitator__markdown": "Comecemos a partilha agora.\n\nCada pessoa tem **5 minutos** para partilhar as reflexões sobre os exercícios.\n\nQuem quer ser o primeiro elemento do grupo a iniciar a partilha?",
        "chapterIndex": "3"
      },
      {
        "facilitatorHeader": "O membro do grupo que facilita a sessão diz:",
        "facilitator__markdown": "Vamos agora fazer a saída da sessão de partilha de hoje.\n\nCada pessoa tem dois minutos para responder a esta pergunta: *O que tens a agradecer relativamente a esta partilha?*",
        "chapterIndex": "4"
      },
      {
        "facilitatorHeader": "O membro do grupo que facilita a sessão diz:",
        "facilitator__markdown": "Vou agora ler o testemunho da 29k FJN:\n\n*Crescer como pessoa não significa curar-se ou alcançar algo. Trata-se de viver o momento presente num contacto mais profundo consigo mesmo, com os outros e com o seu ambiente.*\n\n*Esta é a tarefa mais importante, como um processo ao longo da vida que me permite criar um ambiente onde as outras pessoas também possam crescer.*",
        "chapterIndex": "4"
      },
      {
        "facilitatorHeader": "O membro do grupo que facilita a sessão diz:",
        "facilitator__markdown": "Para terminarmos a sessão, vamos reservar um momento para agradecer uns aos outros a partilha de hoje.",
        "chapterIndex": "4"
      }
    ],
    "chapters": [
      {
        "title": "Introdução"
      },
      {
        "title": "Preparação"
      },
      {
        "title": "Entrada"
      },
      {
        "title": "Partilha"
      },
      {
        "title": "Saída"
      }
    ],
    "button_prev_page": "Retornar",
    "button_next_page": "Próximo"
  }
}