{
  "en": {
    "contentTypes": "Types",
    "tests": "Tests",
    "15-30 minutes": "15-30 minutes",
    "searchPlaceholder": "What do you need?",
    "screenTitle": "Search",
    "30+ minutes": "30+ minutes",
    "clear": "Clear filter",
    "showContent__button": "Show content ({{numberOfResults}})",
    "test": "Test",
    "duration": "Duration",
    "meditations": "Meditations",
    "noResults": "No results",
    "1-5 minutes": "1-5 minutes",
    "exercise": "Exercise",
    "courses": "Courses",
    "tags": "Tags",
    "course": "Course",
    "exercises": "Exercises",
    "5-15 minutes": "5-15 minutes",
    "meditation": "Meditation"
  },
  "sv": {
    "contentTypes": "Typer",
    "tests": "Tester",
    "15-30 minutes": "15-30 minuter",
    "searchPlaceholder": "Vad kan vi hjälpa till med?",
    "screenTitle": "Sök",
    "30+ minutes": "30+ minuter",
    "clear": "Rensa filter",
    "showContent__button": "Visa innehåll ({{numberOfResults}})",
    "test": "Test",
    "duration": "Längd",
    "meditations": "Meditationer",
    "noResults": "Tyvärr hittade vi inget",
    "1-5 minutes": "1-5 minuter",
    "exercise": "Övning",
    "courses": "Kurser",
    "tags": "Taggar",
    "course": "Kurs",
    "exercises": "Övningar",
    "5-15 minutes": "5-15 minuter",
    "meditation": "Meditation"
  },
  "pt": {
    "contentTypes": "Tipos",
    "tests": "Testes",
    "15-30 minutes": "15-30 minutos",
    "searchPlaceholder": "Do que precisas?",
    "screenTitle": "Procura",
    "30+ minutes": "30+ minutos",
    "clear": "Limpar filtro",
    "showContent__button": "Mostrar conteúdo ({{numberOfResults}})",
    "test": "Teste",
    "duration": "Duração",
    "meditations": "Meditações",
    "noResults": "Sem resultados",
    "1-5 minutes": "1-5 minutos",
    "exercise": "Exercício",
    "courses": "Cursos",
    "tags": "Tags",
    "course": "Curso",
    "exercises": "Exercícios",
    "5-15 minutes": "5-15 minutos",
    "meditation": "Meditação"
  }
}