{
  "en": {
    "heading__markdown": "# ~~Welcome~~ to 29k!",
    "subtitle": "The mental health app",
    "body__markdown": "We get about 29 000 days to live.\n\n29k offers a personal toolbox and supportive community to help make those days count.",
    "button": "Let's go!",
    "welcomeLogo__image": "https://res.cloudinary.com/twentyninek/image/upload/q_auto,t_global/v1634201608/welcome-logo-2_e7r9qf.png",
    "fjn__image": ""
  },
  "sv": {
    "heading__markdown": "# ~~Välkommen~~ till 29k!",
    "subtitle": "Appen för mental hälsa",
    "body__markdown": "29000. Så många dagar lever vi människor i snitt. Hur vill du få dina att räknas? Hitta verktyg och stöd från andra i 29k-appen.",
    "button": "Nu kör vi!",
    "welcomeLogo__image": "https://res.cloudinary.com/twentyninek/image/upload/q_auto,t_global/v1634201608/welcome-logo-2_e7r9qf.png",
    "fjn__image": ""
  },
  "pt": {
    "heading__markdown": "# ~~Bem-vinda/o~~ à 29k FJN!",
    "subtitle": "A app de saúde mental",
    "body__markdown": "Temos em média cerca de 29.000 dias de vida.\n\nA 29k FJN oferece um conjunto de ferramentas pessoais e uma comunidade de apoio que te ajudam a fazer com que esses dias valham a pena.",
    "button": "Vamos lá!",
    "fjn__image": "https://res.cloudinary.com/twentyninek/image/upload/q_auto,t_global/v1621262547/29k%20FJN/fjn-logotype_xmiide.png",
    "welcomeLogo__image": "https://res.cloudinary.com/twentyninek/image/upload/q_auto,t_global/v1634201608/welcome-logo-2_e7r9qf.png"
  }
}