{
  "en": {
    "segments": [
      "ALL"
    ],
    "name": "How are you feeling?",
    "thumbnail": "https://res.cloudinary.com/twentyninek/image/upload/v1636623949/Illustrations_Exercises/Feeling_Check-in-1_heayxx.png",
    "featured": false,
    "sections": [
      {
        "type": "sharingExercise",
        "enableEarlySkip": false,
        "id": "b4123e20-5b15-471d-924e-c4699c75dd59",
        "question": "How are you feeling?",
        "exampleText": "I'm feeling a bit numb. Long for passion and intensity.",
        "buttonText": "Finish"
      }
    ],
    "duration": {
      "type": "minute",
      "count": 1
    },
    "type": "exercise",
    "id": "3867da58-6579-45da-93e0-c74d3fbfc04c",
    "difficulty": [
      "Beginner"
    ],
    "description": "",
    "wip": false
  },
  "sv": {
    "segments": [
      "ALL"
    ],
    "name": "Hur mår du just nu?",
    "thumbnail": "https://res.cloudinary.com/twentyninek/image/upload/v1636623949/Illustrations_Exercises/Feeling_Check-in-1_heayxx.png",
    "featured": false,
    "sections": [
      {
        "type": "sharingExercise",
        "enableEarlySkip": false,
        "id": "e1af0a93-c1bd-4981-b367-8e1b992e8d56",
        "question": "Hur mår du just nu?",
        "exampleText": "Jag känner mig lite tom. Längtar efter att känna mer.",
        "buttonText": "Avsluta"
      }
    ],
    "duration": {
      "type": "minute",
      "count": 1
    },
    "type": "exercise",
    "id": "3867da58-6579-45da-93e0-c74d3fbfc04c",
    "difficulty": [
      "Beginner"
    ],
    "description": "",
    "wip": false
  },
  "pt": {
    "segments": [
      "ALL"
    ],
    "name": "Como te estás a sentir?",
    "thumbnail": "https://res.cloudinary.com/twentyninek/image/upload/q_auto,t_global/v1636623949/Illustrations_Exercises/Feeling_Check-in-1_heayxx.png",
    "featured": false,
    "sections": [
      {
        "type": "sharingExercise",
        "enableEarlySkip": false,
        "id": "8d40f238-91cb-4b03-943a-649eb966a034",
        "question": "Como te estás a sentir?",
        "exampleText": "Estou-me a sentir um pouco adormecida/o. Anseio por paixão e intensidade.",
        "buttonText": "Terminei"
      }
    ],
    "duration": {
      "type": "minute",
      "count": 1
    },
    "type": "exercise",
    "id": "3867da58-6579-45da-93e0-c74d3fbfc04c",
    "difficulty": [
      "Beginner"
    ],
    "description": "",
    "wip": false
  }
}