{
  "en": {
    "segments": [
      "ALL"
    ],
    "name": "What have you learned about yourself recently?",
    "thumbnail": "https://res.cloudinary.com/twentyninek/image/upload/v1636624072/Illustrations_Exercises/Learned_Check-in_ppfxr0.png",
    "featured": false,
    "sections": [
      {
        "type": "sharingExercise",
        "enableEarlySkip": false,
        "id": "271340da-6cf0-4a50-9bca-20bfe469c5f8",
        "question": "What have you learned about yourself recently?",
        "exampleText": "I've learned that I can handle so much more than I think.",
        "buttonText": "Finish"
      }
    ],
    "duration": {
      "type": "minute",
      "count": 1
    },
    "type": "exercise",
    "id": "ccc5ba50-b72a-4918-bde3-c77e0ea89e07",
    "difficulty": [
      "Beginner"
    ],
    "description": "",
    "wip": false
  },
  "sv": {
    "segments": [
      "ALL"
    ],
    "name": "Vad har du lärt dig om dig själv?",
    "thumbnail": "https://res.cloudinary.com/twentyninek/image/upload/v1636624072/Illustrations_Exercises/Learned_Check-in_ppfxr0.png",
    "featured": false,
    "sections": [
      {
        "type": "sharingExercise",
        "enableEarlySkip": false,
        "id": "365779be-301f-43da-bb98-9652cfc48087",
        "question": "Vad har du lärt dig om dig själv?",
        "exampleText": "Jag har lärt mig att jag klarar av så mycket mer än jag tror.",
        "buttonText": "Avsluta"
      }
    ],
    "duration": {
      "type": "minute",
      "count": 1
    },
    "type": "exercise",
    "id": "ccc5ba50-b72a-4918-bde3-c77e0ea89e07",
    "difficulty": [
      "Beginner"
    ],
    "description": "",
    "wip": false
  },
  "pt": {
    "segments": [
      "ALL"
    ],
    "name": "O que aprendeste recentemente acerca de ti?",
    "thumbnail": "https://res.cloudinary.com/twentyninek/image/upload/q_auto,t_global/v1636624072/Illustrations_Exercises/Learned_Check-in_ppfxr0.png",
    "featured": false,
    "sections": [
      {
        "type": "sharingExercise",
        "enableEarlySkip": false,
        "id": "c6e7e06b-dac8-4038-8b64-13dd41fd6f39",
        "exampleText": "Aprendi que consigo lidar com muito mais coisas do que imaginava.",
        "question": "O que aprendeste recentemente acerca de ti?",
        "buttonText": "Terminei"
      }
    ],
    "duration": {
      "type": "minute",
      "count": 1
    },
    "type": "exercise",
    "id": "ccc5ba50-b72a-4918-bde3-c77e0ea89e07",
    "difficulty": [
      "Beginner"
    ],
    "description": "",
    "wip": false
  }
}