{
  "en": {
    "id": "26ce61f5-115f-484a-ba4c-abba016570b3",

    "root": "section1",
    "sections": [
      {
        "id": "section1",
        "type": "editorialWithImage",
        "alias": "The way out is through",
        "topImageUri": "https://res.cloudinary.com/twentyninek/image/upload/f_auto,q_auto,t_global/v1620303406/Illustrations_Meditations/Heading_The_way_out_is_through_yompqy.png",
        "title": "The way out is through",
        "content": "*8 minutes*\n\nThis meditation helps you experience everything you are going through right now, knowing that the only way out is through.",
        "buttons": [
          {
            "component": "Button",
            "content": "Let’s meditate",
            "sectionId": "section2"
          }
        ]
      },
      {
        "id": "section2",
        "type": "audio",
        "title": "Meditation",
        "description": "8 minute meditation",
        "audioUri": "https://storage.googleapis.com/k-org-879a8.appspot.com/audio/yg_self_compassion/self_care_tool/yogagirl_meditation_Lesson_04_SOS_meditation.mp3",
        "buttons": [
          {
            "component": "Button",
            "content": "Continue",
            "sectionId": "87efd6cd-e9e2-433b-8f6a-b869dd17eda9"
          }
        ],
        "alias": "section2",
        "duration": "8:06"
      },
      {
        "type": "sharingExercise",
        "previewSharings": true,
        "enableEarlySkip": true,
        "id": "87efd6cd-e9e2-433b-8f6a-b869dd17eda9",
        "alias": "sharing wall",
        "question": "Please describe your experience while doing this meditation!",
        "exampleText": "It was hard, but it also made me feel more comfortable.",
        "nextSection": "section3"
      },
      {
        "id": "section3",
        "type": "editorialWithImage",
        "alias": "Well done!",
        "topImageUri": "https://res.cloudinary.com/twentyninek/image/upload/f_auto,q_auto,t_global/v1620303395/Illustrations_Meditations/Heading_Slow_full_breathing_jplpve.png",
        "title": "Well done!",
        "content": "Well done for completing this meditation.\n\nWhile you can’t prevent suffering and discomfort from happening, you can use your breath as an anchor to stay present and connected in challenging times.",
        "buttons": [
          {
            "component": "ExerciseCompleteButton",
            "content": "Finish"
          }
        ]
      }
    ],
    "alias": "Meditation The way out is through"
  },
  "sv": {
    "id": "26ce61f5-115f-484a-ba4c-abba016570b3",

    "root": "section1",
    "sections": [
      {
        "id": "section1",
        "type": "editorialWithImage",
        "alias": "Vägen ut är genom",
        "topImageUri": "https://storage.googleapis.com/k-org-879a8.appspot.com/images/exercises/26ce61f5-115f-484a-ba4c-abba016570b3/The%20way%20out%20is%20through.jpg",
        "title": "Vägen ut är genom",
        "content": "* 06: 58 minuter *\n\nDenna meditation hjälper dig att uppleva allt du går igenom just nu, med vetskap om att den enda vägen ut är genom.",
        "buttons": [
          {
            "component": "Button",
            "content": "Låt oss meditera",
            "sectionId": "section2"
          }
        ]
      },
      {
        "id": "section2",
        "type": "audio",
        "title": "Meditation",
        "description": "8 minuters meditation",
        "audioUri": "https://storage.googleapis.com/k-org-879a8.appspot.com/audio/yg_self_compassion/self_care_tool/yogagirl_meditation_Lesson_04_SOS_meditation.mp3",
        "buttons": [
          {
            "component": "Button",
            "content": "Fortsätta",
            "sectionId": "section3"
          }
        ]
      },
      {
        "id": "section3",
        "type": "editorialWithImage",
        "alias": "Bra gjort!",
        "topImageUri": "https://storage.googleapis.com/k-org-879a8.appspot.com/images/exercises/26ce61f5-115f-484a-ba4c-abba016570b3/photo-1510024161681-8a1f66ed1a25.jpg",
        "title": "Bra gjort!",
        "content": "Bra gjort för att slutföra denna meditation.\n\nÄven om du inte kan förhindra att lidande och obehag inträffar, kan du använda din andedräkt som ett ankare för att hålla dig närvarande och ansluten i utmanande tider.",
        "buttons": [
          {
            "component": "ExerciseCompleteButton",
            "content": "Avsluta"
          }
        ]
      }
    ],
    "alias": "Meditation The way out is through"
  },
  "pt": {
    "id": "26ce61f5-115f-484a-ba4c-abba016570b3",

    "root": "section1",
    "sections": [
      {
        "id": "section1",
        "type": "editorialWithImage",
        "alias": "A única saída é ultrapassar os desafios",
        "topImageUri": "https://res.cloudinary.com/twentyninek/image/upload/f_auto,q_auto,t_global/v1620303406/Illustrations_Meditations/Heading_The_way_out_is_through_yompqy.png",
        "title": "A única saída é ultrapassar os desafios",
        "content": "*08:30 minutos*\n\nEsta meditação ajuda-te a vivenciar tudo aquilo por que estás a passar agora, sabendo que a única saída é ultrapassar todos os desafios.",
        "buttons": [
          {
            "component": "Button",
            "content": "Vamos meditar",
            "sectionId": "section2"
          }
        ]
      },
      {
        "id": "section2",
        "type": "audio",
        "title": "Meditação",
        "description": "8:30 minutos",
        "audioUri": "https://res.cloudinary.com/twentyninek/video/upload/q_auto,t_global/v1621429300/29k%20FJN/Meditations/Pedro%20Final/Medita%C3%A7%C3%B5es_02_-_The_Way_out_is_through___Self_Care_kb8ts2.mp3",
        "buttons": [
          {
            "component": "Button",
            "content": "Continuar",
            "sectionId": "798f3ad4-3790-4559-ba93-75838c972903"
          }
        ]
      },
      {
        "type": "sharingExercise",
        "previewSharings": true,
        "enableEarlySkip": true,
        "id": "798f3ad4-3790-4559-ba93-75838c972903",
        "alias": "sharing wall",
        "question": "Por favor descreve o que sentiste durante a meditação. ",
        "exampleText": "Foi difícil, mas fez-me sentir mais confortável",
        "nextSection": "section3"
      },
      {
        "id": "section3",
        "type": "editorialWithImage",
        "alias": "Parabéns!",
        "topImageUri": "https://res.cloudinary.com/twentyninek/image/upload/f_auto,q_auto,t_global/v1620303395/Illustrations_Meditations/Heading_Slow_full_breathing_jplpve.png",
        "title": "Parabéns!",
        "content": "Parabéns por concluíres esta meditação.\n\nEmbora não possas evitar que o sofrimento e o desconforto aconteçam, podes usar a tua respiração como uma âncora para te manteres presente e conectado nas alturas difíceis.",
        "buttons": [
          {
            "component": "ExerciseCompleteButton",
            "content": "Terminar"
          }
        ]
      }
    ],
    "alias": "Meditation The way out is through"
  }
}
