{
  "en": {
    "id": "6b897f77-80e7-4427-9343-8f64702323fa",
    "alias": "Stress YA: How to continue managing stress 1",
    "root": "806ea92c-70e2-4d98-8761-d6902609b0c9",
    "sections": [
      {
        "type": "editorialWithImage",
        "id": "806ea92c-70e2-4d98-8761-d6902609b0c9",
        "alias": "A less stressful life",
        "title": "",
        "content": "Throughout this course you've become **equipped** with life-long **tools** for dealing with stress. \n\nBut the journey has only just **begun**! \n\nSince stress is a **natural** **reaction** to a perceived threat, the goal is not to be **completely** **free** from stress.",
        "buttons": [
          {
            "component": "Button",
            "content": "Next",
            "sectionId": "8ca823df-0d9d-4c98-80f7-6251ea17360c"
          }
        ],
        "topImageUri": "https://storage.googleapis.com/k-org-879a8.appspot.com/images/ya_stress/outro_header.png"
      },
      {
        "type": "editorialWithImage",
        "id": "8ca823df-0d9d-4c98-80f7-6251ea17360c",
        "alias": "Intro 2",
        "buttons": [
          {
            "component": "Button",
            "variant": "default",
            "content": "I'm ready",
            "sectionId": "85ae10df-3e78-40ac-993a-711d7f1d7698"
          }
        ],
        "content": "By practicing your new tools time and again, you're continuing to take steps towards the life you want to live.\n\nThis final lesson invites you to **reflect** on your **journey** thus far and **set** your **goals** for how you want to continue going forward."
      },
      {
        "type": "editorialWithImage",
        "id": "85ae10df-3e78-40ac-993a-711d7f1d7698",
        "content": "### In this lesson you will recap and learn:\n\n* What is stress\n* Being here and now\n* Changing what doesn’t work\n* Saying yes and no\n* Dealing with stress going forward",
        "title": "",
        "buttons": [
          {
            "component": "Button",
            "content": "Let's go",
            "sectionId": "b94c8200-6b28-433b-a482-e0bff46d0b06"
          }
        ],
        "alias": "Table of Contents"
      },
      {
        "type": "editorialWithImage",
        "id": "b94c8200-6b28-433b-a482-e0bff46d0b06",
        "content": "Stress is an ancient **reaction** that activates our **body** and **brain**. \n\nStress in itself isn’t dangerous. **Short-term stress** in small doses can actually be our friend as it mobilizes us to take action. It's the **long-term stress** and our **lack** **of recovery** that we need to watch out for.",
        "title": "Lesson 1: What is stress",
        "alias": "Lesson 1: What is stress",
        "buttons": [
          {
            "component": "Button",
            "content": "Next",
            "sectionId": "f7041efe-872f-4da7-875a-308f82ac0097"
          }
        ]
      },
      {
        "type": "editorialWithImage",
        "id": "f7041efe-872f-4da7-875a-308f82ac0097",
        "content": "Our **brain** is designed to constantly absorb **information** and think **negatively**. When we‘re stressed, we often think in future terms. \n\nThis makes being **present** in the moment **difficult**. It's common to **struggle** **with** staying **focused** as our thoughts easily wanders off.",
        "title": "Lesson 2: Being here and now",
        "alias": "Lesson 2: Being here and now",
        "buttons": [
          {
            "component": "Button",
            "content": "Next",
            "sectionId": "e515d22f-eabf-4b90-bb94-2941b964363f"
          }
        ]
      },
      {
        "type": "editorialWithImage",
        "id": "e515d22f-eabf-4b90-bb94-2941b964363f",
        "content": "The good news is that we can **train** our **focus** muscles. By focusing on what's happening **here and now**, we become better at creating a healthy **distance** to our thoughts.\n\nThis helps us see our thoughts for what they're — thoughts. No matter the thought, we can **choose** how we want to **act**. \\\n\\\nIn other words, the ability to focus on the present moment is about creating more **freedom**.",
        "alias": "Lesson 2: Being here and now 2",
        "buttons": [
          {
            "component": "Button",
            "content": "Next",
            "sectionId": "5bd1de06-44d1-4613-9dc3-eaee70c161d6"
          }
        ]
      },
      {
        "type": "editorialWithImage",
        "id": "5bd1de06-44d1-4613-9dc3-eaee70c161d6",
        "title": "Lesson 3: Change what's not working",
        "alias": "Lesson 3: change what doesn't work",
        "content": "We ​​face many stressful and difficult situations throughout our lives. It’s **impossible to avoid** them, no matter how hard we try.\n\nWhen we’re stressed, things can feel overwhelming, making it difficult to come up with possible solutions. But there are many situations where we can make **changes** and **solve problems.**",
        "buttons": [
          {
            "component": "Button",
            "content": "Continue",
            "sectionId": "40b18095-433a-4caa-857c-60763a88be02"
          }
        ]
      },
      {
        "type": "editorialWithImage",
        "id": "40b18095-433a-4caa-857c-60763a88be02",
        "content": "**Steps to structured problem-solving:**\n\n* Clearly define a problem\n* Come up with possible solutions\n* Evaluate the proposals with 0-10\n* Plan how to implement the best solution and see how it worked",
        "alias": "Lesson 3: Change what doesn't work 2",
        "buttons": [
          {
            "component": "Button",
            "content": "Next",
            "sectionId": "05dc4c02-d752-4a18-960e-6fb0f0d500f3"
          }
        ]
      },
      {
        "type": "editorialWithImage",
        "id": "05dc4c02-d752-4a18-960e-6fb0f0d500f3",
        "alias": "Lesson 4: Saying no — and yes",
        "title": "Lesson four: Saying no — and yes",
        "content": "The ability to **say no** is an important skill and a way of taking care of ourselves, especially when we are stressed.\n\nBut saying no can be **scary** and something we’re **not** **used** **to**. That’s why it can help to think of situations in which you would like to say no more often and how to do it.",
        "buttons": [
          {
            "component": "Button",
            "content": "Next",
            "sectionId": "51fe5ce0-a21e-42e0-88eb-4e50bfa302fe"
          }
        ]
      },
      {
        "type": "defaultSection",
        "id": "51fe5ce0-a21e-42e0-88eb-4e50bfa302fe",
        "content": [
          {
            "component": "TextGroup",
            "content": [
              {
                "component": "Text",
                "content": "Just as we need to practice saying no to certain things, we need to **say yes** to other things that **matter** to us.\n\nInstead of adding to your schedule, see if you can **swap** some of your activities so that you do more of what you like and feel good about, without getting more busy."
              }
            ]
          },
          {
            "component": "ButtonGroup",
            "content": [
              {
                "component": "NextConversationButton",
                "content": "Continue",
                "conversationId": "95bcceaf-37fe-4414-84a3-694991aac799",
                "variant": "primary"
              }
            ]
          }
        ],
        "alias": "Lesson four: Saying no — and yes 2"
      }
    ]
  },
  "sv": {
    "id": "6b897f77-80e7-4427-9343-8f64702323fa",
    "sections": [
      {
        "type": "editorialWithImage",
        "id": "806ea92c-70e2-4d98-8761-d6902609b0c9",
        "alias": "Ett mindre stressigt liv",
        "title": "",
        "content": "Under kursens gång har du blivit **utrustad** med **verktyg** för att hantera stress. Verktyg du kan bära med dig under resten av ditt liv.\n\nMen resan har bara **börjat**!\n\nEftersom stress är en **naturlig** **reaktion** på ett upplevt hot, är målet inte att bli **helt** **fri** från stress.",
        "buttons": [
          {
            "component": "Button",
            "content": "Nästa",
            "sectionId": "64e4a9f6-9eae-4e95-953f-ff102e4eb40e"
          }
        ],
        "topImageUri": "https://storage.googleapis.com/k-org-879a8.appspot.com/images/ya_stress/outro_header.png"
      },
      {
        "type": "editorialWithImage",
        "id": "64e4a9f6-9eae-4e95-953f-ff102e4eb40e",
        "alias": "Intro 2",
        "buttons": [
          {
            "component": "Button",
            "variant": "default",
            "content": "Jag är redo",
            "sectionId": "85ae10df-3e78-40ac-993a-711d7f1d7698"
          }
        ],
        "content": "Genom att öva på dina verktyg om och om igen, fortsätter du ta steg mot det liv du vill leva.\n\nI den här sista lektionen uppmanar vi dig att **reflektera** över din **resa** hittills. Du kommer också få sätta **mål** för hur du vill fortsätta arbeta med att hantera stress framöver."
      },
      {
        "type": "editorialWithImage",
        "id": "85ae10df-3e78-40ac-993a-711d7f1d7698",
        "content": "### I den här lektionen får du repetera och lära dig:\n\n* Stress – så funkar det\n* Att vara här och nu\n* Förändra det som inte fungerar \n* Att säga ja — och nej\n* Hur du fortsätter öva på att hantera stress",
        "title": "",
        "buttons": [
          {
            "component": "Button",
            "content": "Sätt igång",
            "sectionId": "b94c8200-6b28-433b-a482-e0bff46d0b06"
          }
        ],
        "alias": "Table of Contents"
      },
      {
        "type": "editorialWithImage",
        "id": "b94c8200-6b28-433b-a482-e0bff46d0b06",
        "content": "Stress är en uråldrig **reaktion** som aktiverar **kroppen** och **hjärnan**. \n\nStress i sig självt är inte farligt. **Kortvarig stress** i lagom doser gör oss redo att agera, och är på så sätt faktiskt vår vän. Det är **långvarig stress** och en **brist på återhämtning** som vi behöver se upp för.",
        "title": "Lektion ett: Stress — så funkar det",
        "alias": "Lektion 1: Stress — så funkar det",
        "buttons": [
          {
            "component": "Button",
            "content": "Fortsätt",
            "sectionId": "f7041efe-872f-4da7-875a-308f82ac0097"
          }
        ]
      },
      {
        "type": "editorialWithImage",
        "id": "f7041efe-872f-4da7-875a-308f82ac0097",
        "content": "Vår hjärna är byggd för att hela tiden ta in **information** och tänka **negativt**. När vi är stressade befinner, vi oss ofta i framtiden. \n\nDå blir det extra svårt att vara **närvarande** i stunden. Det är vanligt att vi istället **tappar fokus** och börjar tänka på annat.",
        "title": "Lektion två: Att vara här och nu",
        "alias": "Lektion 2: Att vara här och nu",
        "buttons": [
          {
            "component": "Button",
            "content": "Nästa",
            "sectionId": "e515d22f-eabf-4b90-bb94-2941b964363f"
          }
        ]
      },
      {
        "type": "editorialWithImage",
        "id": "e515d22f-eabf-4b90-bb94-2941b964363f",
        "content": "Det positiva är att det går att **träna upp** våra **fokus**-muskler. Genom att öva vår förmåga att fokusera på det som sker **här och nu** blir vi bättre och bättre på att skapa **distans** till våra tankar. \n\nDet hjälper oss se att **tankar bara är tankar**. Oavsett vad tankarna innehåller kan vi alltid **välja** hur vi vill **agera**.\n\nMed andra ord handlar förmågan att fokusera på nuet om att skapa större **frihet**.",
        "alias": "Lektion 2: Att vara här och nu 2",
        "buttons": [
          {
            "component": "Button",
            "content": "Fortsätt",
            "sectionId": "5bd1de06-44d1-4613-9dc3-eaee70c161d6"
          }
        ]
      },
      {
        "type": "editorialWithImage",
        "id": "5bd1de06-44d1-4613-9dc3-eaee70c161d6",
        "title": "Lektion tre: Förändra det som inte fungerar",
        "alias": "Lektion 3: Förändra det som inte fungerar",
        "content": "Vi möter många stressande och jobbiga situationer i livet. Det **går inte att undvika,** hur mycket vi än försöker. \n\nNär vi är stressade kan våra problem kännas överväldigande, och det kan verka svårt att komma på möjliga lösningar. Men det finns situationer där vi kan göra förändringar. Där vi kan  **problemlösa**.",
        "buttons": [
          {
            "component": "Button",
            "content": "Fortsätt",
            "sectionId": "40b18095-433a-4caa-857c-60763a88be02"
          }
        ]
      },
      {
        "type": "editorialWithImage",
        "id": "40b18095-433a-4caa-857c-60763a88be02",
        "content": "**Strukturerad problemlösning går ut på att:** \n\n* Tydligt definiera problemet\n* Komma på tänkbara lösningar\n* Utvärdera förslagen med 0-10\n* Planera in att testa den valda lösningen och se hur den fungerade",
        "alias": "Lektion 3: Förändra det som inte fungerar 2",
        "buttons": [
          {
            "component": "Button",
            "content": "Nästa",
            "sectionId": "05dc4c02-d752-4a18-960e-6fb0f0d500f3"
          }
        ]
      },
      {
        "type": "editorialWithImage",
        "id": "05dc4c02-d752-4a18-960e-6fb0f0d500f3",
        "alias": "Lektion 4: Att säga nej — och ja",
        "title": "Lektion fyra: Att säga nej — och ja",
        "content": "Förmågan att **säga nej** är en viktig färdighet för att ta hand om oss, särskilt när vi är stressade. \n\nMen att säga nej kan vara **läskigt** och **ovant**. Därför kan det vara hjälpsamt att fundera över vilka situationer du skulle må bra av att säga nej till och hur det ska gå till.",
        "buttons": [
          {
            "component": "Button",
            "content": "Nästa",
            "sectionId": "51fe5ce0-a21e-42e0-88eb-4e50bfa302fe"
          }
        ]
      },
      {
        "type": "defaultSection",
        "id": "51fe5ce0-a21e-42e0-88eb-4e50bfa302fe",
        "content": [
          {
            "component": "TextGroup",
            "content": [
              {
                "component": "Text",
                "content": "Precis som vi behöver öva på att säga nej till vissa saker, behöver vi **säga ja** till saker vi faktiskt **vill** **göra** och **mår** **bra** av.\n\nIstället för att bygga på ditt schema, se om du kan byta ut aktiviteter så att du gör mer av det du tycker om och mår bra av — utan att få ett ännu mer fullspäckat schema."
              }
            ]
          },
          {
            "component": "ButtonGroup",
            "content": [
              {
                "component": "NextConversationButton",
                "content": "Fortsätt",
                "conversationId": "95bcceaf-37fe-4414-84a3-694991aac799",
                "variant": "primary"
              }
            ]
          }
        ],
        "alias": "z"
      }
    ],
    "alias": "Stress YA: How to continue managing stress 1",
    "root": "806ea92c-70e2-4d98-8761-d6902609b0c9"
  },
  "pt": {
    "id": "6b897f77-80e7-4427-9343-8f64702323fa",
    "alias": "Stress YA: How to continue managing stress 1",
    "root": "806ea92c-70e2-4d98-8761-d6902609b0c9",
    "sections": [
      {
        "type": "editorialWithImage",
        "id": "806ea92c-70e2-4d98-8761-d6902609b0c9",
        "alias": "A less stressful life",
        "title": "",
        "content": "Throughout this course you've become **equipped** with life-long **tools** for dealing with stress. \n\nBut the journey has only just **begun**! \n\nSince stress is a **natural** **reaction** to a perceived threat, the goal is not to be **completely** **free** from stress.",
        "buttons": [
          {
            "component": "Button",
            "content": "Next",
            "sectionId": "8ca823df-0d9d-4c98-80f7-6251ea17360c"
          }
        ],
        "topImageUri": "https://storage.googleapis.com/k-org-879a8.appspot.com/images/ya_stress/outro_header.png"
      },
      {
        "type": "editorialWithImage",
        "id": "8ca823df-0d9d-4c98-80f7-6251ea17360c",
        "alias": "Intro 2",
        "buttons": [
          {
            "component": "Button",
            "variant": "default",
            "content": "I'm ready",
            "sectionId": "85ae10df-3e78-40ac-993a-711d7f1d7698"
          }
        ],
        "content": "By practicing your new tools time and again, you're continuing to take steps towards the life you want to live.\n\nThis final lesson invites you to **reflect** on your **journey** thus far and **set** your **goals** for how you want to continue going forward."
      },
      {
        "type": "editorialWithImage",
        "id": "85ae10df-3e78-40ac-993a-711d7f1d7698",
        "content": "### In this lesson you will recap and learn:\n\n* What is stress\n* Being here and now\n* Changing what doesn’t work\n* Saying yes and no\n* Dealing with stress going forward",
        "title": "",
        "buttons": [
          {
            "component": "Button",
            "content": "Let's go",
            "sectionId": "b94c8200-6b28-433b-a482-e0bff46d0b06"
          }
        ],
        "alias": "Table of Contents"
      },
      {
        "type": "editorialWithImage",
        "id": "b94c8200-6b28-433b-a482-e0bff46d0b06",
        "content": "Stress is an ancient **reaction** that activates our **body** and **brain**. \n\nStress in itself isn’t dangerous. **Short-term stress** in small doses can actually be our friend as it mobilizes us to take action. It's the **long-term stress** and our **lack** **of recovery** that we need to watch out for.",
        "title": "Lesson 1: What is stress",
        "alias": "Lesson 1: What is stress",
        "buttons": [
          {
            "component": "Button",
            "content": "Next",
            "sectionId": "f7041efe-872f-4da7-875a-308f82ac0097"
          }
        ]
      },
      {
        "type": "editorialWithImage",
        "id": "f7041efe-872f-4da7-875a-308f82ac0097",
        "content": "Our **brain** is designed to constantly absorb **information** and think **negatively**. When we‘re stressed, we often think in future terms. \n\nThis makes being **present** in the moment **difficult**. It's common to **struggle** **with** staying **focused** as our thoughts easily wanders off.",
        "title": "Lesson 2: Being here and now",
        "alias": "Lesson 2: Being here and now",
        "buttons": [
          {
            "component": "Button",
            "content": "Next",
            "sectionId": "e515d22f-eabf-4b90-bb94-2941b964363f"
          }
        ]
      },
      {
        "type": "editorialWithImage",
        "id": "e515d22f-eabf-4b90-bb94-2941b964363f",
        "content": "The good news is that we can **train** our **focus** muscles. By focusing on what's happening **here and now**, we become better at creating a healthy **distance** to our thoughts.\n\nThis helps us see our thoughts for what they're — thoughts. No matter the thought, we can **choose** how we want to **act**. \\\n\\\nIn other words, the ability to focus on the present moment is about creating more **freedom**.",
        "alias": "Lesson 2: Being here and now 2",
        "buttons": [
          {
            "component": "Button",
            "content": "Next",
            "sectionId": "5bd1de06-44d1-4613-9dc3-eaee70c161d6"
          }
        ]
      },
      {
        "type": "editorialWithImage",
        "id": "5bd1de06-44d1-4613-9dc3-eaee70c161d6",
        "title": "Lesson 3: Change what's not working",
        "alias": "Lesson 3: change what doesn't work",
        "content": "We ​​face many stressful and difficult situations throughout our lives. It’s **impossible to avoid** them, no matter how hard we try.\n\nWhen we’re stressed, things can feel overwhelming, making it difficult to come up with possible solutions. But there are many situations where we can make **changes** and **solve problems.**",
        "buttons": [
          {
            "component": "Button",
            "content": "Continue",
            "sectionId": "40b18095-433a-4caa-857c-60763a88be02"
          }
        ]
      },
      {
        "type": "editorialWithImage",
        "id": "40b18095-433a-4caa-857c-60763a88be02",
        "content": "**Steps to structured problem-solving:**\n\n* Clearly define a problem\n* Come up with possible solutions\n* Evaluate the proposals with 0-10\n* Plan how to implement the best solution and see how it worked",
        "alias": "Lesson 3: Change what doesn't work 2",
        "buttons": [
          {
            "component": "Button",
            "content": "Next",
            "sectionId": "05dc4c02-d752-4a18-960e-6fb0f0d500f3"
          }
        ]
      },
      {
        "type": "editorialWithImage",
        "id": "05dc4c02-d752-4a18-960e-6fb0f0d500f3",
        "alias": "Lesson 4: Saying no — and yes",
        "title": "Lesson four: Saying no — and yes",
        "content": "The ability to **say no** is an important skill and a way of taking care of ourselves, especially when we are stressed.\n\nBut saying no can be **scary** and something we’re **not** **used** **to**. That’s why it can help to think of situations in which you would like to say no more often and how to do it.",
        "buttons": [
          {
            "component": "Button",
            "content": "Next",
            "sectionId": "51fe5ce0-a21e-42e0-88eb-4e50bfa302fe"
          }
        ]
      },
      {
        "type": "defaultSection",
        "id": "51fe5ce0-a21e-42e0-88eb-4e50bfa302fe",
        "content": [
          {
            "component": "TextGroup",
            "content": [
              {
                "component": "Text",
                "content": "Just as we need to practice saying no to certain things, we need to **say yes** to other things that **matter** to us.\n\nInstead of adding to your schedule, see if you can **swap** some of your activities so that you do more of what you like and feel good about, without getting more busy."
              }
            ]
          },
          {
            "component": "ButtonGroup",
            "content": [
              {
                "component": "NextConversationButton",
                "content": "Continue",
                "conversationId": "95bcceaf-37fe-4414-84a3-694991aac799",
                "variant": "primary"
              }
            ]
          }
        ],
        "alias": "Lesson four: Saying no — and yes 2"
      }
    ]
  }
}
