{
  "en": {
    "id": "9eea2a9f-cebf-4947-a7f8-f2483ff5f98d",
    "alias": "Stress YA: Being here and now 3",
    "root": "c7525006-f0ae-42f1-b372-381dcdef21c7",
    "sections": [
      {
        "type": "editorialWithImage",
        "id": "c7525006-f0ae-42f1-b372-381dcdef21c7",
        "content": "Next up is an exercise where you'll get to look further into a situation when you were stressed and not present in the moment.",
        "alias": "Intro",
        "topImageUri": "",
        "buttons": [
          {
            "component": "Button",
            "content": "Continue",
            "sectionId": "41523d97-b005-48e1-891a-0cd1a8ad7fd6"
          }
        ]
      },
      {
        "type": "defaultSection",
        "id": "41523d97-b005-48e1-891a-0cd1a8ad7fd6",
        "alias": "Videos",
        "content": [
          {
            "component": "VideoStories",
            "content": [
              {
                "title": "Ilaria",
                "videoUri": "https://res.cloudinary.com/twentyninek/video/upload/v1616064556/Hantera%20Stress%20YA/Lesson%202/ilaria_zzdrik.mp4",
                "duration": 37,
                "imageUri": "https://res.cloudinary.com/twentyninek/video/upload/v1616064556/Hantera%20Stress%20YA/Lesson%202/ilaria_zzdrik.png",
                "subtitleUri": "https://res.cloudinary.com/twentyninek/raw/upload/q_auto,t_global/v1623757787/Hantera%20Stress%20YA/subtitles/Fra%CC%8Aga_2-ilaria-en_pnltgr.vtt"
              },
              {
                "title": "Max",
                "duration": 46,
                "videoUri": "https://res.cloudinary.com/twentyninek/video/upload/v1616064569/Hantera%20Stress%20YA/Lesson%202/max_aujza7.mp4",
                "imageUri": "https://res.cloudinary.com/twentyninek/video/upload/v1616064569/Hantera%20Stress%20YA/Lesson%202/max_aujza7.png",
                "subtitleUri": "https://res.cloudinary.com/twentyninek/raw/upload/q_auto,t_global/v1623757830/Hantera%20Stress%20YA/subtitles/Fra%CC%8Aga_2-max-en_rm1ief.vtt"
              },
              {
                "title": "Saga",
                "duration": 57,
                "videoUri": "https://res.cloudinary.com/twentyninek/video/upload/v1616064579/Hantera%20Stress%20YA/Lesson%202/saga_h1mqux.mp4",
                "imageUri": "https://res.cloudinary.com/twentyninek/video/upload/v1616064579/Hantera%20Stress%20YA/Lesson%202/saga_h1mqux.png",
                "subtitleUri": "https://res.cloudinary.com/twentyninek/raw/upload/q_auto,t_global/v1623757865/Hantera%20Stress%20YA/subtitles/Fra%CC%8Aga_2-saga-en_wpwnvm.vtt"
              }
            ]
          },
          {
            "component": "ButtonGroup",
            "content": [
              {
                "component": "Button",
                "content": "Next",
                "sectionId": "69a58efa-d7a6-4b33-96c6-9e91747a51ff"
              }
            ]
          }
        ]
      },
      {
        "type": "defaultSection",
        "id": "69a58efa-d7a6-4b33-96c6-9e91747a51ff",
        "content": [
          {
            "component": "TextGroup",
            "content": [
              {
                "component": "Text",
                "content": "# **Exercise**\n\nWrite down all your answers.\n\n1. Describe a situation when you were **stressed**, did something **impulsive** or **automatic** and the results didn't turn out good.\n\n*For example: I said something I then regretted, avoided doing something that felt uncomfortable, said yes even though I wanted to say no.*"
              }
            ]
          },
          {
            "component": "ButtonGroup",
            "content": [
              {
                "component": "Button",
                "content": "Done",
                "sectionId": "9aac9201-3959-4aab-a263-c4e5e6fe1b6c"
              }
            ]
          }
        ],
        "alias": "Exercise"
      },
      {
        "type": "editorialWithImage",
        "id": "9aac9201-3959-4aab-a263-c4e5e6fe1b6c",
        "alias": "Exercise part 2",
        "buttons": [
          {
            "component": "Button",
            "content": "Next",
            "sectionId": "2d21dcbd-f5e9-4d5e-8567-863c22ee76d3"
          }
        ],
        "content": "2. What would you do **differently** if you were more **present** in that moment? How do you **wish** to have **acted** **instead**?\n\n   *For example: I would think things through before saying something, not avoiding the situation just because it feels awkward, say no.*"
      },
      {
        "type": "writing",
        "id": "2d21dcbd-f5e9-4d5e-8567-863c22ee76d3",
        "alias": "Exercise part 3",
        "longDescription": "3. Look back at your answers. What can you do **differently** the **next** **time** when you feel stressed? \n\n*For example: take five breaths to have time to think before I act, say yes to the invitation, talk to a friend, ask for advice.*",
        "buttons": [
          {
            "component": "Button",
            "content": "Done",
            "sectionId": "ee211fa6-6382-46cd-8a31-8a1c47698fdb"
          }
        ]
      },
      {
        "type": "editorialWithImage",
        "id": "ee211fa6-6382-46cd-8a31-8a1c47698fdb",
        "title": "Well done!",
        "content": "You’ve now completed **Being here and now**.\n\nYou’ve learned more about how our brain is **designed** to constantly come up with new, often negative, thoughts. And that it’s possible to train your brain to see thoughts for what they are — **just thoughts.**\n\nIt’s **normal** for **minds** to **wander** off. With practice, we can become better at being **here and now**. It helps us choose how we want to behave instead of reacting automatically and impulsively.",
        "buttons": [
          {
            "component": "LessonCompleteButton",
            "content": "I'm done"
          }
        ],
        "alias": "Good job!"
      }
    ]
  },
  "sv": {
    "id": "9eea2a9f-cebf-4947-a7f8-f2483ff5f98d",
    "alias": "Stress YA: Being here and now 3",
    "root": "a3b3df4f-a764-455b-9e8c-ff5ac883637a",
    "sections": [
      {
        "type": "defaultSection",
        "id": "a3b3df4f-a764-455b-9e8c-ff5ac883637a",
        "alias": "Intro",
        "content": [
          {
            "component": "TextGroup",
            "content": [
              {
                "component": "Text",
                "content": "Vi ska nu fortsätta med nästa övning som handlar om en situation där du var stressad och inte närvarande i stunden."
              }
            ]
          },
          {
            "component": "ButtonGroup",
            "content": [
              {
                "component": "Button",
                "sectionId": "d746bf59-428f-4b9c-87c8-7e2004ea4b9c",
                "content": "Fortsätt"
              }
            ]
          }
        ]
      },
      {
        "type": "defaultSection",
        "id": "d746bf59-428f-4b9c-87c8-7e2004ea4b9c",
        "alias": "Videos",
        "content": [
          {
            "component": "VideoStories",
            "content": [
              {
                "title": "Ilaria",
                "videoUri": "https://res.cloudinary.com/twentyninek/video/upload/v1616064556/Hantera%20Stress%20YA/Lesson%202/ilaria_zzdrik.mp4",
                "duration": 37,
                "imageUri": "https://res.cloudinary.com/twentyninek/video/upload/v1616064556/Hantera%20Stress%20YA/Lesson%202/ilaria_zzdrik.png",
                "subtitleUri": "https://res.cloudinary.com/twentyninek/raw/upload/q_auto,t_global/v1621603057/Hantera%20Stress%20YA/subtitles/Fra%CC%8Aga_2-ilaria_ewd8tb.vtt"
              },
              {
                "title": "Max",
                "duration": 46,
                "videoUri": "https://res.cloudinary.com/twentyninek/video/upload/v1616064569/Hantera%20Stress%20YA/Lesson%202/max_aujza7.mp4",
                "imageUri": "https://res.cloudinary.com/twentyninek/video/upload/v1616064569/Hantera%20Stress%20YA/Lesson%202/max_aujza7.png",
                "subtitleUri": "https://res.cloudinary.com/twentyninek/raw/upload/q_auto,t_global/v1621603057/Hantera%20Stress%20YA/subtitles/Fra%CC%8Aga_2-max_olqidh.vtt"
              },
              {
                "title": "Saga",
                "duration": 57,
                "videoUri": "https://res.cloudinary.com/twentyninek/video/upload/v1616064579/Hantera%20Stress%20YA/Lesson%202/saga_h1mqux.mp4",
                "imageUri": "https://res.cloudinary.com/twentyninek/video/upload/v1616064579/Hantera%20Stress%20YA/Lesson%202/saga_h1mqux.png",
                "subtitleUri": "https://res.cloudinary.com/twentyninek/raw/upload/q_auto,t_global/v1621602909/Hantera%20Stress%20YA/subtitles/Fr%C3%A5ga_1-Saga_nbw2bq.vtt"
              }
            ]
          },
          {
            "component": "ButtonGroup",
            "content": [
              {
                "component": "Button",
                "content": "Fortsätt",
                "sectionId": "84467b41-b0b8-40d3-aad2-3cd9429a1f0e"
              }
            ]
          }
        ]
      },
      {
        "type": "defaultSection",
        "id": "84467b41-b0b8-40d3-aad2-3cd9429a1f0e",
        "content": [
          {
            "component": "TextGroup",
            "content": [
              {
                "component": "Text",
                "content": "## Övning\n\nSkriv ner alla dina svar.\n\n1. Beskriv en situation då du var **stressad**, där du gjorde något **impulsivt** eller **automatiskt** och där resultat inte blev så bra.\n\n*Exempelvis: sa någonting jag sedan ångrade, undvek att göra någonting som kändes obehagligt i stunden, sa ja fast jag egentligen ville säga nej.*"
              }
            ]
          },
          {
            "component": "ButtonGroup",
            "content": [
              {
                "component": "Button",
                "content": "Färdig",
                "sectionId": "062b7124-7d61-4f3d-b7d4-f1125d73e049"
              }
            ]
          }
        ],
        "alias": "Övning"
      },
      {
        "type": "editorialWithImage",
        "id": "062b7124-7d61-4f3d-b7d4-f1125d73e049",
        "alias": "Övning del 2",
        "buttons": [
          {
            "component": "Button",
            "content": "Nästa",
            "sectionId": "81531dd1-9924-42da-8bed-70b55aecfa19"
          }
        ],
        "content": "2. Vad skulle du ha gjort **annorlunda** om du varit mer **närvarande** i det ögonblicket? Hur hade du **önskat** att du **betett** dig istället? \n\n*Exempelvis: tänkt efter innan jag sa någonting, inte undvikit situationen bara för att det kändes jobbigt i stunden, sagt nej.*"
      },
      {
        "type": "editorialWithImage",
        "id": "81531dd1-9924-42da-8bed-70b55aecfa19",
        "content": "3. Titta igenom dina svar. Vad kan du försöka göra **annorlunda** **nästa** **gång** du är stressad?\n\n*Exempelvis: ta fem andetag för att hinna få lite tid att tänka innan jag reagerar, tacka ja till inbjudan, prata med en kompis, be om råd.*",
        "alias": "Övning del 3",
        "buttons": [
          {
            "component": "Button",
            "content": "Färdig",
            "sectionId": "5b8a6438-db15-43e4-8169-7b8f1fe741fe"
          }
        ]
      },
      {
        "type": "editorialWithImage",
        "id": "5b8a6438-db15-43e4-8169-7b8f1fe741fe",
        "alias": "Bra gjort!",
        "title": "Bra gjort!",
        "content": "Du är nu klar med **Att vara här och nu.**\n\nDu har fått lära dig mer om att vår hjärna är **byggd** för att hela tiden komma med nya — oftast negativa — tankar. Och att det går att träna sin hjärna att se **tankar som tankar.**\n\nDet är normalt att **tankar** **vandrar** **iväg**. Med övning kan vi bli bättre på att vara **här och nu**. Det hjälper oss välja våra beteenden istället för att reagera automatiskt och impulsivt.",
        "buttons": [
          {
            "component": "LessonCompleteButton",
            "content": "Slut"
          }
        ]
      }
    ]
  },
  "pt": {
    "id": "9eea2a9f-cebf-4947-a7f8-f2483ff5f98d",
    "alias": "Stress YA: Being here and now 3",
    "root": "c7525006-f0ae-42f1-b372-381dcdef21c7",
    "sections": [
      {
        "type": "editorialWithImage",
        "id": "c7525006-f0ae-42f1-b372-381dcdef21c7",
        "content": "Next up is an exercise where you'll get to look further into a situation when you were stressed and not present in the moment.",
        "alias": "Intro",
        "topImageUri": "",
        "buttons": [
          {
            "component": "Button",
            "content": "Continue",
            "sectionId": "41523d97-b005-48e1-891a-0cd1a8ad7fd6"
          }
        ]
      },
      {
        "type": "defaultSection",
        "id": "41523d97-b005-48e1-891a-0cd1a8ad7fd6",
        "alias": "Videos",
        "content": [
          {
            "component": "VideoStories",
            "content": [
              {
                "title": "Ilaria",
                "videoUri": "https://res.cloudinary.com/twentyninek/video/upload/v1616064556/Hantera%20Stress%20YA/Lesson%202/ilaria_zzdrik.mp4",
                "duration": 37,
                "imageUri": "https://res.cloudinary.com/twentyninek/video/upload/v1616064556/Hantera%20Stress%20YA/Lesson%202/ilaria_zzdrik.png",
                "subtitleUri": "https://res.cloudinary.com/twentyninek/raw/upload/q_auto,t_global/v1623757787/Hantera%20Stress%20YA/subtitles/Fra%CC%8Aga_2-ilaria-en_pnltgr.vtt"
              },
              {
                "title": "Max",
                "duration": 46,
                "videoUri": "https://res.cloudinary.com/twentyninek/video/upload/v1616064569/Hantera%20Stress%20YA/Lesson%202/max_aujza7.mp4",
                "imageUri": "https://res.cloudinary.com/twentyninek/video/upload/v1616064569/Hantera%20Stress%20YA/Lesson%202/max_aujza7.png",
                "subtitleUri": "https://res.cloudinary.com/twentyninek/raw/upload/q_auto,t_global/v1623757830/Hantera%20Stress%20YA/subtitles/Fra%CC%8Aga_2-max-en_rm1ief.vtt"
              },
              {
                "title": "Saga",
                "duration": 57,
                "videoUri": "https://res.cloudinary.com/twentyninek/video/upload/v1616064579/Hantera%20Stress%20YA/Lesson%202/saga_h1mqux.mp4",
                "imageUri": "https://res.cloudinary.com/twentyninek/video/upload/v1616064579/Hantera%20Stress%20YA/Lesson%202/saga_h1mqux.png",
                "subtitleUri": "https://res.cloudinary.com/twentyninek/raw/upload/q_auto,t_global/v1623757865/Hantera%20Stress%20YA/subtitles/Fra%CC%8Aga_2-saga-en_wpwnvm.vtt"
              }
            ]
          },
          {
            "component": "ButtonGroup",
            "content": [
              {
                "component": "Button",
                "content": "Next",
                "sectionId": "69a58efa-d7a6-4b33-96c6-9e91747a51ff"
              }
            ]
          }
        ]
      },
      {
        "type": "defaultSection",
        "id": "69a58efa-d7a6-4b33-96c6-9e91747a51ff",
        "content": [
          {
            "component": "TextGroup",
            "content": [
              {
                "component": "Text",
                "content": "# **Exercise**\n\nWrite down all your answers.\n\n1. Describe a situation when you were **stressed**, did something **impulsive** or **automatic** and the results didn't turn out good.\n\n*For example: I said something I then regretted, avoided doing something that felt uncomfortable, said yes even though I wanted to say no.*"
              }
            ]
          },
          {
            "component": "ButtonGroup",
            "content": [
              {
                "component": "Button",
                "content": "Done",
                "sectionId": "9aac9201-3959-4aab-a263-c4e5e6fe1b6c"
              }
            ]
          }
        ],
        "alias": "Exercise"
      },
      {
        "type": "editorialWithImage",
        "id": "9aac9201-3959-4aab-a263-c4e5e6fe1b6c",
        "alias": "Exercise part 2",
        "buttons": [
          {
            "component": "Button",
            "content": "Next",
            "sectionId": "2d21dcbd-f5e9-4d5e-8567-863c22ee76d3"
          }
        ],
        "content": "2. What would you do **differently** if you were more **present** in that moment? How do you **wish** to have **acted** **instead**?\n\n   *For example: I would think things through before saying something, not avoiding the situation just because it feels awkward, say no.*"
      },
      {
        "type": "writing",
        "id": "2d21dcbd-f5e9-4d5e-8567-863c22ee76d3",
        "alias": "Exercise part 3",
        "longDescription": "3. Look back at your answers. What can you do **differently** the **next** **time** when you feel stressed? \n\n*For example: take five breaths to have time to think before I act, say yes to the invitation, talk to a friend, ask for advice.*",
        "buttons": [
          {
            "component": "Button",
            "content": "Done",
            "sectionId": "ee211fa6-6382-46cd-8a31-8a1c47698fdb"
          }
        ]
      },
      {
        "type": "editorialWithImage",
        "id": "ee211fa6-6382-46cd-8a31-8a1c47698fdb",
        "title": "Well done!",
        "content": "You’ve now completed **Being here and now**.\n\nYou’ve learned more about how our brain is **designed** to constantly come up with new, often negative, thoughts. And that it’s possible to train your brain to see thoughts for what they are — **just thoughts.**\n\nIt’s **normal** for **minds** to **wander** off. With practice, we can become better at being **here and now**. It helps us choose how we want to behave instead of reacting automatically and impulsively.",
        "buttons": [
          {
            "component": "LessonCompleteButton",
            "content": "I'm done"
          }
        ],
        "alias": "Good job!"
      }
    ]
  }
}
