{
  "en": {
    "id": "d679ed16-1170-40c4-8aec-9121d21cf3bf",

    "root": "section1",
    "sections": [
      {
        "id": "section1",
        "type": "editorialWithImage",
        "alias": "Setting boundaries",
        "topImageUri": "https://res.cloudinary.com/twentyninek/image/upload/f_auto,q_auto,t_global/v1620653687/Illustrations_Exercises/Heading_Setting_boundaries_zwbkzm.png",
        "title": "Setting boundaries",
        "content": "*10 minutes*\n\nWhen life is stressful, the quality of our life and relationships are likely to suffer.\n\nBut relationships matter to us. Humans are social animals and our relationships are vital to our well-being.",
        "buttons": [
          {
            "component": "Button",
            "content": "Let’s do this",
            "sectionId": "section2"
          }
        ]
      },
      {
        "id": "section2",
        "type": "editorialWithImage",
        "alias": "Boundaries section 2",
        "topImageUri": "",
        "title": "",
        "content": "When we’re under stress, our behavior tends to be more extreme, for example:\n\n* We don’t communicate our needs\n* We talk in a more agitated or accusatory tone\n* We project our feelings onto others\n* We take too much on ourselves\n* We avoid contact with others\n",
        "buttons": [
          {
            "component": "Button",
            "content": "Continue",
            "sectionId": "section3"
          }
        ]
      },
      {
        "id": "section3",
        "type": "editorialWithImage",
        "alias": "Setting boundaries",
        "title": "Setting boundaries",
        "content": "Good communication is at the heart of all good relationships. This includes our ability to set and communicate our boundaries.\n\nWhen we don’t set clear and healthy boundaries, it’s hard for us to live in line with our values. This can lead to use feeling resented, angry or guilty with ourselves and others; as if our life is running away from us.\n",
        "buttons": [
          {
            "component": "Button",
            "content": "Continue",
            "sectionId": "section4"
          }
        ]
      },
      {
        "id": "section4",
        "type": "writing",
        "alias": "Exercise",
        "title": "Exercise",
        "time": "",
        "question": "",
        "longDescription": "Begin by examining which of your needs aren’t being met or expressed at the moment. Write them down on a piece of paper\n\n‘My current needs are…’\n",
        "buttons": [
          {
            "component": "Button",
            "content": "Continue",
            "sectionId": "section5"
          }
        ]
      },
      {
        "id": "section5",
        "type": "writing",
        "alias": "Exercise",
        "title": "Exercise",
        "time": "",
        "question": "",
        "longDescription": "How do you communicate your needs at the moment?\n\nWhere would it be useful for you to set up more boundaries and in relation to whom?\n",
        "buttons": [
          {
            "component": "Button",
            "content": "Continue",
            "sectionId": "section6"
          }
        ]
      },
      {
        "id": "section6",
        "type": "writing",
        "alias": "Exercise",
        "title": "Exercise",
        "time": "",
        "question": "",
        "longDescription": "Explore in detail how you could go about setting new boundaries, given your circumstances.\n\nIf setting these boundaries involves saying yes or saying no to things or people, how could you communicate this in a calm and assertive way?\n",
        "buttons": [
          {
            "component": "Button",
            "content": "Continue",
            "sectionId": "section7"
          }
        ]
      },
      {
        "id": "section7",
        "type": "writing",
        "alias": "Exercise",
        "title": "Exercise",
        "time": "",
        "question": "",
        "longDescription": "Commit to when and how you could take action towards meeting your needs this week.\n\nNow go ahead and talk to the people you’ve identified about your intentions. If that’s not possible right now, book a time this week to talk about it.\n",
        "buttons": [
          {
            "component": "Button",
            "content": "Continue",
            "sectionId": "section8"
          }
        ]
      },
      {
        "id": "section8",
        "type": "editorialWithImage",
        "alias": "Well done!",
        "topImageUri": "",
        "title": "Well done!",
        "content": "Well done for your openness to explore your needs and your willingness to set healthy boundaries around them.",
        "buttons": [
          {
            "component": "Button",
            "variant": "default",
            "content": "Next",
            "sectionId": "d831953a-180d-4f59-8e54-986f59e1e89d"
          }
        ]
      },
      {
        "type": "sharingExercise",
        "previewSharings": true,
        "enableEarlySkip": true,
        "id": "d831953a-180d-4f59-8e54-986f59e1e89d",
        "alias": "Sharing wall: setting boundaries",
        "exampleText": "I can explain to my partner that I need at least ten minutes of quiet time alone each day to reflect.",
        "question": "How can setting boundaries help you meet your needs?"
      }
    ],
    "alias": "Exercise: Setting Boundaries"
  },
  "sv": {
    "id": "d679ed16-1170-40c4-8aec-9121d21cf3bf",

    "root": "section1",
    "sections": [
      {
        "id": "section1",
        "type": "editorialWithImage",
        "alias": "Att sätta gränser",
        "topImageUri": "https://res.cloudinary.com/twentyninek/image/upload/f_auto,q_auto,t_global/v1620653687/Illustrations_Exercises/Heading_Setting_boundaries_zwbkzm.png",
        "title": "Att sätta gränser",
        "content": "*10 minuter*\n\nNär livet är stressande kommer sannolikt kvaliteten på vårt liv och våra relationer att drabbas.\n\nMen relationer är viktiga för oss. Människor är sociala djur och våra relationer är viktiga för vårt välbefinnande.\n",
        "buttons": [
          {
            "component": "Button",
            "content": "Nu kör vi",
            "sectionId": "section2"
          }
        ]
      },
      {
        "id": "section2",
        "type": "editorialWithImage",
        "alias": "",
        "topImageUri": "",
        "title": "",
        "content": "När vi är under stress tenderar vårt beteende att vara mer extremt, till exempel:\n\n* Vi kommunicerar inte våra behov\n* Vi pratar i en mer upprörd eller anklagande ton\n* Vi projicerar våra känslor på andra\n* Vi tar för mycket på oss själva\n* Vi undviker kontakt med andra\n",
        "buttons": [
          {
            "component": "Button",
            "content": "Fortsätta",
            "sectionId": "section3"
          }
        ]
      },
      {
        "id": "section3",
        "type": "editorialWithImage",
        "alias": "Att sätta gränser",
        "title": "Att sätta gränser",
        "content": "Bra kommunikation är kärnan i alla goda relationer. Detta inkluderar vår förmåga att ställa in och kommunicera våra gränser.\n\nNär vi inte sätter tydliga och hälsosamma gränser är det svårt för oss att leva i linje med våra värderingar. Detta kan leda till att man känner sig förbittrad, arg eller skyldig till oss själva och andra; som om vårt liv flyr från oss.\n",
        "buttons": [
          {
            "component": "Button",
            "content": "Fortsätta",
            "sectionId": "section4"
          }
        ]
      },
      {
        "id": "section4",
        "type": "writing",
        "alias": "Träning",
        "title": "Träning",
        "time": "",
        "question": "",
        "longDescription": "Börja med att undersöka vilka av dina behov som inte tillgodoses eller uttrycks för tillfället. Skriv ner dem på ett papper\n\n\"Mina nuvarande behov är ...\"\n",
        "buttons": [
          {
            "component": "Button",
            "content": "Fortsätta",
            "sectionId": "section5"
          }
        ]
      },
      {
        "id": "section5",
        "type": "writing",
        "alias": "Träning",
        "title": "Träning",
        "time": "",
        "question": "",
        "longDescription": "Hur kommunicerar du dina behov just nu?\n\nVar skulle det vara användbart för dig att ställa in fler gränser och i förhållande till vem?\n",
        "buttons": [
          {
            "component": "Button",
            "content": "Fortsätta",
            "sectionId": "section6"
          }
        ]
      },
      {
        "id": "section6",
        "type": "writing",
        "alias": "Träning",
        "title": "Träning",
        "time": "",
        "question": "",
        "longDescription": "Utforska i detalj hur du kan gå att sätta nya gränser med tanke på dina omständigheter.\n\nOm du sätter ja eller säger nej till saker eller människor om du ställer in dessa gränser, hur skulle du kunna kommunicera detta på ett lugnt och självhäftande sätt?\n",
        "buttons": [
          {
            "component": "Button",
            "content": "Fortsätta",
            "sectionId": "section7"
          }
        ]
      },
      {
        "id": "section7",
        "type": "writing",
        "alias": "Träning",
        "title": "Träning",
        "time": "",
        "question": "",
        "longDescription": "Åtag dig att när och hur du kan vidta åtgärder för att tillgodose dina behov den här veckan.\n\nFortsätt nu och prata med de personer du har identifierat om dina avsikter. Om det inte är möjligt just nu, boka en tid den här veckan för att prata om det.\n",
        "buttons": [
          {
            "component": "Button",
            "content": "Fortsätta",
            "sectionId": "section8"
          }
        ]
      },
      {
        "id": "section8",
        "type": "editorialWithImage",
        "alias": "Bra gjort!",
        "topImageUri": "",
        "title": "Bra gjort!",
        "content": "Bra gjort för din öppenhet att utforska dina behov och din vilja att sätta hälsosamma gränser runt dem.",
        "buttons": [
          {
            "component": "ExerciseCompleteButton",
            "content": "Avsluta"
          }
        ]
      }
    ],
    "alias": "Exercise: Setting Boundaries"
  },
  "pt": {
    "id": "d679ed16-1170-40c4-8aec-9121d21cf3bf",

    "root": "section1",
    "sections": [
      {
        "id": "section1",
        "type": "editorialWithImage",
        "alias": "Estabelecer Limites",
        "topImageUri": "https://res.cloudinary.com/twentyninek/image/upload/f_auto,q_auto,t_global/v1620653687/Illustrations_Exercises/Heading_Setting_boundaries_zwbkzm.png",
        "title": "Estabelecer Limites",
        "content": "10 minutos \n\nA qualidade da nossa vida e das nossas relações é afetada quando a vida é stressante.\n\nMas as relações são importantes para nós. Os humanos são animais sociais e as nossas relações são vitais para o nosso bem-estar.",
        "buttons": [
          {
            "component": "Button",
            "content": "Vamos a isto",
            "sectionId": "section2"
          }
        ]
      },
      {
        "id": "section2",
        "type": "editorialWithImage",
        "alias": "Sob stress",
        "topImageUri": "",
        "title": "Sob stress",
        "content": "Quando estamos sob stress, o nosso comportamento tende a ser mais extremo, por exemplo:\n\n* Não comunicamos as nossas necessidades\n* Falamos num tom mais agitado ou crítico\n* Projetamos os nossos sentimentos nos outros\n* Assumimos demasiadas responsabilidades\n* Evitamos o contacto com os outros",
        "buttons": [
          {
            "component": "Button",
            "content": "Continuar",
            "sectionId": "section3"
          }
        ]
      },
      {
        "id": "section3",
        "type": "editorialWithImage",
        "alias": "Estabelecer limites",
        "title": "Estabelecer limites",
        "content": "Uma boa comunicação está no centro de todas as boas relações. Isto inclui a nossa capacidade de estabelecer e comunicar os nossos limites.\n\nQuando não estabelecemos limites claros e saudáveis, é difícil vivermos de acordo com os nossos valores. Isto pode levar-nos a sentirmo-nos ressentidos, zangados ou culpados para connosco e para com os outros, como se a nossa vida estivesse a escapar-nos.",
        "buttons": [
          {
            "component": "Button",
            "content": "Continuar",
            "sectionId": "section4"
          }
        ]
      },
      {
        "id": "section4",
        "type": "writing",
        "alias": "Exercício",
        "title": "Exercício",
        "time": "",
        "question": "",
        "longDescription": "Começa por examinar quais das tuas necessidades não estão a ser satisfeitas ou expressas neste momento. Escreve-as numa folha de papel\n\n\"As minhas necessidades atuais são...",
        "buttons": [
          {
            "component": "Button",
            "content": "Continuar",
            "sectionId": "section5"
          }
        ]
      },
      {
        "id": "section5",
        "type": "writing",
        "alias": "Exercício",
        "title": "Exercício",
        "time": "",
        "question": "",
        "longDescription": "Como é que comunicas as tuas necessidades neste momento?\n\nOnde seria útil para ti estabelecer mais limites e em relação a quem?",
        "buttons": [
          {
            "component": "Button",
            "content": "Continuar",
            "sectionId": "section6"
          }
        ]
      },
      {
        "id": "section6",
        "type": "writing",
        "alias": "Exercício",
        "title": "Exercício",
        "time": "",
        "question": "",
        "longDescription": "Explora em detalhe como podes estabelecer novos limites, dadas as tuas circunstâncias.\n\nSe estabelecer estes limites envolve dizer sim ou dizer não a coisas ou pessoas, como as poderias comunicar de uma forma calma e assertiva?",
        "buttons": [
          {
            "component": "Button",
            "content": "Continuar",
            "sectionId": "section7"
          }
        ]
      },
      {
        "id": "section7",
        "type": "writing",
        "alias": "Exercício",
        "title": "Exercício",
        "time": "",
        "question": "",
        "longDescription": "Compromete-te a quando e como poderás tomar medidas para satisfazer as tuas necessidades esta semana.\n\nAgora vai em frente e fala sobre as tuas intenções com as pessoas que identificaste. Se isso não for possível neste momento, marca uma hora esta semana para falar sobre isso.",
        "buttons": [
          {
            "component": "Button",
            "content": "Continuar",
            "sectionId": "section8"
          }
        ]
      },
      {
        "id": "section8",
        "type": "editorialWithImage",
        "alias": "Parabéns!",
        "topImageUri": "",
        "title": "Parabéns!",
        "content": "Parabéns pela tua abertura para explorar as tuas necessidades e pela tua determinação em estabelecer limites saudáveis à tua volta.",
        "buttons": [
          {
            "component": "Button",
            "variant": "default",
            "content": "Continuar",
            "sectionId": "58454e3e-87c4-4bfa-aa67-1d5ae4a845d6"
          }
        ]
      },
      {
        "type": "sharingExercise",
        "enableEarlySkip": true,
        "id": "58454e3e-87c4-4bfa-aa67-1d5ae4a845d6",
        "alias": "Sharing wall: setting boundaries",
        "question": "Como é que establecer limites te pode ajudar a satisfazer as tuas necessidades?",
        "exampleText": "Posso explicar à minha família que preciso de pelo menos dez minutos de silêncio sozinha/o todos os dias para refletir."
      }
    ],
    "alias": "Exercise: Setting Boundaries"
  }
}
