{
  "en": {
    "id": "dropping-anchor",
    "alias": "meditation Focus on your breath - short",
    "root": "section1",
    "sections": [
      {
        "content": [
          {
            "component": "HeaderImage",
            "content": {
              "uri": "https://storage.googleapis.com/k-org-879a8.appspot.com/images/exercises/a8da3fe6-922a-4382-9986-7ea2590fc3e5/andningsankaret_header.png"
            }
          },
          {
            "component": "TextGroup",
            "content": [
              {
                "component": "Text",
                "content": "# The breathing anchor"
              },
              {
                "component": "Text",
                "content": "Sometimes thoughts and feelings divert attention. Help yourself land in the present moment with this focus exercise."
              }
            ]
          },
          {
            "component": "ButtonGroup",
            "content": [
              {
                "component": "Button",
                "content": "Let's go",
                "sectionId": "section2"
              }
            ]
          }
        ],
        "id": "section1",
        "alias": "section1",
        "type": "defaultSection"
      },
      {
        "content": [
          {
            "component": "AudioPlayer",
            "content": {
              "uri": "https://storage.googleapis.com/k-org-879a8.appspot.com/audio/self_compassion_sv/Andningsankaret.mp3",
              "duration": 2
            }
          },
          {
            "component": "ButtonGroup",
            "content": [
              {
                "component": "Button",
                "content": "Next",
                "sectionId": "section3"
              }
            ]
          }
        ],
        "id": "section2",
        "alias": "section2",
        "type": "defaultSection"
      },
      {
        "content": [
          {
            "component": "TextGroup",
            "content": [
              {
                "component": "Text",
                "content": "# Well done"
              },
              {
                "component": "Text",
                "content": "You have now practiced being **here** and **now** aided by your own breathing. You can do this focus exercise anywhere, anytime when you notice that thoughts and feelings are distracting you."
              }
            ]
          },
          {
            "component": "ButtonGroup",
            "content": [
              {
                "component": "ExerciseCompleteButton",
                "content": "End",
                "conversationId": "dropping-anchor"
              }
            ]
          }
        ],
        "id": "section3",
        "alias": "section3",
        "type": "defaultSection"
      }
    ]
  },
  "sv": {
    "id": "dropping-anchor",
    "alias": "meditation Focus on your breath - short",
    "root": "section1",
    "sections": [
      {
        "content": [
          {
            "component": "HeaderImage",
            "content": {
              "uri": "https://storage.googleapis.com/k-org-879a8.appspot.com/images/exercises/a8da3fe6-922a-4382-9986-7ea2590fc3e5/andningsankaret_header.png"
            }
          },
          {
            "component": "TextGroup",
            "content": [
              {
                "component": "Text",
                "content": "# Andningsankaret"
              },
              {
                "component": "Text",
                "content": "Ibland drar tankar och känslor iväg med uppmärksamheten. Hjälp dig själv att landa i nuet igen med den här fokusövningen."
              }
            ]
          },
          {
            "component": "ButtonGroup",
            "content": [
              {
                "component": "Button",
                "content": "Kör igång",
                "sectionId": "section2"
              }
            ]
          }
        ],
        "id": "section1",
        "alias": "section1",
        "type": "defaultSection"
      },
      {
        "content": [
          {
            "component": "AudioPlayer",
            "content": {
              "uri": "https://storage.googleapis.com/k-org-879a8.appspot.com/audio/self_compassion_sv/Andningsankaret.mp3",
              "duration": 208
            }
          },
          {
            "component": "ButtonGroup",
            "content": [
              {
                "component": "Button",
                "content": "Nästa",
                "sectionId": "section3"
              }
            ]
          }
        ],
        "id": "section2",
        "alias": "section2",
        "type": "defaultSection"
      },
      {
        "content": [
          {
            "component": "TextGroup",
            "content": [
              {
                "component": "Text",
                "content": "# Fint jobbat"
              },
              {
                "component": "Text",
                "content": "Du har nu tränat på att landa här och nu med hjälp av din egen andning. Den här fokusövningen kan du göra var och när som helst när du märker att tankar och känslor drar iväg din uppmärksamhet."
              }
            ]
          },
          {
            "component": "ButtonGroup",
            "content": [
              {
                "component": "Button",
                "variant": "default",
                "content": "Nästa",
                "sectionId": "761fc889-3874-4b44-9a5d-eee7217bdb3a"
              }
            ]
          }
        ],
        "id": "section3",
        "alias": "section3",
        "type": "defaultSection"
      },
      {
        "type": "sharingExercise",
        "enableEarlySkip": true,
        "id": "761fc889-3874-4b44-9a5d-eee7217bdb3a",
        "alias": "sharing wall focus on your breath short",
        "question": "Vad upplevde du under övningen?",
        "exampleText": "Lugn, fokus."
      }
    ]
  },
  "pt": {
    "id": "dropping-anchor",
    "alias": "meditation Focus on your breath - short",
    "root": "section1",
    "sections": [
      {
        "content": [
          {
            "component": "HeaderImage",
            "content": {
              "uri": "https://storage.googleapis.com/k-org-879a8.appspot.com/images/exercises/a8da3fe6-922a-4382-9986-7ea2590fc3e5/andningsankaret_header.png"
            }
          },
          {
            "component": "TextGroup",
            "content": [
              {
                "component": "Text",
                "content": "# The breathing anchor"
              },
              {
                "component": "Text",
                "content": "Sometimes thoughts and feelings divert attention. Help yourself land in the present again with this focus exercise."
              }
            ]
          },
          {
            "component": "ButtonGroup",
            "content": [
              {
                "component": "Button",
                "content": "Let's go",
                "sectionId": "section2"
              }
            ]
          }
        ],
        "id": "section1",
        "alias": "section1",
        "type": "defaultSection"
      },
      {
        "content": [
          {
            "component": "AudioPlayer",
            "content": {
              "uri": "https://storage.googleapis.com/k-org-879a8.appspot.com/audio/self_compassion_sv/Andningsankaret.mp3",
              "duration": 208
            }
          },
          {
            "component": "ButtonGroup",
            "content": [
              {
                "component": "Button",
                "content": "Next",
                "sectionId": "section3"
              }
            ]
          }
        ],
        "id": "section2",
        "alias": "section2",
        "type": "defaultSection"
      },
      {
        "content": [
          {
            "component": "TextGroup",
            "content": [
              {
                "component": "Text",
                "content": "# Well done"
              },
              {
                "component": "Text",
                "content": "You have now practiced being here and now with the help of your own breathing. You can do this focus exercise anywhere, anytime when you notice that thoughts and feelings are distracting you."
              }
            ]
          },
          {
            "component": "ButtonGroup",
            "content": [
              {
                "component": "ExerciseCompleteButton",
                "content": "End",
                "conversationId": "dropping-anchor"
              }
            ]
          }
        ],
        "id": "section3",
        "alias": "section3",
        "type": "defaultSection"
      }
    ]
  }
}