{
  "en": {
    "id": "ENYMoPMGe6NLhACTSZDco-1",
    "alias": "Self compassion - Intention 1",
    "type": "lesson",
    "root": "section1",
    "sections": [
      {
        "id": "section1",
        "type": "video",
        "alias": "Intention",
        "title": "Intention",
        "buttons": [
          {
            "component": "Button",
            "content": "Continue",
            "sectionId": "section2"
          }
        ],
        "videos": [
          {
            "imageUri": "https://storage.googleapis.com/k-org-879a8.appspot.com/images/yg_self_compassion/intention/yg_intention_video_intro-min.jpg",
            "videoUri": "https://res.cloudinary.com/twentyninek/video/upload/q_auto,t_global/v1622194449/Self%20Compassion/intention_intro_zdvbo6.mp4"
          }
        ]
      },
      {
        "id": "section2",
        "type": "editorialWithImage",
        "alias": "The next step of your journey begins here",
        "topImageUri": "https://storage.googleapis.com/k-org-879a8.appspot.com/images/yg_self_compassion/intention/yg_intention_intro-min.jpg",
        "title": "The next step of your journey begins here",
        "content": "Today you are entering the next step of your journey towards a more compassionate relationship with yourself.\nIn this second lesson you will be exploring your current self-compassionate actions and why it is meaningful for you to work with self-compassion.",
        "buttons": [
          {
            "component": "NextConversationButton",
            "variant": "primary",
            "content": "Continue",
            "conversationId": "ENYMoPMGe6NLhACTSZDco-2"
          }
        ],
        "infoItems": [
          {
            "title": "This lesson covers",
            "description": "* The self-compassion test\n* Where compassion matters most\n* Your intention for this course"
          }
        ]
      }
    ]
  },
  "sv": {
    "id": "ENYMoPMGe6NLhACTSZDco-1",
    "alias": "Self compassion - Intention 1",
    "type": "lesson",
    "root": "section1",
    "sections": [
      {
        "id": "section1",
        "type": "video",
        "alias": "Avsikt",
        "title": "Avsikt",
        "buttons": [
          {
            "component": "Button",
            "content": "Fortsätta",
            "sectionId": "section2"
          }
        ],
        "videos": [
          {
            "imageUri": "https://storage.googleapis.com/k-org-879a8.appspot.com/images/yg_self_compassion/intention/yg_intention_video_intro-min.jpg",
            "videoUri": "https://res.cloudinary.com/twentyninek/video/upload/q_auto,t_global/v1622194449/Self%20Compassion/intention_intro_zdvbo6.mp4"
          }
        ]
      },
      {
        "id": "section2",
        "type": "editorialWithImage",
        "alias": "Nästa steg på din resa börjar här",
        "topImageUri": "https://storage.googleapis.com/k-org-879a8.appspot.com/images/yg_self_compassion/intention/yg_intention_intro-min.jpg",
        "title": "Nästa steg på din resa börjar här",
        "content": "Idag går du in i nästa steg på din resa mot ett mer medkännande förhållande till dig själv.\nI den här andra lektionen kommer du att utforska dina nuvarande självmedkännande handlingar och varför det är meningsfullt för dig att arbeta med självmedkänsla.\n\n### Dagens lektion består av tre delar:\n\n* Ett test om självmedkänsla\n* Utforska var medkänsla är viktigast\n* Ställa in en avsikt för kursen\n\n### Förberedelse för lektionen:\n\n* 40 min ostörd tid\n* Penna och papper",
        "buttons": [
          {
            "component": "Button",
            "content": "Fortsätta",
            "sectionId": "section3"
          }
        ]
      },
      {
        "id": "section3",
        "type": "editorialWithImage",
        "alias": "Våra handlingar gentemot oss själva är inte alltid vänliga",
        "topImageUri": "https://storage.googleapis.com/k-org-879a8.appspot.com/images/yg_self_compassion/intention/yg_intention_sc_test_intro-min.jpg",
        "title": "Våra handlingar gentemot oss själva är inte alltid vänliga",
        "content": "Den inre kritikern får oss ofta att bete sig på ett icke-omtänksamt och icke-kärleksfullt sätt gentemot oss själva.\n\nFör att bättre förstå dig själv kan det vara bra att ta dig tid att reflektera över hur du behandlar dig själv i svåra tider.\n\n* Detta är det faktiska testet som används för forskning om självkänsla, reproducerat med tillstånd från Kristin Neff. *\n        ",
        "buttons": [
          {
            "component": "Button",
            "sectionId": "self-test"
          }
        ]
      },
      {
        "content": [
          {
            "next": {
              "sectionId": "test-result"
            },
            "component": "Questionnaire",
            "calcType": "avg",
            "hideSubScores": false,
            "options": [
              {
                "label": "Nästan aldrig",
                "score": 1
              },
              {
                "label": "Ibland",
                "score": 2
              },
              {
                "label": "Ungefär hälften av tiden",
                "score": 3
              },
              {
                "label": "Ganska ofta",
                "score": 4
              },
              {
                "label": "Nästan alltid",
                "score": 5
              }
            ],
            "questions": [
              "Jag är ogillande och bedömande om mina egna brister och brister.",
              "När jag känner mig ned tenderar jag att besätta och fixera allt som är fel.",
              "När det går dåligt för mig ser jag svårigheterna som en del av livet som alla går igenom.",
              "När jag tänker på mina brister tenderar det att få mig att känna mig mer separerad och avskuren från resten av världen.",
              "Jag försöker vara kärleksfull mot mig själv när jag känner känslomässig smärta.",
              "När jag misslyckas med något som är viktigt för mig blir jag uppslukad av känslor av otillräcklighet.",
              "När jag är nere och ute påminner jag mig om att det finns många andra människor i världen som känner mig som jag är.",
              "När tiderna är riktigt svåra tenderar jag att vara tuff mot mig själv.",
              "När något stör mig försöker jag hålla mina känslor i balans.",
              "När jag känner mig otillräcklig på något sätt försöker jag påminna mig själv om att känslor av otillräcklighet delas av de flesta.",
              "Jag är intolerant och otålig mot de aspekter av min personlighet som jag inte gillar.",
              "När jag går igenom en mycket svår tid ger jag mig själv den omtänksamhet och ömhet jag behöver.",
              "När jag känner mig nere känner jag att de flesta andra troligen är lyckligare än jag.",
              "När något smärtsamt händer försöker jag ta en balanserad syn på situationen.",
              "Jag försöker se mina brister som en del av det mänskliga tillståndet.",
              "När jag ser aspekter av mig själv som jag inte gillar, går jag ner på mig själv.",
              "När jag misslyckas med något som är viktigt för mig försöker jag hålla saker i perspektiv.",
              "När jag verkligen kämpar brukar jag känna att andra måste ha det lättare.",
              "Jag är snäll mot mig själv när jag upplever lidande.",
              "När något gör mig upprörd blir jag upptagen av mina känslor.",
              "Jag kan vara lite kallhjärtad mot mig själv när jag upplever lidande.",
              "När jag känner mig ned försöker jag närma mig mina känslor med nyfikenhet och öppenhet.",
              "Jag är tolerant mot mina egna brister och brister.",
              "När något smärtsamt händer tenderar jag att blåsa händelsen ur proportion.",
              "När jag misslyckas med något som är viktigt för mig tenderar jag att känna mig ensam i mitt misslyckande.",
              "Jag försöker vara förståelig och tålmodig mot de aspekter av min personlighet som jag inte gillar."
            ],
            "groups": {
              "self-kindness": {
                "label": "Självvänlighet",
                "description": "Självvänlighet handlar om att möta dig själv med tålamod, omtänksamhet och ömhet när du går igenom en svår tid eller har känslomässig smärta.",
                "questions": [
                  4,
                  11,
                  18,
                  22,
                  25
                ],
                "invertedScoring": false,
                "scores": [
                  {
                    "score": 1,
                    "label": "Låg"
                  },
                  {
                    "score": 3,
                    "label": "Måttlig"
                  },
                  {
                    "score": 5,
                    "label": "Hög"
                  }
                ]
              },
              "self-judgment": {
                "label": "Självdömning",
                "description": "Självdömning handlar om att vara intolerant, tuff och otålig mot dig själv när du upplever lidande eller när du konfronteras med delar av dig själv som du ogillar.",
                "questions": [
                  0,
                  7,
                  10,
                  15,
                  20
                ],
                "invertedScoring": true,
                "scores": [
                  {
                    "score": 1,
                    "label": "Låg"
                  },
                  {
                    "score": 3,
                    "label": "Måttlig"
                  },
                  {
                    "score": 5,
                    "label": "Hög"
                  }
                ]
              },
              "common-humanity": {
                "label": "Gemensam mänsklighet",
                "description": "Common Humanity handlar om att se dina svårigheter, smärta och brister som en del av att vara mänsklig och något som alla delar och går igenom.",
                "questions": [
                  2,
                  6,
                  9,
                  14
                ],
                "invertedScoring": false,
                "scores": [
                  {
                    "score": 1,
                    "label": "Låg"
                  },
                  {
                    "score": 3,
                    "label": "Måttlig"
                  },
                  {
                    "score": 5,
                    "label": "Hög"
                  }
                ]
              },
              "isolation": {
                "label": "Isolering",
                "description": "Isolering handlar om att känna sig ensam i dina strider och brister. Det tänker också att andra människor har en lättare tid och är lyckligare än du.",
                "questions": [
                  3,
                  12,
                  17,
                  24
                ],
                "invertedScoring": true,
                "scores": [
                  {
                    "score": 1,
                    "label": "Låg"
                  },
                  {
                    "score": 3,
                    "label": "Måttlig"
                  },
                  {
                    "score": 5,
                    "label": "Hög"
                  }
                ]
              },
              "mindfulness": {
                "label": "Mindfulness",
                "description": "Mindfulness handlar om att försöka hålla dina känslor i balans, hålla sig öppna och hålla saker i perspektiv när du är upprörd eller något smärtsamt händer.",
                "questions": [
                  8,
                  13,
                  16,
                  21
                ],
                "invertedScoring": false,
                "scores": [
                  {
                    "score": 1,
                    "label": "Låg"
                  },
                  {
                    "score": 3,
                    "label": "Måttlig"
                  },
                  {
                    "score": 5,
                    "label": "Hög"
                  }
                ]
              },
              "over-identified": {
                "label": "Överidentifierad",
                "description": "Överidentifiering handlar om att besätta, fixera och bli konsumerad av känslor av misslyckande eller brister när något går fel.",
                "questions": [
                  1,
                  5,
                  19,
                  23
                ],
                "invertedScoring": true,
                "scores": [
                  {
                    "score": 1,
                    "label": "Låg"
                  },
                  {
                    "score": 3,
                    "label": "Måttlig"
                  },
                  {
                    "score": 5,
                    "label": "Hög"
                  }
                ]
              }
            },
            "scores": [
              {
                "score": 1,
                "label": "Låg",
                "description": "Din relation till dig själv är ganska bedömande och kritisk snarare än förståelse och snäll. När du kämpar har du en tendens att glömma att lidande är en del av att vara människa och istället isolera dig från andra. När du har ont får du ofta konsumeras av självkritiska tankar och har svårt att stanna i nuet."
              },
              {
                "score": 3,
                "label": "Måttlig",
                "description": "Din relation till dig själv är en blandning av både förståelse och vänlighet men också omdöme och kritik. Ibland när du kämpar kommer du ihåg att lidande är en del av att vara människa, men andra gånger kan du isolera dig från att ansluta. När du har ont, växlar du mellan att stanna i nuet och tro dina självkritiska tankar."
              },
              {
                "score": 5,
                "label": "Hög",
                "description": "Din relation till dig själv är en av förståelse och vänlighet snarare än av omdöme eller kritik. När du kämpar tenderar du att komma ihåg att lidande är en del av att vara människa och du undviker att isolera dig från andra. När du har ont, hittar du sätt att stanna i nuet istället för att konsumeras av självkritiska tankar."
              }
            ]
          }
        ],
        "id": "self-test",
        "alias": "Self test",
        "type": "defaultSection"
      },
      {
        "content": [
          {
            "component": "QuestionnaireResult",
            "id": "answers"
          },
          {
            "component": "ButtonGroup",
            "content": [
              {
                "component": "Button",
                "sectionId": "section4",
                "content": "Continuar"
              }
            ]
          }
        ],
        "id": "test-result",
        "alias": "Result",
        "type": "defaultSection"
      },
      {
        "id": "section4",
        "type": "video",
        "alias": "Rachel delar med sig av sina resultat",
        "title": "Rachel delar med sig av sina resultat",
        "buttons": [
          {
            "component": "Button",
            "content": "Fortsätt",
            "sectionId": "section5"
          }
        ],
        "videos": [
          {
            "imageUri": "https://storage.googleapis.com/k-org-879a8.appspot.com/images/yg_self_compassion/intention/yg_intention_video_result-min.jpg",
            "videoUri": "https://res.cloudinary.com/twentyninek/video/upload/q_auto,t_global/v1622194544/Self%20Compassion/intention_exercise1_oxbfv9.mp4"
          }
        ]
      },
      {
        "id": "section5",
        "type": "editorialWithImage",
        "alias": "Var skulle medkänsla vara viktigast för dig?",
        "topImageUri": "https://storage.googleapis.com/k-org-879a8.appspot.com/images/yg_self_compassion/intention/yg_intention_writing-min.jpg",
        "title": "Var skulle medkänsla vara viktigast för dig?",
        "content": "Nu när du har sett dina resultat kan det vara en bra tid att utforska vilket livsområde du behöver medkänsla mest.\n\nAtt veta var du kämpar hjälper dig att se situationerna tydligare och starta en förändringsprocess.",
        "buttons": [
          {
            "component": "Button",
            "content": "Fortsätt",
            "sectionId": "section6"
          }
        ]
      },
      {
        "id": "section6",
        "type": "writing",
        "alias": "Att göra medkänsla viktigt",
        "title": "Att göra medkänsla viktigt",
        "time": "Ta 5-10 min",
        "longDescription": "#### Skriv ner ditt svar på följande frågor\n\n* På vilket område av livet behöver du särskilt självmedkänsla?\n* Vilka är några hinder för att vara medkännande för dig själv inom just detta område?\n* Vad skulle ha mer medkänsla i dessa områden betyda för dig och människorna omkring dig?",
        "buttons": [
          {
            "component": "Button",
            "content": "Fortsätt",
            "sectionId": "section7"
          }
        ]
      },
      {
        "id": "section7",
        "type": "audio",
        "title": "Meditation",
        "description": "Denna meditation kommer att förbereda dig för nästa steg i övningen",
        "audioUri": "https://storage.googleapis.com/k-org-879a8.appspot.com/audio/yg_self_compassion/intention/yogagirl_meditation_Lesson_02_Setting_my_intention.mp3",
        "buttons": [
          {
            "component": "Button",
            "content": "Fortsätt",
            "sectionId": "section8"
          }
        ]
      },
      {
        "id": "section8",
        "type": "editorialWithImage",
        "alias": "Ställ in din avsikt för kursen",
        "topImageUri": "https://storage.googleapis.com/k-org-879a8.appspot.com/images/yg_self_compassion/intention/yg_intention_writing-min.jpg",
        "title": "Ställ in din avsikt för kursen",
        "content": "Hur skulle du vilja se ditt liv förändras till följd av att du tar den här kursen?\n\nAtt lära sig kunskapen och färdigheterna med självmedkänsla kan hjälpa dig att komma igenom svåra tider i livet.\n\nEtt sätt att utforska vad du vill ha från livet är att föreställa dig själv vid en annan tidpunkt längre fram i tiden och reflektera över hur du vill att saker ska vara då. Hur skulle ditt självmedkännande förhållande till dig själv se ut?",
        "buttons": [
          {
            "component": "Button",
            "content": "Fortsätt",
            "sectionId": "section9"
          }
        ]
      },
      {
        "id": "section9",
        "type": "writing",
        "alias": "Ditt framtida jag",
        "title": "Ditt framtida jag",
        "time": "Ta 5-10 min",
        "shortDescription": "Tänk dig att du är ett år in i framtiden och att din relation till dig själv är omtänksam, stödjande och medkännande. Vad skulle ditt framtida jag säga om hur du relaterar till dig själv? Försök att vara specifik och inkludera de områden som har förändrats mest under det senaste året. Till exempel ”I framtiden ler jag när jag tittar på mig själv i spegeln. Jag är medkännande och accepterar mina misstag. ”",
        "buttons": [
          {
            "component": "Button",
            "content": "Fortsätt",
            "sectionId": "section10"
          }
        ]
      },
      {
        "id": "section10",
        "type": "video",
        "alias": "Avsikt",
        "title": "Avsikt",
        "description": "Rachels brev",
        "buttons": [
          {
            "component": "Button",
            "content": "Fortsätt",
            "sectionId": "section11"
          }
        ],
        "videos": [
          {
            "imageUri": "https://storage.googleapis.com/k-org-879a8.appspot.com/images/yg_self_compassion/intention/yg_intention_video_letter-min.jpg",
            "videoUri": "https://res.cloudinary.com/twentyninek/video/upload/q_auto,t_global/v1622194759/Self%20Compassion/intention_exercise2_1_p5qe0d.mp4"
          }
        ]
      },
      {
        "id": "section11",
        "type": "editorialWithImage",
        "alias": "",
        "title": "",
        "content": "Självmedkänsla kan vara knepigt. I livet lyckas vi ofta genom att arbeta hårdare eller sträva efter. Självmedkänsla innebär mindre arbete, mindre strävan. Mer bara att vara snäll och tålmodig med oss själva.\n\nIbland kan vi känna att syftet med självmedkänsla är att må bättre och få smärtan att försvinna. Det händer oss alla ibland och när det gör det kan det bli en typ av strävan som faktiskt blockerar fördelarna med självmedkänsla. Medkänsla är skonsam och också radikal acceptans av vad som händer inuti. I stunder av kamp kan vi ge oss medkänsla att inte må bättre, utan för att vi mår dåligt.",
        "buttons": [
          {
            "component": "Button",
            "content": "Fortsätt",
            "sectionId": "section12"
          }
        ]
      },
      {
        "id": "section12",
        "type": "editorialWithImage",
        "alias": "# Bra ~~jobbat!~~",
        "title": "# Bra ~~jobbat!~~",
        "content": "Du har nu slutfört lektionen **Avsikt!**\n\nOm du väljer att delta i en delning med din grupp behöver du följande övningar nära till hands:\n\n* Ditt testresultat om din självmedkänsla\n* Att göra medkänsla viktigt\n* Ditt framtida jag",
        "buttons": [
          {
            "component": "LessonCompleteButton",
            "content": "Stäng"
          }
        ]
      }
    ]
  },
  "pt": {
    "id": "ENYMoPMGe6NLhACTSZDco-1",
    "alias": "Self compassion - Intention 1",
    "type": "lesson",
    "root": "section1",
    "sections": [
      {
        "id": "section1",
        "type": "video",
        "alias": "Intenção",
        "title": "Intenção",
        "description": "\"Talvez por todas as mudanças que aconteceram na minha vida (…), eu senti que tinha de ser muito boa, se possível, não falhar.”",
        "buttons": [
          {
            "component": "Button",
            "content": "Continuar",
            "sectionId": "section2"
          }
        ],
        "videos": [
          {
            "imageUri": "https://res.cloudinary.com/twentyninek/image/upload/q_auto,t_global/v1621448853/29k%20FJN/Courses/Self%20Compassion/Photos%20Final%20(Use%20This%20One)/L2P1intentionautocompaixao_owiufs.jpg",
            "videoUri": "https://res.cloudinary.com/twentyninek/video/upload/q_auto,t_global/v1621895747/29k%20FJN/Courses/Self%20Compassion/Videos/FL_-_L2_Self-compassion_V1_rtsdyi.mp4"
          }
        ]
      },
      {
        "id": "section2",
        "type": "editorialWithImage",
        "alias": "O próximo passo da tua jornada começa aqui",
        "topImageUri": "https://res.cloudinary.com/twentyninek/image/upload/q_auto,t_global/v1621448852/29k%20FJN/Courses/Self%20Compassion/Photos%20Final%20(Use%20This%20One)/L2P2intentionautocompaixao_o2ko2h.jpg",
        "title": "O próximo passo da tua jornada começa aqui",
        "content": "Hoje estás a dar o próximo passo da tua jornada em direção a uma relação mais compassiva contigo.\nNesta segunda lição, irás explorar as tuas atitudes atuais de autocompaixão e por que razão é importante para ti trabalhar a autocompaixão.\n\n### A lição de hoje tem três partes:\n\n* O teste da autocompaixão\n* Explorar onde é que a compaixão é mais importante \n* Definir uma intenção para o curso\n\n### Preparação para a lição:\n\n* 40 min de tempo sem perturbações\n* Papel e caneta",
        "buttons": [
          {
            "component": "Button",
            "content": "Continuar",
            "sectionId": "section3"
          }
        ]
      },
      {
        "id": "section3",
        "type": "editorialWithImage",
        "alias": "As nossas atitudes para connosco nem sempre são bondosas",
        "topImageUri": "https://res.cloudinary.com/twentyninek/image/upload/q_auto,t_global/v1621448852/29k%20FJN/Courses/Self%20Compassion/Photos%20Final%20(Use%20This%20One)/L2P3intentionautocompaixao_rrm2bc.jpg",
        "title": "As nossas atitudes para connosco nem sempre são bondosas",
        "content": "A/o crítica/o interior faz-nos muitas vezes comportarmo-nos de uma forma pouco atenciosa e até hostil para connosco.\n\nPara te compreenderes melhor, pode ser útil reservar algum tempo para refletir sobre como te tratas em tempos difíceis.\n\n*Este teste vem da área de investigação em autocompaixão e foi utilizado com permissão de Kristin Neff.*",
        "buttons": [
          {
            "component": "Button",
            "content": "Comece o teste",
            "sectionId": "self-test"
          }
        ]
      },
      {
        "content": [
          {
            "next": {
              "sectionId": "test-result"
            },
            "component": "Questionnaire",
            "calcType": "avg",
            "hideSubScores": false,
            "options": [
              {
                "label": "Quase nunca",
                "score": 1
              },
              {
                "label": "Ocasionalmente",
                "score": 2
              },
              {
                "label": "Cerca de metade do tempo",
                "score": 3
              },
              {
                "label": "Frequentemente",
                "score": 4
              },
              {
                "label": "Quase sempre",
                "score": 5
              }
            ],
            "questions": [
              "Eu desaprovo e julgo as minhas próprias falhas e incapacidades.",
              "Quando me sinto em baixo, tendo a ficar obcecada/o e a focar-me em tudo o que está errado.",
              "Quando as coisas me correm mal, vejo as dificuldades como uma parte da vida pela qual toda a gente passa.",
              "Quando penso nas minhas incapacidades, tenho tendência a sentir-me separada/o e desligada/o do mundo.",
              "Eu tento ser amável comigo quando sinto dor emocional.",
              "Quando falho em alguma coisa importante para mim, sou consumida/o por sentimentos de incapacidade.",
              "Quando me sinto perdida/o, lembro-me que há muitas pessoas no mundo a sentir-se como eu.",
              "Quando me encontro em situações difíceis, tendo a ser dura/o comigo.",
              "Quando alguma coisa me perturba, tento manter o meu equilíbrio emocional.",
              "Quando me sinto desadequada/o, tento lembrar-me que estes sentimentos são comuns para a maioria das pessoas.",
              "Sou intolerante e impaciente com os aspetos da minha personalidade dos quais desgosto.",
              "Quando passo por uma situação muito difícil, dou a mim própria/o o carinho e a ternura de que preciso.",
              "Quando me sinto em baixo, tendo a sentir que a maioria das pessoas é provavelmente mais feliz do que eu.",
              "Quando acontece algo doloroso, tento ter uma visão equilibrada da situação.",
              "Tento ver os meus fracassos como parte da condição humana.",
              "Eu rebaixo-me quando vejo aspetos meus dos quais não gosto.",
              "Quando falho em algo importante para mim, tento manter as coisas em perspetiva.",
              "Quando passo por uma situação muito difícil, tendo a sentir que as outras pessoas têm a vida mais facilitada nessa situação.",
              "Sou bondosa/o comigo quando experiencio sofrimento.",
              "Quando algo me perturba, deixo-me levar pelos meus sentimentos.",
              "Posso ser um pouco fria/o comigo quando experiencio sofrimento.",
              "Quando me sinto em baixo, tento abordar os meus sentimentos com curiosidade e abertura.",
              "Sou tolerante com as minhas imperfeições e insuficiências.",
              "Quando acontece algo doloroso, tendo a fazer com que as coisas fiquem fora de controlo.",
              "Quando falho em algo importante para mim, tendo a sentir-me sozinha/o no meu fracasso.",
              "Tento ser compreensiva/o e paciente com as características da minha personalidade das quais não gosto."
            ],
            "groups": {
              "self-kindness": {
                "label": "Amabilidade",
                "description": "A amabilidade para contigo refere-se a encontrares-te com paciência, carinho e ternura quando passas por situações difíceis ou estás a sofrer emocionalmente.",
                "questions": [
                  4,
                  11,
                  18,
                  22,
                  25
                ],
                "invertedScoring": false,
                "scores": [
                  {
                    "score": 1,
                    "label": "Baixo"
                  },
                  {
                    "score": 3,
                    "label": "Moderado"
                  },
                  {
                    "score": 5,
                    "label": "Alto"
                  }
                ]
              },
              "self-judgment": {
                "label": "Autocrítica",
                "description": "A autocrítica refere-se a seres intolerante, dura/o e impaciente contigo quando experiencias sofrimento ou és confrontada/o com aspetos pessoais dos quais não gostas.",
                "questions": [
                  0,
                  7,
                  10,
                  15,
                  20
                ],
                "invertedScoring": true,
                "scores": [
                  {
                    "score": 1,
                    "label": "Baixo"
                  },
                  {
                    "score": 3,
                    "label": "Moderado"
                  },
                  {
                    "score": 5,
                    "label": "Alto"
                  }
                ]
              },
              "common-humanity": {
                "label": "Humanidade comum",
                "description": "A humanidade comum passa por veres as tuas dificuldades, dor e defeitos como parte de ser humano e como algo que é comum a toda gente e pelo qual toda a gente passa.",
                "questions": [
                  2,
                  6,
                  9,
                  14
                ],
                "invertedScoring": false,
                "scores": [
                  {
                    "score": 1,
                    "label": "Baixo"
                  },
                  {
                    "score": 3,
                    "label": "Moderado"
                  },
                  {
                    "score": 5,
                    "label": "Alto"
                  }
                ]
              },
              "isolation": {
                "label": "Solidão",
                "description": "A solidão consiste em sentires-te sozinha/o nas tuas dificuldades e insuficiências. E também em pensares que as outras pessoas têm uma vida mais fácil e mais feliz.",
                "questions": [
                  3,
                  12,
                  17,
                  24
                ],
                "invertedScoring": true,
                "scores": [
                  {
                    "score": 1,
                    "label": "Baixo"
                  },
                  {
                    "score": 3,
                    "label": "Moderado"
                  },
                  {
                    "score": 5,
                    "label": "Alto"
                  }
                ]
              },
              "mindfulness": {
                "label": "Mindfulness",
                "description": "Mindfulness consiste em manter as tuas emoções em equilíbrio, estar disponível e pôr as coisas em perspetiva quando estás perturbada/o ou quando alguma coisa dolorosa acontece.",
                "questions": [
                  8,
                  13,
                  16,
                  21
                ],
                "invertedScoring": false,
                "scores": [
                  {
                    "score": 1,
                    "label": "Baixo"
                  },
                  {
                    "score": 3,
                    "label": "Moderado"
                  },
                  {
                    "score": 5,
                    "label": "Alto"
                  }
                ]
              },
              "over-identified": {
                "label": "Identificação excessiva",
                "description": "A identificação excessiva está relacionada com obcecar, focar ou ficar consumida/o com sentimentos de fracasso ou insuficiência quando algo corre mal.",
                "questions": [
                  1,
                  5,
                  19,
                  23
                ],
                "invertedScoring": true,
                "scores": [
                  {
                    "score": 1,
                    "label": "Baixo"
                  },
                  {
                    "score": 3,
                    "label": "Moderado"
                  },
                  {
                    "score": 5,
                    "label": "Alto"
                  }
                ]
              }
            },
            "scores": [
              {
                "score": 1,
                "label": "Baixo",
                "description": "Quando a relação contigo própria/o é crítica em vez de compreensiva e bondosa. Quando passas por dificuldades, tens tendência a esquecer-te de que o sofrimento é parte de ser humano e isolas-te dos outros. Quando estás em sofrimento, és frequentemente consumida/o por pensamentos autocríticos e tens dificuldade em estar no momento presente."
              },
              {
                "score": 3,
                "label": "Moderado",
                "description": "A relação contigo própria/o é uma mistura de compreensão e amabilidade, mas também julgamento e criticismo. Às vezes, quando estás em situações difíceis, lembras-te que o sofrimento é parte de ser humano, mas, outras vezes, tendes a isolar-te. Quando estás a sofrer, alternas entre estar no momento presente e acreditar nos teus pensamentos autocríticos."
              },
              {
                "score": 5,
                "label": "Alto",
                "description": "A relação contigo própria/o tem compreensão e amabilidade em vez de julgamento e criticismo. Quando passas por momentos complicados, tendes a lembrar-te que o sofrimento é parte de ser humano e evitas isolar-te dos outros. Quando sofres, encontras formas de estar no momento presente em vez de ser consumido por pensamentos autocríticos."
              }
            ]
          }
        ],
        "id": "self-test",
        "alias": "Self test",
        "type": "defaultSection"
      },
      {
        "content": [
          {
            "component": "QuestionnaireResult",
            "id": "answers"
          },
          {
            "component": "ButtonGroup",
            "content": [
              {
                "component": "Button",
                "sectionId": "section4",
                "content": "Continuar"
              }
            ]
          }
        ],
        "id": "test-result",
        "alias": "Result",
        "type": "defaultSection"
      },
      {
        "id": "section4",
        "type": "video",
        "alias": "A Fátima partilha os seus resultados",
        "title": "A Fátima partilha os seus resultados",
        "description": "“Achei uma avaliação que exige honestidade. (…) Se eu enganar os testes, não vou estar a fazer outra coisa senão enganar-me a mim própria.”",
        "buttons": [
          {
            "component": "Button",
            "content": "Continuar",
            "sectionId": "section5"
          }
        ],
        "videos": [
          {
            "imageUri": "https://res.cloudinary.com/twentyninek/image/upload/q_auto,t_global/v1621448853/29k%20FJN/Courses/Self%20Compassion/Photos%20Final%20(Use%20This%20One)/L2P4intentionautocompaixao_vgvtbs.jpg",
            "videoUri": "https://res.cloudinary.com/twentyninek/video/upload/q_auto,t_global/v1621895746/29k%20FJN/Courses/Self%20Compassion/Videos/FL_-_L2_Self_compassion_V2_rsogzx.mp4"
          }
        ]
      },
      {
        "id": "section5",
        "type": "editorialWithImage",
        "alias": "Onde é que a compaixão é mais importante para ti?",
        "topImageUri": "https://res.cloudinary.com/twentyninek/image/upload/q_auto,t_global/v1621448853/29k%20FJN/Courses/Self%20Compassion/Photos%20Final%20(Use%20This%20One)/L2P5intentionautocompaixao_a3iw8s.jpg",
        "title": "Onde é que a compaixão é mais importante para ti?",
        "content": "Agora que já viste os teus resultados, pode ser uma boa altura para explorares em que área da tua vida mais precisas de compaixão.\n\nSaber onde estás a ter dificuldades ajudar-te-á a ver as situações de forma mais clara e a iniciar um processo de mudança.",
        "buttons": [
          {
            "component": "Button",
            "content": "Continuar",
            "sectionId": "section6"
          }
        ]
      },
      {
        "id": "section6",
        "type": "writing",
        "alias": "Tornar a compaixão importante",
        "title": "Tornar a compaixão importante",
        "time": "Tira 5-10 min",
        "longDescription": "#### Escreve as tuas respostas a estas perguntas\n\n* Qual é a área da tua vida com menos autocompaixão?\n* Quais são os obstáculos que te impedem de ser compassiva/o para contigo nessa área em particular?\n* O que significaria para ti e para os que te rodeiam ser mais compassiva/o para contigo nesta área?",
        "buttons": [
          {
            "component": "Button",
            "content": "Continuar",
            "sectionId": "section7"
          }
        ]
      },
      {
        "id": "section7",
        "type": "audio",
        "title": "Meditação",
        "description": "Esta meditação vai preparar-te para o próximo passo do exercício.",
        "audioUri": "https://res.cloudinary.com/twentyninek/video/upload/q_auto,t_global/v1621523410/29k%20FJN/Meditations/Joanna%20Final/Setting_My_Intention_t5janl.mp3",
        "buttons": [
          {
            "component": "Button",
            "content": "Continuar",
            "sectionId": "section8"
          }
        ]
      },
      {
        "id": "section8",
        "type": "editorialWithImage",
        "alias": "Define a tua intenção para o curso",
        "topImageUri": "https://res.cloudinary.com/twentyninek/image/upload/q_auto,t_global/v1621448853/29k%20FJN/Courses/Self%20Compassion/Photos%20Final%20(Use%20This%20One)/L2P8intentionautocompaixao_ro0qbl.jpg",
        "title": "Define a tua intenção para o curso",
        "content": "Como gostarias que a tua vida mudasse em resultado deste curso?\n\nAprender os conceitos e as técnicas da autocompaixão pode ajudar-te a ultrapassar os momentos difíceis da tua vida.\n\nUma forma de explorar o que queres da tua vida é imaginares-te num momento futuro e pensares em como gostarias que as coisas fossem nessa altura. Como seria a relação autocompassiva contigo?",
        "buttons": [
          {
            "component": "Button",
            "content": "Continuar",
            "sectionId": "section9"
          }
        ]
      },
      {
        "id": "section9",
        "type": "writing",
        "alias": "O teu eu futuro",
        "title": "O teu eu futuro",
        "time": "Tira 5-10 min",
        "shortDescription": "Imagina-te daqui a um ano e que a tua relação contigo é atenciosa, solidária e compassiva. O que o teu eu futuro diria sobre a forma como te relacionas contigo? Tenta ser o mais específica/o possível e inclui as áreas que mais mudaram ao longo deste último ano. Por exemplo: \"No futuro, eu sorrio quando me olho ao espelho. Sou compassiva/o e aceito os meus erros\".",
        "buttons": [
          {
            "component": "Button",
            "content": "Continuar",
            "sectionId": "section10"
          }
        ]
      },
      {
        "id": "section10",
        "type": "video",
        "alias": "Intenção",
        "title": "Intenção",
        "description": "A carta da Fátima\n\n“Que eu consiga valorizar ainda mais o meu caminho e os passos que dei até aqui”",
        "buttons": [
          {
            "component": "Button",
            "content": "Continuar",
            "sectionId": "section11"
          }
        ],
        "videos": [
          {
            "imageUri": "https://res.cloudinary.com/twentyninek/image/upload/q_auto,t_global/v1621448854/29k%20FJN/Courses/Self%20Compassion/Photos%20Final%20(Use%20This%20One)/L2P10intentionautocompaixao_wc1blq.jpg",
            "videoUri": "https://res.cloudinary.com/twentyninek/video/upload/q_auto,t_global/v1621895786/29k%20FJN/Courses/Self%20Compassion/Videos/FL_-_L2_Self_compassion_V3_ctkdud.mp4"
          }
        ]
      },
      {
        "id": "section11",
        "type": "editorialWithImage",
        "alias": "Autocompaixão",
        "title": "Autocompaixão",
        "content": "A autocompaixão pode ser complicada. Muitas vezes temos sucesso na vida porque trabalhamos ou nos esforçamos demais. A autocompaixão implica menos trabalho, menos esforço. Passa mais por sermos amáveis e pacientes connosco.\n\nPor vezes, podemos achar que o objetivo da autocompaixão é sentirmo-nos melhor e fazer com que a dor desapareça. Esta perspetiva pode bloquear os benefícios da autocompaixão. A autocompaixão é uma aceitação bondosa, e também radical, do que se está a passar dentro de nós. Em momentos de dificuldade, podemos usar a autocompaixão não para nos sentirmos melhor, mas porque nos sentimos mal.",
        "buttons": [
          {
            "component": "Button",
            "content": "Continuar",
            "sectionId": "section12"
          }
        ]
      },
      {
        "id": "section12",
        "type": "editorialWithImage",
        "alias": "# ~~Parabéns!~~",
        "title": "# ~~Parabéns!~~",
        "content": "Parabéns por teres completado a lição da **Intenção**, fizeste uma coisa maravilhosa pelo teu bem-estar.\n\nSe decidires fazer uma partilha com o teu grupo, vais precisar de ter à mão os seguintes exercícios:\n\n* O teste da autocompaixão\n* Fazer com que a compaixão importe\n* O teu eu futuro",
        "buttons": [
          {
            "component": "LessonCompleteButton",
            "content": "Fechar"
          }
        ]
      }
    ]
  }
}