{
  "en": {
    "id": "kroppen-1",
    "alias": "YA Become friends: 2-body-1",

    "root": "section1",
    "sections": [
      {
        "content": [
          {
            "component": "HeaderImage",
            "content": {
              "uri": "https://storage.googleapis.com/k-org-879a8.appspot.com/images/courses/fe91a529-e05c-4baf-97ab-336ed8f8c8bb/lesson_kropp_header.png"
            }
          },
          {
            "component": "TextGroup",
            "content": [
              {
                "component": "Text",
                "content": "# The body"
              },
              {
                "component": "Text",
                "content": "Stress, fear, and love – everything is felt in the body. In this lesson, you will learn to notice how these experiences in the body affect you, as well as how you can practice accepting difficult experiences instead of running away from them."
              }
            ]
          },
          {
            "component": "ButtonGroup",
            "content": [
              {
                "component": "Button",
                "content": "Sounds good",
                "sectionId": "sectionContents"
              }
            ]
          }
        ],
        "id": "section1",
        "alias": "section1",
        "type": "defaultSection"
      },
      {
        "content": [
          {
            "component": "TextGroup",
            "content": [
              {
                "component": "Subtitle",
                "content": "The body contains three parts"
              },
              {
                "component": "Text",
                "content": "* Your stress reaction\n* The stress response\n* Your body, your home"
              }
            ]
          },
          {
            "component": "ButtonGroup",
            "content": [
              {
                "component": "Button",
                "content": "Start!",
                "sectionId": "section2"
              }
            ]
          }
        ],
        "id": "sectionContents",
        "alias": "sectionContents",
        "type": "defaultSection"
      },
      {
        "content": [
          {
            "component": "TextGroup",
            "content": [
              {
                "component": "Text",
                "content": "# Your stress reaction"
              },
              {
                "component": "Text",
                "content": "Now it's time to describe a stressful or difficult situation you've  experienced in the past week. A situation where you lost your inner friend or didn't hear what it said."
              }
            ]
          },
          {
            "component": "ButtonGroup",
            "content": [
              {
                "component": "Button",
                "content": "Okay, keep going",
                "sectionId": "stressfulSituationVideos"
              }
            ]
          }
        ],
        "id": "section2",
        "alias": "section2",
        "type": "defaultSection"
      },
      {
        "id": "stressfulSituationVideos",
        "alias": "stressfulSituationVideos",
        "content": [
          {
            "component": "VideoStories",
            "content": [
              {
                "title": "Isaac, 20",
                "duration": 57,
                "videoUri": "https://storage.googleapis.com/k-org-879a8.appspot.com/videos/courses/fe91a529-e05c-4baf-97ab-336ed8f8c8bb/Isaac_one_question.mp4",
                "imageUri": "https://storage.googleapis.com/k-org-879a8.appspot.com/images/courses/fe91a529-e05c-4baf-97ab-336ed8f8c8bb/Isaac_one_question.jpg",
                "subtitleUri": "https://res.cloudinary.com/twentyninek/raw/upload/q_auto,t_global/v1623856888/Become%20friends%20with%20yourself/subtitles/subtitles%20Eng/Isaac-one-question-en_z5q0ha.vtt"
              },
              {
                "title": "Emelia, 17",
                "duration": 60,
                "videoUri": "https://storage.googleapis.com/k-org-879a8.appspot.com/videos/courses/fe91a529-e05c-4baf-97ab-336ed8f8c8bb/Emelia_one_question.mp4",
                "imageUri": "https://storage.googleapis.com/k-org-879a8.appspot.com/images/courses/fe91a529-e05c-4baf-97ab-336ed8f8c8bb/Emelia_one_question.jpg",
                "subtitleUri": "https://res.cloudinary.com/twentyninek/raw/upload/q_auto,t_global/v1623856889/Become%20friends%20with%20yourself/subtitles/subtitles%20Eng/Emelia-one-question-en_o0uc6n.vtt"
              },
              {
                "title": "Laila",
                "duration": 43,
                "videoUri": "https://storage.googleapis.com/k-org-879a8.appspot.com/videos/courses/fe91a529-e05c-4baf-97ab-336ed8f8c8bb/Laila_question_one.mp4",
                "imageUri": "https://storage.googleapis.com/k-org-879a8.appspot.com/images/courses/fe91a529-e05c-4baf-97ab-336ed8f8c8bb/Laila_question_one.jpg",
                "subtitleUri": "https://res.cloudinary.com/twentyninek/raw/upload/q_auto,t_global/v1623856889/Become%20friends%20with%20yourself/subtitles/subtitles%20Eng/Laila-question-one-en_le70uf.vtt"
              }
            ]
          },
          {
            "component": "ButtonGroup",
            "content": [
              {
                "component": "Button",
                "content": "Next",
                "sectionId": "section3"
              }
            ]
          }
        ],
        "type": "defaultSection"
      },
      {
        "content": [
          {
            "component": "TextGroup",
            "content": [
              {
                "component": "Subtitle",
                "content": "Exercise"
              },
              {
                "component": "Text",
                "content": "## My stressful situation part 1"
              },
              {
                "component": "Text",
                "content": "* Where were you? \n* Who were there? \n* Why were you there? \n* What happened that made you stressed?"
              },
              {
                "component": "Quote",
                "content": "I was home alone doing my math homework. I did several mistakes and it felt like I was stupid and slow and would get my grade lowered."
              },
              {
                "component": "Text",
                "content": "Write down your answer where only you can see it."
              }
            ]
          },
          {
            "component": "ButtonGroup",
            "content": [
              {
                "component": "Button",
                "content": "Next",
                "sectionId": "section4"
              }
            ]
          }
        ],
        "id": "section3",
        "alias": "section3",
        "type": "defaultSection"
      },
      {
        "content": [
          {
            "component": "TextGroup",
            "content": [
              {
                "component": "Subtitle",
                "content": "Exercise"
              },
              {
                "component": "Text",
                "content": "## My stressful situation part 2"
              },
              {
                "component": "Text",
                "content": "How did that feel in your **body**? \n\nCommon examples are **tense** muscles, **shivering**, sweating, nausea and **fast heart** beating."
              },
              {
                "component": "Quote",
                "content": "I was sweating and feeling unwell."
              },
              {
                "component": "Text",
                "content": "Write down your answer where only you can see it."
              }
            ]
          },
          {
            "component": "ButtonGroup",
            "content": [
              {
                "component": "Button",
                "content": "I'm done",
                "sectionId": "section5"
              }
            ]
          }
        ],
        "id": "section4",
        "alias": "section4",
        "type": "defaultSection"
      },
      {
        "content": [
          {
            "component": "TextGroup",
            "content": [
              {
                "component": "Subtitle",
                "content": "Exercise"
              },
              {
                "component": "Text",
                "content": "## My stressful situation part 3"
              },
              {
                "component": "Text",
                "content": "What **feelings** did you have? \n\nAfraid, angry, frustrated, ashamed or maybe sad? What feeling did you experience **most strongly**?"
              },
              {
                "component": "Quote",
                "content": "I was scared and angry at myself. Mostly scared perhaps."
              },
              {
                "component": "Text",
                "content": "Write down your answer where only you can see it."
              }
            ]
          },
          {
            "component": "ButtonGroup",
            "content": [
              {
                "component": "Button",
                "content": "Done",
                "sectionId": "section6"
              }
            ]
          }
        ],
        "id": "section5",
        "alias": "section5",
        "type": "defaultSection"
      },
      {
        "content": [
          {
            "component": "TextGroup",
            "content": [
              {
                "component": "Subtitle",
                "content": "Exercise"
              },
              {
                "component": "Text",
                "content": "## My stressful situation part 4"
              },
              {
                "component": "Text",
                "content": "If you close your eyes and think about the situation, **where** in your body was this feeling **strongest**? \n\nIn the chest, head, stomach or somewhere else? \n\nCan you **describe** the experience in your body?"
              },
              {
                "component": "Quote",
                "content": "It felt most in the stomach. Heavy, like a big cold globe."
              },
              {
                "component": "Text",
                "content": "Write down your answer where only you can see it."
              }
            ]
          },
          {
            "component": "ButtonGroup",
            "content": [
              {
                "component": "Button",
                "content": "I'm finished",
                "sectionId": "section7"
              }
            ]
          }
        ],
        "id": "section6",
        "alias": "section6",
        "type": "defaultSection"
      },
      {
        "content": [
          {
            "component": "TextGroup",
            "content": [
              {
                "component": "Text",
                "content": "Great that you dared face your feelings and experiences in a difficult situation."
              }
            ]
          },
          {
            "component": "ButtonGroup",
            "content": [
              {
                "component": "NextConversationButton",
                "variant": "primary",
                "content": "Next",
                "conversationId": "kroppen-2"
              }
            ]
          }
        ],
        "id": "section7",
        "alias": "section7",
        "type": "defaultSection"
      }
    ]
  },
  "sv": {
    "id": "kroppen-1",
    "alias": "YA Become friends: 2-body-1",

    "root": "section1",
    "sections": [
      {
        "content": [
          {
            "component": "HeaderImage",
            "content": {
              "uri": "https://storage.googleapis.com/k-org-879a8.appspot.com/images/courses/fe91a529-e05c-4baf-97ab-336ed8f8c8bb/lesson_kropp_header.png"
            }
          },
          {
            "component": "TextGroup",
            "content": [
              {
                "component": "Text",
                "content": "# Kroppen"
              },
              {
                "component": "Text",
                "content": "Stress, rädsla och kärlek – allt känns i kroppen. I den här utmaningen lär du dig att lägga märke till hur upplevelser i kroppen påverkar dig, och hur du kan träna på att acceptera jobbiga upplevelser i stället för att försöka bli av med dem."
              }
            ]
          },
          {
            "component": "ButtonGroup",
            "content": [
              {
                "component": "Button",
                "content": "Låter bra",
                "sectionId": "sectionContents"
              }
            ]
          }
        ],
        "id": "section1",
        "alias": "section1",
        "type": "defaultSection"
      },
      {
        "content": [
          {
            "component": "TextGroup",
            "content": [
              {
                "component": "Subtitle",
                "content": "Kroppen innehåller 3 steg"
              },
              {
                "component": "Text",
                "content": "* Din stressreaktion\n* Kroppens påslag\n* Din kropp, ditt hem"
              }
            ]
          },
          {
            "component": "ButtonGroup",
            "content": [
              {
                "component": "Button",
                "content": "Börja!",
                "sectionId": "section2"
              }
            ]
          }
        ],
        "id": "sectionContents",
        "alias": "sectionContents",
        "type": "defaultSection"
      },
      {
        "content": [
          {
            "component": "TextGroup",
            "content": [
              {
                "component": "Text",
                "content": "# Din stressreaktion"
              },
              {
                "component": "Text",
                "content": "Du ska nu få beskriva en stressig eller svår situation du har upplevt senaste veckan. En situation där du tappade bort din inre kompis eller inte hörde vad hen sa."
              }
            ]
          },
          {
            "component": "ButtonGroup",
            "content": [
              {
                "component": "Button",
                "content": "Okej, fortsätt",
                "sectionId": "stressfulSituationVideos"
              }
            ]
          }
        ],
        "id": "section2",
        "alias": "section2",
        "type": "defaultSection"
      },
      {
        "id": "stressfulSituationVideos",
        "alias": "stressfulSituationVideos",
        "content": [
          {
            "component": "VideoStories",
            "content": [
              {
                "title": "Isaac, 20",
                "duration": 57,
                "videoUri": "https://storage.googleapis.com/k-org-879a8.appspot.com/videos/courses/fe91a529-e05c-4baf-97ab-336ed8f8c8bb/Isaac_one_question.mp4",
                "imageUri": "https://storage.googleapis.com/k-org-879a8.appspot.com/images/courses/fe91a529-e05c-4baf-97ab-336ed8f8c8bb/Isaac_one_question.jpg",
                "subtitleUri": "https://res.cloudinary.com/twentyninek/raw/upload/q_auto,t_global/v1621608384/Become%20friends%20with%20yourself/subtitles/Isaac-one-question_unk9qw.vtt"
              },
              {
                "title": "Emelia, 17",
                "duration": 60,
                "videoUri": "https://storage.googleapis.com/k-org-879a8.appspot.com/videos/courses/fe91a529-e05c-4baf-97ab-336ed8f8c8bb/Emelia_one_question.mp4",
                "imageUri": "https://storage.googleapis.com/k-org-879a8.appspot.com/images/courses/fe91a529-e05c-4baf-97ab-336ed8f8c8bb/Emelia_one_question.jpg",
                "subtitleUri": "https://res.cloudinary.com/twentyninek/raw/upload/q_auto,t_global/v1621608384/Become%20friends%20with%20yourself/subtitles/Emelia-one-question_jjqoxn.vtt"
              },
              {
                "title": "Laila",
                "duration": 43,
                "videoUri": "https://storage.googleapis.com/k-org-879a8.appspot.com/videos/courses/fe91a529-e05c-4baf-97ab-336ed8f8c8bb/Laila_question_one.mp4",
                "imageUri": "https://storage.googleapis.com/k-org-879a8.appspot.com/images/courses/fe91a529-e05c-4baf-97ab-336ed8f8c8bb/Laila_question_one.jpg",
                "subtitleUri": "https://res.cloudinary.com/twentyninek/raw/upload/q_auto,t_global/v1621608384/Become%20friends%20with%20yourself/subtitles/Laila-question-one_nv0bm1.vtt"
              }
            ]
          },
          {
            "component": "ButtonGroup",
            "content": [
              {
                "component": "Button",
                "content": "Nästa",
                "sectionId": "section3"
              }
            ]
          }
        ],
        "type": "defaultSection"
      },
      {
        "content": [
          {
            "component": "TextGroup",
            "content": [
              {
                "component": "Subtitle",
                "content": "Övning"
              },
              {
                "component": "Text",
                "content": "# Min stressiga situation del 1"
              },
              {
                "component": "Text",
                "content": "Var befann du dig? Vilka var där? Varför var du där? Vad hände som gjorde dig stressad?"
              },
              {
                "component": "Quote",
                "content": "Jag var hemma själv och gjorde matteläxan. Jag hade flera fel och det kändes som att jag var korkad och långsam och skulle få sänkt betyg."
              },
              {
                "component": "Text",
                "content": "Skriv ner ditt svar där bara du kan se det."
              }
            ]
          },
          {
            "component": "ButtonGroup",
            "content": [
              {
                "component": "Button",
                "content": "Nästa",
                "sectionId": "section4"
              }
            ]
          }
        ],
        "id": "section3",
        "alias": "section3",
        "type": "defaultSection"
      },
      {
        "content": [
          {
            "component": "TextGroup",
            "content": [
              {
                "component": "Subtitle",
                "content": "Övning"
              },
              {
                "component": "Text",
                "content": "# Min stressiga situation del 2"
              },
              {
                "component": "Text",
                "content": "Hur kändes det i kroppen? Vanliga exempel är spända muskler, skakningar, rysningar, svettningar, illamående och hjärtklappning. "
              },
              {
                "component": "Quote",
                "content": "Jag svettades, hade hjärtklappning och mådde illa."
              },
              {
                "component": "Text",
                "content": "Skriv ner ditt svar där bara du kan se det."
              }
            ]
          },
          {
            "component": "ButtonGroup",
            "content": [
              {
                "component": "Button",
                "content": "Nästa",
                "sectionId": "section5"
              }
            ]
          }
        ],
        "id": "section4",
        "alias": "section4",
        "type": "defaultSection"
      },
      {
        "content": [
          {
            "component": "TextGroup",
            "content": [
              {
                "component": "Subtitle",
                "content": "Övning"
              },
              {
                "component": "Text",
                "content": "# Min stressiga situation del 3"
              },
              {
                "component": "Text",
                "content": "Vilka känslor hade du? Rädd, arg, frustrerad, skamsen eller kanske ledsen? Vilken känsla upplevde du starkast? "
              },
              {
                "component": "Quote",
                "content": "Jag var rädd och arg på mig själv. mest rädd kanske."
              },
              {
                "component": "Text",
                "content": "Skriv ner ditt svar där bara du kan se det."
              }
            ]
          },
          {
            "component": "ButtonGroup",
            "content": [
              {
                "component": "Button",
                "content": "Nästa",
                "sectionId": "section6"
              }
            ]
          }
        ],
        "id": "section5",
        "alias": "section5",
        "type": "defaultSection"
      },
      {
        "content": [
          {
            "component": "TextGroup",
            "content": [
              {
                "component": "Subtitle",
                "content": "Övning"
              },
              {
                "component": "Text",
                "content": "# Min stressiga situation del 4"
              },
              {
                "component": "Text",
                "content": "Om du blundar och tänker dig in i situationen, var i din kropp var den här känslan starkast? I bröstet, huvudet, magen eller något annat? Kan du beskriva upplevelsen i kroppen?"
              },
              {
                "component": "Quote",
                "content": "Det kändes mest i magen. Tungt, som ett stort kallt klot."
              },
              {
                "component": "Text",
                "content": "Skriv ner ditt svar där bara du kan se det."
              }
            ]
          },
          {
            "component": "ButtonGroup",
            "content": [
              {
                "component": "Button",
                "content": "Jag är klar",
                "sectionId": "section7"
              }
            ]
          }
        ],
        "id": "section6",
        "alias": "section6",
        "type": "defaultSection"
      },
      {
        "content": [
          {
            "component": "TextGroup",
            "content": [
              {
                "component": "Text",
                "content": "Fint att du vågade möta dina känslor och upplevelser i en jobbig situation."
              }
            ]
          },
          {
            "component": "ButtonGroup",
            "content": [
              {
                "component": "NextConversationButton",
                "variant": "primary",
                "content": "Nästa",
                "conversationId": "kroppen-2"
              }
            ]
          }
        ],
        "id": "section7",
        "alias": "section7",
        "type": "defaultSection"
      }
    ]
  },
  "pt": {
    "id": "kroppen-1",
    "alias": "YA Become friends: 2-body-1",

    "root": "section1",
    "sections": [
      {
        "content": [
          {
            "component": "HeaderImage",
            "content": {
              "uri": "https://storage.googleapis.com/k-org-879a8.appspot.com/images/courses/fe91a529-e05c-4baf-97ab-336ed8f8c8bb/lesson_kropp_header.png"
            }
          },
          {
            "component": "TextGroup",
            "content": [
              {
                "component": "Text",
                "content": "# The body"
              },
              {
                "component": "Text",
                "content": "Stress, fear, and love – everything is felt in the body. In this lesson, you will learn to notice how these experiences in the body affect you, as well as how you can practice accepting difficult experiences instead of running away from them."
              }
            ]
          },
          {
            "component": "ButtonGroup",
            "content": [
              {
                "component": "Button",
                "content": "Sounds good",
                "sectionId": "sectionContents"
              }
            ]
          }
        ],
        "id": "section1",
        "alias": "section1",
        "type": "defaultSection"
      },
      {
        "content": [
          {
            "component": "TextGroup",
            "content": [
              {
                "component": "Subtitle",
                "content": "The body contains three parts"
              },
              {
                "component": "Text",
                "content": "* Your stress reaction\n* The stress response\n* Your body, your home"
              }
            ]
          },
          {
            "component": "ButtonGroup",
            "content": [
              {
                "component": "Button",
                "content": "Start!",
                "sectionId": "section2"
              }
            ]
          }
        ],
        "id": "sectionContents",
        "alias": "sectionContents",
        "type": "defaultSection"
      },
      {
        "content": [
          {
            "component": "TextGroup",
            "content": [
              {
                "component": "Text",
                "content": "# Your stress reaction"
              },
              {
                "component": "Text",
                "content": "Now it's time to describe a stressful or difficult situation you've  experienced in the past week. A situation where you lost your inner friend or didn't hear what it said."
              }
            ]
          },
          {
            "component": "ButtonGroup",
            "content": [
              {
                "component": "Button",
                "content": "Okay, keep going",
                "sectionId": "stressfulSituationVideos"
              }
            ]
          }
        ],
        "id": "section2",
        "alias": "section2",
        "type": "defaultSection"
      },
      {
        "id": "stressfulSituationVideos",
        "alias": "stressfulSituationVideos",
        "content": [
          {
            "component": "VideoStories",
            "content": [
              {
                "title": "Isaac, 20",
                "duration": 57,
                "videoUri": "https://storage.googleapis.com/k-org-879a8.appspot.com/videos/courses/fe91a529-e05c-4baf-97ab-336ed8f8c8bb/Isaac_one_question.mp4",
                "imageUri": "https://storage.googleapis.com/k-org-879a8.appspot.com/images/courses/fe91a529-e05c-4baf-97ab-336ed8f8c8bb/Isaac_one_question.jpg",
                "subtitleUri": "https://res.cloudinary.com/twentyninek/raw/upload/q_auto,t_global/v1623856888/Become%20friends%20with%20yourself/subtitles/subtitles%20Eng/Isaac-one-question-en_z5q0ha.vtt"
              },
              {
                "title": "Emelia, 17",
                "duration": 60,
                "videoUri": "https://storage.googleapis.com/k-org-879a8.appspot.com/videos/courses/fe91a529-e05c-4baf-97ab-336ed8f8c8bb/Emelia_one_question.mp4",
                "imageUri": "https://storage.googleapis.com/k-org-879a8.appspot.com/images/courses/fe91a529-e05c-4baf-97ab-336ed8f8c8bb/Emelia_one_question.jpg",
                "subtitleUri": "https://res.cloudinary.com/twentyninek/raw/upload/q_auto,t_global/v1623856889/Become%20friends%20with%20yourself/subtitles/subtitles%20Eng/Emelia-one-question-en_o0uc6n.vtt"
              },
              {
                "title": "Laila",
                "duration": 43,
                "videoUri": "https://storage.googleapis.com/k-org-879a8.appspot.com/videos/courses/fe91a529-e05c-4baf-97ab-336ed8f8c8bb/Laila_question_one.mp4",
                "imageUri": "https://storage.googleapis.com/k-org-879a8.appspot.com/images/courses/fe91a529-e05c-4baf-97ab-336ed8f8c8bb/Laila_question_one.jpg",
                "subtitleUri": "https://res.cloudinary.com/twentyninek/raw/upload/q_auto,t_global/v1623856889/Become%20friends%20with%20yourself/subtitles/subtitles%20Eng/Laila-question-one-en_le70uf.vtt"
              }
            ]
          },
          {
            "component": "ButtonGroup",
            "content": [
              {
                "component": "Button",
                "content": "Next",
                "sectionId": "section3"
              }
            ]
          }
        ],
        "type": "defaultSection"
      },
      {
        "content": [
          {
            "component": "TextGroup",
            "content": [
              {
                "component": "Subtitle",
                "content": "Exercise"
              },
              {
                "component": "Text",
                "content": "## My stressful situation part 1"
              },
              {
                "component": "Text",
                "content": "* Where were you? \n* Who were there? \n* Why were you there? \n* What happened that made you stressed?"
              },
              {
                "component": "Quote",
                "content": "I was home alone doing my math homework. I did several mistakes and it felt like I was stupid and slow and would get my grade lowered."
              },
              {
                "component": "Text",
                "content": "Write down your answer where only you can see it."
              }
            ]
          },
          {
            "component": "ButtonGroup",
            "content": [
              {
                "component": "Button",
                "content": "Next",
                "sectionId": "section4"
              }
            ]
          }
        ],
        "id": "section3",
        "alias": "section3",
        "type": "defaultSection"
      },
      {
        "content": [
          {
            "component": "TextGroup",
            "content": [
              {
                "component": "Subtitle",
                "content": "Exercise"
              },
              {
                "component": "Text",
                "content": "## My stressful situation part 2"
              },
              {
                "component": "Text",
                "content": "How did that feel in your **body**? \n\nCommon examples are **tense** muscles, **shivering**, sweating, nausea and **fast heart** beating."
              },
              {
                "component": "Quote",
                "content": "I was sweating and feeling unwell."
              },
              {
                "component": "Text",
                "content": "Write down your answer where only you can see it."
              }
            ]
          },
          {
            "component": "ButtonGroup",
            "content": [
              {
                "component": "Button",
                "content": "I'm done",
                "sectionId": "section5"
              }
            ]
          }
        ],
        "id": "section4",
        "alias": "section4",
        "type": "defaultSection"
      },
      {
        "content": [
          {
            "component": "TextGroup",
            "content": [
              {
                "component": "Subtitle",
                "content": "Exercise"
              },
              {
                "component": "Text",
                "content": "## My stressful situation part 3"
              },
              {
                "component": "Text",
                "content": "What **feelings** did you have? \n\nAfraid, angry, frustrated, ashamed or maybe sad? What feeling did you experience **most strongly**?"
              },
              {
                "component": "Quote",
                "content": "I was scared and angry at myself. Mostly scared perhaps."
              },
              {
                "component": "Text",
                "content": "Write down your answer where only you can see it."
              }
            ]
          },
          {
            "component": "ButtonGroup",
            "content": [
              {
                "component": "Button",
                "content": "Done",
                "sectionId": "section6"
              }
            ]
          }
        ],
        "id": "section5",
        "alias": "section5",
        "type": "defaultSection"
      },
      {
        "content": [
          {
            "component": "TextGroup",
            "content": [
              {
                "component": "Subtitle",
                "content": "Exercise"
              },
              {
                "component": "Text",
                "content": "## My stressful situation part 4"
              },
              {
                "component": "Text",
                "content": "If you close your eyes and think about the situation, **where** in your body was this feeling **strongest**? \n\nIn the chest, head, stomach or somewhere else? \n\nCan you **describe** the experience in your body?"
              },
              {
                "component": "Quote",
                "content": "It felt most in the stomach. Heavy, like a big cold globe."
              },
              {
                "component": "Text",
                "content": "Write down your answer where only you can see it."
              }
            ]
          },
          {
            "component": "ButtonGroup",
            "content": [
              {
                "component": "Button",
                "content": "I'm finished",
                "sectionId": "section7"
              }
            ]
          }
        ],
        "id": "section6",
        "alias": "section6",
        "type": "defaultSection"
      },
      {
        "content": [
          {
            "component": "TextGroup",
            "content": [
              {
                "component": "Text",
                "content": "Great that you dared face your feelings and experiences in a difficult situation."
              }
            ]
          },
          {
            "component": "ButtonGroup",
            "content": [
              {
                "component": "NextConversationButton",
                "variant": "primary",
                "content": "Next",
                "conversationId": "kroppen-2"
              }
            ]
          }
        ],
        "id": "section7",
        "alias": "section7",
        "type": "defaultSection"
      }
    ]
  }
}
