{
  "en": {
    "id": "pl-8-reframe",
    "alias": "pl-8-reframe",

    "root": "scheduleTask",
    "sections": [
      {
        "id": "pl-8-reframe",
        "alias": "pl-8-reframe",
        "type": "microInterventionDay",
        "welcomeHeading": "Reframe",
        "lessonlastDay": true,
        "task": {
          "id": "pl-8-reframe-rev1",
          "days": 1,
          "hours": 9,
          "minutes": 0,
          "title": "Reframe",
          "body": "Over the next few hours, choose two thoughts or feelings you're grappling with at work at the moment. \n\nThen list one way in which you can view them more usefully. (e.g., I resent their success. What can I do differently to achieve more positive impact?)"
        },
        "followUp": {
          "id": "pl-8-reframe-rev1",
          "days": 0,
          "hours": 16,
          "minutes": 0,
          "title": "Check-in",
          "body": "Let's check-in"
        },
        "sharingWall": {
          "question": "What did you notice by reframing your thoughts and feelings?",
          "exampleText": "I felt a sudden sense of optimism where before I felt more negative."
        }
      }
    ]
  },
  "sv": {
    "id": "pl-8-reframe",
    "alias": "pl-8-reframe",

    "root": "scheduleTask",
    "sections": [
      {
        "id": "pl-8-reframe",
        "alias": "pl-8-reframe",
        "type": "microInterventionDay",
        "welcomeHeading": "Reframe",
        "lessonlastDay": true,
        "task": {
          "days": 1,
          "hours": 8,
          "minutes": 15,
          "title": "Reframe",
          "body": "Over the next few hours, choose two unwanted thoughts or feelings you’ve had. List one way in which you can view each of those unwanted experiences more usefully. (e.g., I resent their success, what can I do now do to take responsibility to do better myself and achieve success.)"
        },
        "followUp": {
          "id": "pl-8-reframe-rev1",
          "days": 0,
          "hours": 10,
          "minutes": 0,
          "title": "Check-in",
          "body": "Time to check-in with today’s quest!"
        },
        "sharingWall": {
          "question": "What was it like for you to do today’s quest?",
          "exampleText": "..."
        }
      }
    ]
  },
  "pt": {
    "id": "pl-8-reframe",
    "alias": "pl-8-reframe",

    "root": "scheduleTask",
    "sections": [
      {
        "id": "pl-8-reframe",
        "alias": "pl-8-reframe",
        "type": "microInterventionDay",
        "welcomeHeading": "Reframe",
        "lessonlastDay": true,
        "task": {
          "id": "pl-8-reframe-rev1",
          "days": 1,
          "hours": 8,
          "minutes": 47,
          "title": "Reframe",
          "body": "Over the next few hours, choose two unwanted thoughts or feelings you’ve had. List one way in which you can view each of those unwanted experiences more usefully. (e.g., I resent their success, what can I do now do to take responsibility to do better myself and achieve success.)"
        },
        "followUp": {
          "id": "pl-8-reframe-rev1",
          "days": 0,
          "hours": 18,
          "minutes": 0,
          "title": "Check-in",
          "body": "Time to check-in with today’s quest!"
        },
        "sharingWall": {
          "question": "What was it like for you to do today’s quest?",
          "exampleText": "..."
        }
      }
    ]
  }
}
