{
  "en": {
    "id": "relationships-thingsgowrong-2",
    "alias": "YA building relationships 3: thingsgowrong-2",
    "root": "1",
    "sections": [
      {
        "id": "1",
        "alias": "1",
        "content": [
          {
            "component": "TextGroup",
            "content": [
              {
                "component": "Text",
                "content": "Now you will practice being **aware** and **allowing** **–** but with **difficult** thoughts and feelings. It is common to find that it is **harder** than with positive emotions and thoughts. We'll take it in small steps."
              }
            ]
          },
          {
            "component": "ButtonGroup",
            "content": [
              {
                "component": "Button",
                "content": "Let's go",
                "sectionId": "2"
              }
            ]
          }
        ],
        "type": "defaultSection"
      },
      {
        "id": "2",
        "alias": "2",
        "content": [
          {
            "component": "TextGroup",
            "content": [
              {
                "component": "Text",
                "content": "Press play to do the exercise."
              }
            ]
          },
          {
            "component": "AudioPlayer",
            "content": {
              "uri": "https://res.cloudinary.com/twentyninek/video/upload/q_auto,t_global/v1622469438/Building%20Relationships/aware_and_allow_2_-_2021-05-31_15_grbcje.mp3",
              "duration": 5
            }
          },
          {
            "component": "ButtonGroup",
            "content": [
              {
                "component": "Button",
                "content": "Next",
                "sectionId": "3"
              }
            ]
          }
        ],
        "type": "defaultSection"
      },
      {
        "id": "3",
        "alias": "3",
        "content": [
          {
            "component": "TextGroup",
            "content": [
              {
                "component": "Text",
                "content": "Now we want you to think about the following:\n\n* What happened to your emotions when you did this exercise?\n* With your thoughts?\n\nWrite down your answer somewhere where only you can see them."
              }
            ]
          },
          {
            "component": "ButtonGroup",
            "content": [
              {
                "component": "Button",
                "content": "I'm done",
                "sectionId": "4"
              }
            ]
          }
        ],
        "type": "defaultSection",
        "task": []
      },
      {
        "id": "4",
        "alias": "4",
        "content": [
          {
            "component": "TextGroup",
            "content": [
              {
                "component": "Text",
                "content": "# Good stuff!\n\nJust by expressing your experience you’ve already gotten better at being aware and allowing."
              }
            ]
          },
          {
            "component": "ButtonGroup",
            "content": [
              {
                "component": "Button",
                "content": "See others' stories",
                "sectionId": "5"
              }
            ]
          }
        ],
        "type": "defaultSection"
      },
      {
        "type": "defaultSection",
        "id": "5",
        "alias": "5",
        "content": [
          {
            "component": "VideoStories",
            "content": [
              {
                "title": "Emilia",
                "videoUri": "https://storage.googleapis.com/k-org-879a8.appspot.com/videos/3_medvetenochtillatande/3_emilia.mp4",
                "imageUri": "https://storage.googleapis.com/k-org-879a8.appspot.com/images/3_medvetenochtillatande/3_emilia.jpg",
                "subtitleUri": "https://res.cloudinary.com/twentyninek/raw/upload/q_auto,t_global/v1631112633/Hantera%20Stress%20YA/subtitles/medvetenochtilla%CC%8Atande_emilia-en_rftyks_xuj07k.vtt",
                "duration": 52
              },
              {
                "title": "Sebastian",
                "videoUri": "https://storage.googleapis.com/k-org-879a8.appspot.com/videos/3_medvetenochtillatande/3_sebastian.mp4",
                "imageUri": "https://storage.googleapis.com/k-org-879a8.appspot.com/images/3_medvetenochtillatande/3_sebastian.jpg",
                "subtitleUri": "https://res.cloudinary.com/twentyninek/raw/upload/q_auto,t_global/v1631113021/Hantera%20Stress%20YA/subtitles/medvetenochtilla%CC%8Atande_sebastian-en_wmfkvb_gszchb.vtt",
                "duration": 48
              },
              {
                "title": "Sofia",
                "videoUri": "https://storage.googleapis.com/k-org-879a8.appspot.com/videos/3_medvetenochtillatande/3_sofia.mp4",
                "duration": 43,
                "imageUri": "https://storage.googleapis.com/k-org-879a8.appspot.com/images/3_medvetenochtillatande/3_sofia.jpg",
                "subtitleUri": "https://res.cloudinary.com/twentyninek/raw/upload/q_auto,t_global/v1631113157/Hantera%20Stress%20YA/subtitles/medvetenochtilla%CC%8Atande__sofia-en_b6seit_q2j03j.vtt"
              },
              {
                "title": "Ummawa",
                "videoUri": "https://storage.googleapis.com/k-org-879a8.appspot.com/videos/3_medvetenochtillatande/3_ummawa.mp4",
                "imageUri": "https://storage.googleapis.com/k-org-879a8.appspot.com/images/3_medvetenochtillatande/3_ummawa.jpg",
                "duration": 58,
                "subtitleUri": "https://res.cloudinary.com/twentyninek/raw/upload/q_auto,t_global/v1631113295/Hantera%20Stress%20YA/subtitles/medvetenochtilla%CC%8Atande_ummawa-en_iyqe7e_kaqpcj.vtt"
              }
            ]
          },
          {
            "component": "ButtonGroup",
            "content": [
              {
                "component": "NextConversationButton",
                "variant": "primary",
                "content": "Go on",
                "conversationId": "relationships-thingsgowrong-3"
              }
            ]
          }
        ]
      }
    ]
  },
  "sv": {
    "id": "relationships-thingsgowrong-2",
    "alias": "YA building relationships 3: thingsgowrong-2",
    "root": "1",
    "sections": [
      {
        "id": "1",
        "alias": "1",
        "content": [
          {
            "component": "TextGroup",
            "content": [
              {
                "component": "Text",
                "content": "Nu ska du få öva på att vara **medveten** och **tillåtande** – men med **jobbiga** tankar och känslor. Det är vanligt att tycka att det är svårare än med positiva känslor och tankar. Vi tar det i små steg."
              }
            ]
          },
          {
            "component": "ButtonGroup",
            "content": [
              {
                "component": "Button",
                "content": "Sätt igång",
                "sectionId": "2"
              }
            ]
          }
        ],
        "type": "defaultSection"
      },
      {
        "id": "2",
        "alias": "2",
        "content": [
          {
            "component": "TextGroup",
            "content": [
              {
                "component": "Text",
                "content": "Du ska få lyssna på en ljudfil."
              }
            ]
          },
          {
            "component": "AudioPlayer",
            "content": {
              "uri": "https://storage.googleapis.com/k-org-879a8.appspot.com/audio/meditations/medveten-och-tillatande-2.mp3",
              "duration": 5
            }
          },
          {
            "component": "ButtonGroup",
            "content": [
              {
                "component": "Button",
                "content": "Nästa",
                "sectionId": "3"
              }
            ]
          }
        ],
        "type": "defaultSection"
      },
      {
        "id": "3",
        "alias": "3",
        "content": [
          {
            "component": "TextGroup",
            "content": [
              {
                "component": "Text",
                "content": "Nu vill vi att du funderar på följande:\n\nVad hände med dina känslor när du gjorde den här övningen?\n\nMed dina tankar?\n\nSkriv ner ditt svar någonstans där bara du kan se det."
              }
            ]
          },
          {
            "component": "ButtonGroup",
            "content": [
              {
                "component": "Button",
                "content": "Gå vidare",
                "sectionId": "4"
              }
            ]
          }
        ],
        "type": "defaultSection"
      },
      {
        "id": "4",
        "alias": "4",
        "content": [
          {
            "component": "TextGroup",
            "content": [
              {
                "component": "Text",
                "content": "# Bra jobbat!\n\nBara genom att uttrycka din upplevelse har du redan blivit bättre på att vara medveten och tillåtande."
              }
            ]
          },
          {
            "component": "ButtonGroup",
            "content": [
              {
                "component": "Button",
                "content": "Se vad andra säger",
                "sectionId": "5"
              }
            ]
          }
        ],
        "type": "defaultSection"
      },
      {
        "type": "defaultSection",
        "id": "5",
        "alias": "Videos",
        "content": [
          {
            "component": "VideoStories",
            "content": [
              {
                "videoUri": "https://storage.googleapis.com/k-org-879a8.appspot.com/videos/3_medvetenochtillatande/3_emilia.mp4",
                "title": "Emilia",
                "imageUri": "https://storage.googleapis.com/k-org-879a8.appspot.com/images/3_medvetenochtillatande/3_emilia.jpg",
                "subtitleUri": "https://res.cloudinary.com/twentyninek/raw/upload/q_auto,t_global/v1621600041/Building%20Relationships/subtitles/medvetenochtill%C3%A5tande_emilia_pzjcfz.vtt",
                "duration": 52
              },
              {
                "title": "Sebastian",
                "videoUri": "https://storage.googleapis.com/k-org-879a8.appspot.com/videos/3_medvetenochtillatande/3_sebastian.mp4",
                "imageUri": "https://storage.googleapis.com/k-org-879a8.appspot.com/images/3_medvetenochtillatande/3_sebastian.jpg",
                "subtitleUri": "https://res.cloudinary.com/twentyninek/raw/upload/q_auto,t_global/v1621600042/Building%20Relationships/subtitles/medvetenochtill%C3%A5tande_sebastian_rnjjxt.vtt",
                "duration": 47
              },
              {
                "title": "Sofia",
                "videoUri": "https://storage.googleapis.com/k-org-879a8.appspot.com/videos/3_medvetenochtillatande/3_sofia.mp4",
                "imageUri": "https://storage.googleapis.com/k-org-879a8.appspot.com/images/3_medvetenochtillatande/3_sofia.jpg",
                "subtitleUri": "https://res.cloudinary.com/twentyninek/raw/upload/q_auto,t_global/v1621600041/Building%20Relationships/subtitles/medvetenochtill%C3%A5tande__sofia_c0xad5.vtt",
                "duration": 44
              },
              {
                "title": "Ummawa",
                "videoUri": "https://storage.googleapis.com/k-org-879a8.appspot.com/videos/3_medvetenochtillatande/3_ummawa.mp4",
                "imageUri": "https://storage.googleapis.com/k-org-879a8.appspot.com/images/3_medvetenochtillatande/3_ummawa.jpg",
                "subtitleUri": "https://res.cloudinary.com/twentyninek/raw/upload/q_auto,t_global/v1621600041/Building%20Relationships/subtitles/medvetenochtill%C3%A5tande_ummawa_zsvcnx.vtt",
                "duration": 58
              }
            ]
          },
          {
            "component": "ButtonGroup",
            "content": [
              {
                "component": "NextConversationButton",
                "variant": "primary",
                "content": "Fortsätt",
                "conversationId": "relationships-thingsgowrong-3"
              }
            ]
          }
        ]
      }
    ]
  },
  "pt": {
    "id": "relationships-thingsgowrong-2",
    "alias": "YA building relationships 3: thingsgowrong-2",
    "root": "1",
    "sections": [
      {
        "id": "1",
        "alias": "1",
        "content": [
          {
            "component": "TextGroup",
            "content": [
              {
                "component": "Text",
                "content": "Now you will practice being **aware** and **allowing** **–** but with **difficult** thoughts and feelings. It is common to find that it is **harder** than with positive emotions and thoughts. We'll take it in small steps."
              }
            ]
          },
          {
            "component": "ButtonGroup",
            "content": [
              {
                "component": "Button",
                "content": "Let's go",
                "sectionId": "2"
              }
            ]
          }
        ],
        "type": "defaultSection"
      },
      {
        "id": "2",
        "alias": "2",
        "content": [
          {
            "component": "TextGroup",
            "content": [
              {
                "component": "Text",
                "content": "Press play to do the exercise."
              }
            ]
          },
          {
            "component": "AudioPlayer",
            "content": {
              "uri": "https://res.cloudinary.com/twentyninek/video/upload/q_auto,t_global/v1622469438/Building%20Relationships/aware_and_allow_2_-_2021-05-31_15_grbcje.mp3",
              "duration": 5
            }
          },
          {
            "component": "ButtonGroup",
            "content": [
              {
                "component": "Button",
                "content": "Next",
                "sectionId": "3"
              }
            ]
          }
        ],
        "type": "defaultSection"
      },
      {
        "id": "3",
        "alias": "3",
        "content": [
          {
            "component": "TextGroup",
            "content": [
              {
                "component": "Text",
                "content": "Now we want you to think about the following:\n\n* What happened to your emotions when you did this exercise?\n* With your thoughts?\n\nWrite down your answer somewhere where only you can see them."
              }
            ]
          },
          {
            "component": "ButtonGroup",
            "content": [
              {
                "component": "Button",
                "content": "I'm done",
                "sectionId": "4"
              }
            ]
          }
        ],
        "type": "defaultSection",
        "task": []
      },
      {
        "id": "4",
        "alias": "4",
        "content": [
          {
            "component": "TextGroup",
            "content": [
              {
                "component": "Text",
                "content": "# Good stuff!\n\nJust by expressing your experience you’ve already gotten better at being aware and allowing."
              }
            ]
          },
          {
            "component": "ButtonGroup",
            "content": [
              {
                "component": "Button",
                "content": "See others' stories",
                "sectionId": "5"
              }
            ]
          }
        ],
        "type": "defaultSection"
      },
      {
        "type": "defaultSection",
        "id": "5",
        "alias": "5",
        "content": [
          {
            "component": "VideoStories",
            "content": [
              {
                "title": "Emilia",
                "videoUri": "https://storage.googleapis.com/k-org-879a8.appspot.com/videos/3_medvetenochtillatande/3_emilia.mp4",
                "imageUri": "https://storage.googleapis.com/k-org-879a8.appspot.com/images/3_medvetenochtillatande/3_emilia.jpg",
                "subtitleUri": "https://res.cloudinary.com/twentyninek/raw/upload/q_auto,t_global/v1623846539/Hantera%20Stress%20YA/subtitles/medvetenochtilla%CC%8Atande_emilia-en_rftyks.vtt",
                "duration": 52
              },
              {
                "title": "Sebastian",
                "videoUri": "https://storage.googleapis.com/k-org-879a8.appspot.com/videos/3_medvetenochtillatande/3_sebastian.mp4",
                "imageUri": "https://storage.googleapis.com/k-org-879a8.appspot.com/images/3_medvetenochtillatande/3_sebastian.jpg",
                "subtitleUri": "https://res.cloudinary.com/twentyninek/raw/upload/q_auto,t_global/v1623846628/Hantera%20Stress%20YA/subtitles/medvetenochtilla%CC%8Atande_sebastian-en_wmfkvb.vtt",
                "duration": 48
              },
              {
                "title": "Sofia",
                "videoUri": "https://storage.googleapis.com/k-org-879a8.appspot.com/videos/3_medvetenochtillatande/3_sofia.mp4",
                "duration": 43,
                "imageUri": "https://storage.googleapis.com/k-org-879a8.appspot.com/images/3_medvetenochtillatande/3_sofia.jpg",
                "subtitleUri": "https://res.cloudinary.com/twentyninek/raw/upload/q_auto,t_global/v1623846727/Hantera%20Stress%20YA/subtitles/medvetenochtilla%CC%8Atande__sofia-en_b6seit.vtt"
              },
              {
                "title": "Ummawa",
                "videoUri": "https://storage.googleapis.com/k-org-879a8.appspot.com/videos/3_medvetenochtillatande/3_ummawa.mp4",
                "imageUri": "https://storage.googleapis.com/k-org-879a8.appspot.com/images/3_medvetenochtillatande/3_ummawa.jpg",
                "duration": 58,
                "subtitleUri": "https://res.cloudinary.com/twentyninek/raw/upload/q_auto,t_global/v1623846790/Hantera%20Stress%20YA/subtitles/medvetenochtilla%CC%8Atande_ummawa-en_iyqe7e.vtt"
              }
            ]
          },
          {
            "component": "ButtonGroup",
            "content": [
              {
                "component": "NextConversationButton",
                "variant": "primary",
                "content": "Go on",
                "conversationId": "relationships-thingsgowrong-3"
              }
            ]
          }
        ]
      }
    ]
  }
}
