{
  "en": {
    "id": "ta-hand-om-dig-sjalv-2",
    "alias": "YA Become friends: 3-Selfcare-2",

    "root": "section1",
    "sections": [
      {
        "content": [
          {
            "component": "TextGroup",
            "content": [
              {
                "component": "Text",
                "content": "# Focus exercise"
              },
              {
                "component": "Text",
                "content": "Now you'll try a focus exercise that is about letting the warmth from your hand help you make room for what's difficult on the inside."
              }
            ]
          },
          {
            "component": "ButtonGroup",
            "content": [
              {
                "component": "Button",
                "content": "Continue",
                "sectionId": "section2"
              }
            ]
          }
        ],
        "id": "section1",
        "alias": "section1",
        "type": "defaultSection"
      },
      {
        "content": [
          {
            "component": "AudioPlayer",
            "content": {
              "uri": "https://res.cloudinary.com/twentyninek/video/upload/q_auto,t_global/v1624637214/Become%20friends%20with%20yourself/sound%20files/YA_Make_Friends_L3_Meditation_y23gsz.mp4",
              "duration": 208
            }
          },
          {
            "component": "ButtonGroup",
            "content": [
              {
                "component": "Button",
                "content": "Nästa",
                "sectionId": "section3"
              }
            ]
          }
        ],
        "id": "section2",
        "alias": "section2",
        "type": "defaultSection"
      },
      {
        "content": [
          {
            "component": "TextGroup",
            "content": [
              {
                "component": "Text",
                "content": "Well done, you're ready for the next step."
              }
            ]
          },
          {
            "component": "ButtonGroup",
            "content": [
              {
                "component": "NextConversationButton",
                "variant": "primary",
                "content": "Next",
                "conversationId": "ta-hand-om-dig-sjalv-3"
              }
            ]
          }
        ],
        "id": "section3",
        "alias": "section3",
        "type": "defaultSection"
      }
    ]
  },
  "sv": {
    "id": "ta-hand-om-dig-sjalv-2",
    "alias": "YA Become friends: 3-Selfcare-2",

    "root": "section1",
    "sections": [
      {
        "content": [
          {
            "component": "TextGroup",
            "content": [
              {
                "component": "Text",
                "content": "# Fokusövning"
              },
              {
                "component": "Text",
                "content": "Du ska nu få testa en fokusövning som handlar om att låta värmen från din hand hjälpa dig att göra plats för det som är svårt på insidan."
              }
            ]
          },
          {
            "component": "ButtonGroup",
            "content": [
              {
                "component": "Button",
                "content": "Fortsätt",
                "sectionId": "section2"
              }
            ]
          }
        ],
        "id": "section1",
        "alias": "section1",
        "type": "defaultSection"
      },
      {
        "content": [
          {
            "component": "AudioPlayer",
            "content": {
              "uri": "https://storage.googleapis.com/k-org-879a8.appspot.com/audio/self_compassion_sv/gora-plats.mp3",
              "duration": 208
            }
          },
          {
            "component": "ButtonGroup",
            "content": [
              {
                "component": "Button",
                "content": "Nästa",
                "sectionId": "section3"
              }
            ]
          }
        ],
        "id": "section2",
        "alias": "section2",
        "type": "defaultSection"
      },
      {
        "content": [
          {
            "component": "TextGroup",
            "content": [
              {
                "component": "Text",
                "content": "Bra jobbat, nu är du redo för nästa steg."
              }
            ]
          },
          {
            "component": "ButtonGroup",
            "content": [
              {
                "component": "NextConversationButton",
                "variant": "primary",
                "content": "Nästa",
                "conversationId": "ta-hand-om-dig-sjalv-3"
              }
            ]
          }
        ],
        "id": "section3",
        "alias": "section3",
        "type": "defaultSection"
      }
    ]
  },
  "pt": {
    "id": "ta-hand-om-dig-sjalv-2",
    "alias": "YA Become friends: 3-Selfcare-2",

    "root": "section1",
    "sections": [
      {
        "content": [
          {
            "component": "TextGroup",
            "content": [
              {
                "component": "Text",
                "content": "# Focus exercise"
              },
              {
                "component": "Text",
                "content": "Now you'll try a focus exercise that is about letting the warmth from your hand help you make room for what's difficult on the inside."
              }
            ]
          },
          {
            "component": "ButtonGroup",
            "content": [
              {
                "component": "Button",
                "content": "Continue",
                "sectionId": "section2"
              }
            ]
          }
        ],
        "id": "section1",
        "alias": "section1",
        "type": "defaultSection"
      },
      {
        "content": [
          {
            "component": "AudioPlayer",
            "content": {
              "uri": "https://res.cloudinary.com/twentyninek/video/upload/q_auto,t_global/v1624637214/Become%20friends%20with%20yourself/sound%20files/YA_Make_Friends_L3_Meditation_y23gsz.mp4",
              "duration": 208
            }
          },
          {
            "component": "ButtonGroup",
            "content": [
              {
                "component": "Button",
                "content": "Nästa",
                "sectionId": "section3"
              }
            ]
          }
        ],
        "id": "section2",
        "alias": "section2",
        "type": "defaultSection"
      },
      {
        "content": [
          {
            "component": "TextGroup",
            "content": [
              {
                "component": "Text",
                "content": "Well done, you're ready for the next step."
              }
            ]
          },
          {
            "component": "ButtonGroup",
            "content": [
              {
                "component": "NextConversationButton",
                "variant": "primary",
                "content": "Next",
                "conversationId": "ta-hand-om-dig-sjalv-3"
              }
            ]
          }
        ],
        "id": "section3",
        "alias": "section3",
        "type": "defaultSection"
      }
    ]
  }
}
