{
  "en": {
    "id": "ta-hand-om-dig-sjalv-3",
    "alias": "YA Become friends: 3-Selfcare-3",

    "root": "section1",
    "sections": [
      {
        "content": [
          {
            "component": "TextGroup",
            "content": [
              {
                "component": "Text",
                "content": "If you're like most people you'll need to do things to take care of yourself from time to time in order to feel good in life and like yourself."
              },
              {
                "component": "Text",
                "content": "Taking care of yourself can be split up into five areas."
              },
              {
                "component": "Text",
                "content": "* Take care of your body\n* Nourish relationships\n* Describe and express feelings\n* Find meaning in life\n* Learn new things"
              }
            ]
          },
          {
            "component": "ButtonGroup",
            "content": [
              {
                "component": "Button",
                "content": "Next",
                "sectionId": "section2"
              }
            ]
          }
        ],
        "id": "section1",
        "alias": "section1",
        "type": "defaultSection"
      },
      {
        "content": [
          {
            "component": "TextGroup",
            "content": [
              {
                "component": "Text",
                "content": "# Self-care check-up"
              },
              {
                "component": "Text",
                "content": "Now estimate how you've taken care of yourself over the past week on a scale from one to five (1 = not at all, 5 = exactly the way I want).\n\nSet a number for each area:"
              },
              {
                "component": "Text",
                "content": "* My body\n* My relationships\n* Noticed and expressed my feelings\n* Done meaningful things\n* Learnt new things"
              },
              {
                "component": "Text",
                "content": "Write your answer down somewhere where only you will see it."
              }
            ]
          },
          {
            "component": "ButtonGroup",
            "content": [
              {
                "component": "Button",
                "content": "I'm done",
                "sectionId": "section3"
              }
            ]
          }
        ],
        "id": "section2",
        "alias": "section2",
        "type": "defaultSection"
      },
      {
        "content": [
          {
            "component": "TextGroup",
            "content": [
              {
                "component": "Text",
                "content": "As you look at your self-care check-up, choose an area that hasn't received much attention in the past week."
              },
              {
                "component": "Text",
                "content": "Write down the area you chose."
              }
            ]
          },
          {
            "component": "ButtonGroup",
            "content": [
              {
                "component": "Button",
                "content": "I'm done",
                "sectionId": "section4"
              }
            ]
          }
        ],
        "id": "section3",
        "alias": "section3",
        "type": "defaultSection"
      },
      {
        "content": [
          {
            "component": "TextGroup",
            "content": [
              {
                "component": "Text",
                "content": "Now, think of something small that you can do in the area you have chosen. For example, you can take a short walk, call a friend, explain how you feel, help someone, or practice hitting a target with a ball. It doesn't have to be expensive or grand. It's about being there for yourself."
              },
              {
                "component": "Text",
                "content": "Make a note of what you are going to do."
              }
            ]
          },
          {
            "component": "ButtonGroup",
            "content": [
              {
                "component": "Button",
                "content": "I'm done",
                "sectionId": "section5"
              }
            ]
          }
        ],
        "id": "section4",
        "alias": "section4",
        "type": "defaultSection"
      },
      {
        "content": [
          {
            "component": "TextGroup",
            "content": [
              {
                "component": "Text",
                "content": "Well done. Good job standing up for yourself. Feel free to do the self-care check-up from time to time to discover what you need."
              }
            ]
          },
          {
            "component": "ButtonGroup",
            "content": [
              {
                "component": "Button",
                "content": "Next",
                "sectionId": "Section6"
              }
            ]
          }
        ],
        "id": "section5",
        "alias": "section5",
        "type": "defaultSection"
      },
      {
        "id": "Section6",
        "alias": "Section6",
        "content": [
          {
            "component": "TextGroup",
            "content": [
              {
                "component": "Text",
                "content": "You've completed **Take care of yourself** and have learned to use the body to influence how things feel, and that there are different ways to take care of yourself—and we need them all."
              }
            ]
          },
          {
            "component": "ButtonGroup",
            "content": [
              {
                "component": "LessonCompleteButton",
                "content": "I'm done"
              }
            ]
          }
        ],
        "type": "defaultSection"
      }
    ]
  },
  "sv": {
    "id": "ta-hand-om-dig-sjalv-3",
    "alias": "YA Become friends: 3-Selfcare-3",

    "root": "section1",
    "sections": [
      {
        "content": [
          {
            "component": "TextGroup",
            "content": [
              {
                "component": "Text",
                "content": "För att du ska må bra i livet och tycka om dig själv behöver du – om du är som de flesta andra – då och då göra saker för att ta hand om dig."
              },
              {
                "component": "Text",
                "content": "Att ta hand om dig själv kan delas in i fem områden"
              },
              {
                "component": "Text",
                "content": "* Ta hand om kroppen\n* Vårda viktiga relationer\n* Beskriva och uttrycka känslor\n* Känna mening i tillvaron\n* Lära dig nya saker"
              }
            ]
          },
          {
            "component": "ButtonGroup",
            "content": [
              {
                "component": "Button",
                "content": "Nästa",
                "sectionId": "section2"
              }
            ]
          }
        ],
        "id": "section1",
        "alias": "section1",
        "type": "defaultSection"
      },
      {
        "content": [
          {
            "component": "TextGroup",
            "content": [
              {
                "component": "Text",
                "content": "# Ta hand om dig själv-kollen"
              },
              {
                "component": "Text",
                "content": "Skatta nu hur du har tagit hand om dig själv senaste veckan på en skala från ett till fem (1 = inte alls, 5 = exakt på det sätt jag vill). \n\nSätt en siffra för varje område:"
              },
              {
                "component": "Text",
                "content": "* Min kropp\n* Mina relationer\n* Lagt märke till och uttryckt mina känslor\n* Gjort meningsfulla saker\n* Lärt mig nya saker"
              },
              {
                "component": "Text",
                "content": "Skriv ditt svar någonstans där bara du ser det."
              }
            ]
          },
          {
            "component": "ButtonGroup",
            "content": [
              {
                "component": "Button",
                "content": "Jag är klar",
                "sectionId": "section3"
              }
            ]
          }
        ],
        "id": "section2",
        "alias": "section2",
        "type": "defaultSection"
      },
      {
        "content": [
          {
            "component": "TextGroup",
            "content": [
              {
                "component": "Text",
                "content": "När du nu tittar på din ta hand om mig själv-koll, välj ett område som inte har fått så mycket uppmärksamhet senaste veckan."
              },
              {
                "component": "Text",
                "content": "Skriv upp det område du har valt."
              }
            ]
          },
          {
            "component": "ButtonGroup",
            "content": [
              {
                "component": "Button",
                "content": "Nästa",
                "sectionId": "section4"
              }
            ]
          }
        ],
        "id": "section3",
        "alias": "section3",
        "type": "defaultSection"
      },
      {
        "content": [
          {
            "component": "TextGroup",
            "content": [
              {
                "component": "Text",
                "content": "Du ska nu få tänka ut något litet som du kan göra inom det område som du valt. Du kan till exempel ta en kort promenad, ringa en vän, berätta hur du känner, hjälpa någon eller träna på att skjuta bollen i krysset. Det behöver inte vara dyrt eller storslaget. Det handlar om att finnas där för dig själv."
              },
              {
                "component": "Text",
                "content": "Skriv ner beteendet du ska göra."
              }
            ]
          },
          {
            "component": "ButtonGroup",
            "content": [
              {
                "component": "Button",
                "content": "Jag är klar",
                "sectionId": "section5"
              }
            ]
          }
        ],
        "id": "section4",
        "alias": "section4",
        "type": "defaultSection"
      },
      {
        "content": [
          {
            "component": "TextGroup",
            "content": [
              {
                "component": "Text",
                "content": "Bra gjort. Fint att du ställer upp för dig själv. Gör gärna om Ta hand om mig själv-kollen då och då för att upptäcka vad du kan göra för dig själv."
              }
            ]
          },
          {
            "component": "ButtonGroup",
            "content": [
              {
                "component": "Button",
                "sectionId": "Section6",
                "content": "Nästa"
              }
            ]
          }
        ],
        "id": "section5",
        "alias": "section5",
        "type": "defaultSection"
      },
      {
        "id": "Section6",
        "alias": "Section6",
        "content": [
          {
            "component": "TextGroup",
            "content": [
              {
                "component": "Text",
                "content": "Du är nu klar med **Ta hand om dig själv** och har lärt dig att använda kroppen för att påverka hur saker känns, och att det finns olika sätt att ta hand om sig själv – och vi behöver dem alla."
              }
            ]
          },
          {
            "component": "ButtonGroup",
            "content": [
              {
                "component": "LessonCompleteButton",
                "content": "Avsluta"
              }
            ]
          }
        ],
        "type": "defaultSection"
      }
    ]
  },
  "pt": {
    "id": "ta-hand-om-dig-sjalv-3",
    "alias": "YA Become friends: 3-Selfcare-3",

    "root": "section1",
    "sections": [
      {
        "content": [
          {
            "component": "TextGroup",
            "content": [
              {
                "component": "Text",
                "content": "If you're like most people you'll need to do things to take care of yourself from time to time in order to feel good in life and like yourself."
              },
              {
                "component": "Text",
                "content": "Taking care of yourself can be split up into five areas."
              },
              {
                "component": "Text",
                "content": "* Take care of your body\n* Nourish relationships\n* Describe and express feelings\n* Find meaning in life\n* Learn new things"
              }
            ]
          },
          {
            "component": "ButtonGroup",
            "content": [
              {
                "component": "Button",
                "content": "Next",
                "sectionId": "section2"
              }
            ]
          }
        ],
        "id": "section1",
        "alias": "section1",
        "type": "defaultSection"
      },
      {
        "content": [
          {
            "component": "TextGroup",
            "content": [
              {
                "component": "Text",
                "content": "# Self-care check-up"
              },
              {
                "component": "Text",
                "content": "Now estimate how you've taken care of yourself over the past week on a scale from one to five (1 = not at all, 5 = exactly the way I want).\n\nSet a number for each area:"
              },
              {
                "component": "Text",
                "content": "* My body\n* My relationships\n* Noticed and expressed my feelings\n* Done meaningful things\n* Learnt new things"
              },
              {
                "component": "Text",
                "content": "Write your answer down somewhere where only you will see it."
              }
            ]
          },
          {
            "component": "ButtonGroup",
            "content": [
              {
                "component": "Button",
                "content": "I'm done",
                "sectionId": "section3"
              }
            ]
          }
        ],
        "id": "section2",
        "alias": "section2",
        "type": "defaultSection"
      },
      {
        "content": [
          {
            "component": "TextGroup",
            "content": [
              {
                "component": "Text",
                "content": "As you look at your self-care check-up, choose an area that hasn't received much attention in the past week."
              },
              {
                "component": "Text",
                "content": "Write down the area you chose."
              }
            ]
          },
          {
            "component": "ButtonGroup",
            "content": [
              {
                "component": "Button",
                "content": "I'm done",
                "sectionId": "section4"
              }
            ]
          }
        ],
        "id": "section3",
        "alias": "section3",
        "type": "defaultSection"
      },
      {
        "content": [
          {
            "component": "TextGroup",
            "content": [
              {
                "component": "Text",
                "content": "Now, think of something small that you can do in the area you have chosen. For example, you can take a short walk, call a friend, explain how you feel, help someone, or practice hitting a target with a ball. It doesn't have to be expensive or grand. It's about being there for yourself."
              },
              {
                "component": "Text",
                "content": "Make a note of what you are going to do."
              }
            ]
          },
          {
            "component": "ButtonGroup",
            "content": [
              {
                "component": "Button",
                "content": "I'm done",
                "sectionId": "section5"
              }
            ]
          }
        ],
        "id": "section4",
        "alias": "section4",
        "type": "defaultSection"
      },
      {
        "content": [
          {
            "component": "TextGroup",
            "content": [
              {
                "component": "Text",
                "content": "Well done. Good job standing up for yourself. Feel free to do the self-care check-up from time to time to discover what you need."
              }
            ]
          },
          {
            "component": "ButtonGroup",
            "content": [
              {
                "component": "Button",
                "content": "Next",
                "sectionId": "Section6"
              }
            ]
          }
        ],
        "id": "section5",
        "alias": "section5",
        "type": "defaultSection"
      },
      {
        "id": "Section6",
        "alias": "Section6",
        "content": [
          {
            "component": "TextGroup",
            "content": [
              {
                "component": "Text",
                "content": "You've completed **Take care of yourself** and have learned to use the body to influence how things feel, and that there are different ways to take care of yourself—and we need them all."
              }
            ]
          },
          {
            "component": "ButtonGroup",
            "content": [
              {
                "component": "LessonCompleteButton",
                "content": "I'm done"
              }
            ]
          }
        ],
        "type": "defaultSection"
      }
    ]
  }
}
