{
  "en": {
    "segments": [
      "ADULTS",
      "YOUNG_ADULTS"
    ],
    "name": "Hear your inner voice",
    "thumbnail": "https://res.cloudinary.com/twentyninek/image/upload/f_auto,q_auto,t_global/v1620304909/Illustrations_Meditations/Thumbnail_Hearing_your_inner_voice_nexpir.png",
    "featured": true,
    "duration": {
      "count": 3,
      "type": "minute"
    },
    "tags": [
      "Stress"
    ],
    "type": "meditation",
    "id": "05c68794-701b-11ea-bc55-0242ac130003",
    "description": "Clear the noise in your mind and let thoughts and feelings appear naturally.",
    "conversations": [
      {
        "conversationId": "05c68794-701b-11ea-bc55-0242ac130003",
        "title": "Hear your inner voice"
      }
    ]
  },
  "sv": {
    "segments": [
      "ADULTS"
    ],
    "name": "Höra din inre röst",
    "thumbnail": "https://res.cloudinary.com/twentyninek/image/upload/f_auto,q_auto,t_global/v1620304909/Illustrations_Meditations/Thumbnail_Hearing_your_inner_voice_nexpir.png",
    "featured": true,
    "duration": {
      "count": 3,
      "type": "minute"
    },
    "tags": [
      "Ångest"
    ],
    "type": "meditation",
    "id": "05c68794-701b-11ea-bc55-0242ac130003",
    "description": "Rensa ljudet i ditt sinne och låt tankar och känslor visas naturligt.",
    "wip": true,
    "conversations": [
      {
        "conversationId": "05c68794-701b-11ea-bc55-0242ac130003",
        "title": "Höra din inre röst"
      }
    ]
  },
  "pt": {
    "segments": [
      "ADULTS",
      "YOUNG_ADULTS"
    ],
    "name": "Ouve a voz interior",
    "thumbnail": "https://res.cloudinary.com/twentyninek/image/upload/f_auto,q_auto,t_global/v1620304909/Illustrations_Meditations/Thumbnail_Hearing_your_inner_voice_nexpir.png",
    "featured": true,
    "duration": {
      "count": 3,
      "type": "minute"
    },
    "tags": [
      "Ansiedade"
    ],
    "type": "meditation",
    "id": "05c68794-701b-11ea-bc55-0242ac130003",
    "description": "Elimina o ruído da tua mente e deixa que os teus pensamentos e sentimentos apareçam naturalmente.",
    "wip": false,
    "conversations": [
      {
        "conversationId": "05c68794-701b-11ea-bc55-0242ac130003",
        "title": "Ouve a voz interior"
      }
    ]
  }
}