{
  "en": {
    "segments": [
      "YOUNG_ADULTS"
    ],
    "name": "Love from within",
    "thumbnail": "https://res.cloudinary.com/twentyninek/image/upload/q_auto,t_global/v1620304909/Illustrations_Meditations/Thumbnail_The_healing_hand_meditation_tyaql5.png",
    "featured": true,
    "conversations": [
      {
        "title": "Love from within",
        "conversationId": "3b7b1bb1-2b74-4f94-9a0d-954dfb3ede11"
      }
    ],
    "duration": {
      "type": "minute",
      "count": 9
    },
    "tags": [
      "self compassion"
    ],
    "type": "meditation",
    "id": "098c44af-8042-45f4-8ee2-4caf70928fcd",
    "difficulty": "Beginner",
    "wip": true
  },
  "sv": {
    "segments": [
      "YOUNG_ADULTS"
    ],
    "name": "Kärlek inifrån",
    "thumbnail": "https://res.cloudinary.com/twentyninek/image/upload/q_auto,t_global/v1620304909/Illustrations_Meditations/Thumbnail_The_healing_hand_meditation_tyaql5.png",
    "featured": true,
    "conversations": [
      {
        "title": "Kärlek inifrån",
        "conversationId": "3b7b1bb1-2b74-4f94-9a0d-954dfb3ede11"
      }
    ],
    "duration": {
      "type": "minute",
      "count": 9
    },
    "tags": [],
    "type": "meditation",
    "id": "098c44af-8042-45f4-8ee2-4caf70928fcd",
    "difficulty": "Beginner",
    "wip": false
  },
  "pt": {
    "segments": [
      "YOUNG_ADULTS"
    ],
    "difficulty": "Beginner",
    "wip": true,
    "featured": false,
    "type": "meditation",
    "duration": {
      "type": "minute",
      "count": 9
    },
    "id": "098c44af-8042-45f4-8ee2-4caf70928fcd"
  }
}