{
  "en": {
    "segments": [
      "ADULTS",
      "YOUNG_ADULTS"
    ],
    "name": "Acting wisely",
    "thumbnail": "https://res.cloudinary.com/twentyninek/image/upload/f_auto,q_auto,t_global/v1620653668/Illustrations_Exercises/Thumbnail_Shame_exercise_ym3pnt.png",
    "featured": true,
    "conversations": [
      {
        "conversationId": "4d7065a6-cbe6-48ef-a148-f75a3af79490",
        "title": "Acting wisely"
      }
    ],
    "duration": {
      "count": 10,
      "type": "minute"
    },
    "tags": [
      "Self-esteem"
    ],
    "type": "exercise",
    "id": "4d7065a6-cbe6-48ef-a148-f75a3af79490",
    "description": ""
  },
  "sv": {
    "segments": [
      "ADULTS",
      "YOUNG_ADULTS"
    ],
    "name": "Skam",
    "thumbnail": "https://res.cloudinary.com/twentyninek/image/upload/f_auto,q_auto,t_global/v1620653668/Illustrations_Exercises/Thumbnail_Shame_exercise_ym3pnt.png",
    "featured": true,
    "conversations": [
      {
        "conversationId": "4d7065a6-cbe6-48ef-a148-f75a3af79490",
        "title": "Skam"
      }
    ],
    "duration": {
      "count": 10,
      "type": "minute"
    },
    "tags": [
      "Självkänsla"
    ],
    "type": "exercise",
    "id": "4d7065a6-cbe6-48ef-a148-f75a3af79490",
    "description": "",
    "wip": true
  },
  "pt": {
    "segments": [
      "ADULTS",
      "YOUNG_ADULTS"
    ],
    "name": "Age com sabedoria ",
    "thumbnail": "https://res.cloudinary.com/twentyninek/image/upload/f_auto,q_auto,t_global/v1620653668/Illustrations_Exercises/Thumbnail_Shame_exercise_ym3pnt.png",
    "featured": true,
    "conversations": [
      {
        "conversationId": "4d7065a6-cbe6-48ef-a148-f75a3af79490",
        "title": "Age com sabedoria"
      }
    ],
    "duration": {
      "count": 10,
      "type": "minute"
    },
    "tags": [
      "Autoestima"
    ],
    "type": "exercise",
    "id": "4d7065a6-cbe6-48ef-a148-f75a3af79490",
    "description": ""
  }
}