{
  "en": {
    "segments": [
      "ADULTS"
    ],
    "name": "Compassion break",
    "thumbnail": "https://res.cloudinary.com/twentyninek/image/upload/f_auto,q_auto,t_global/v1620653668/Illustrations_Exercises/Thumbnail_Compassion_break_with_meditation_c3hmpw.png",
    "featured": false,
    "duration": {
      "count": 10,
      "type": "minute"
    },
    "tags": [
      "Anxiety"
    ],
    "type": "exercise",
    "id": "62d53200-c8df-40cb-94f8-58c7fe85c427",
    "description": "",
    "conversations": [
      {
        "conversationId": "62d53200-c8df-40cb-94f8-58c7fe85c427",
        "title": "Compassion break"
      }
    ]
  },
  "sv": {
    "segments": [
      "ADULTS"
    ],
    "name": "Medkänsla",
    "thumbnail": "https://res.cloudinary.com/twentyninek/image/upload/f_auto,q_auto,t_global/v1620653668/Illustrations_Exercises/Thumbnail_Compassion_break_with_meditation_c3hmpw.png",
    "featured": false,
    "duration": {
      "count": 10,
      "type": "minute"
    },
    "tags": [
      "Ångest"
    ],
    "type": "exercise",
    "id": "62d53200-c8df-40cb-94f8-58c7fe85c427",
    "description": "",
    "wip": true,
    "conversations": [
      {
        "conversationId": "62d53200-c8df-40cb-94f8-58c7fe85c427",
        "title": "Medkänsla"
      }
    ]
  },
  "pt": {
    "segments": [
      "ADULTS"
    ],
    "name": "Pausa de Compaixão com Meditação",
    "thumbnail": "https://res.cloudinary.com/twentyninek/image/upload/f_auto,q_auto,t_global/v1620653668/Illustrations_Exercises/Thumbnail_Compassion_break_with_meditation_c3hmpw.png",
    "featured": true,
    "duration": {
      "count": 10,
      "type": "minute"
    },
    "tags": [
      "Ansiedade"
    ],
    "type": "exercise",
    "id": "62d53200-c8df-40cb-94f8-58c7fe85c427",
    "description": "",
    "wip": true,
    "conversations": [
      {
        "conversationId": "62d53200-c8df-40cb-94f8-58c7fe85c427",
        "title": "Pausa de Compaixão com Meditação"
      }
    ]
  }
}