{
  "en": {
    "segments": [
      "ADULTS"
    ],
    "name": "Self-care exercise",
    "thumbnail": "https://res.cloudinary.com/twentyninek/image/upload/f_auto,q_auto,t_global/v1620653669/Illustrations_Exercises/Thumbnail_self_care_exercise_zvz512.png",
    "featured": true,
    "conversations": [
      {
        "conversationId": "66ee3178-014e-4bea-86e8-965bbe377eb3",
        "title": "Self-care exercise"
      }
    ],
    "duration": {
      "count": 15,
      "type": "minute"
    },
    "type": "exercise",
    "id": "66ee3178-014e-4bea-86e8-965bbe377eb3",
    "description": "Adopt a new way of looking after yourself.",
    "wip": false
  },
  "sv": {
    "segments": [
      "ADULTS"
    ],
    "name": "Egenvård",
    "thumbnail": "https://res.cloudinary.com/twentyninek/image/upload/f_auto,q_auto,t_global/v1620653669/Illustrations_Exercises/Thumbnail_self_care_exercise_zvz512.png",
    "featured": true,
    "conversations": [
      {
        "conversationId": "66ee3178-014e-4bea-86e8-965bbe377eb3",
        "title": "Egenvård"
      }
    ],
    "duration": {
      "count": 15,
      "type": "minute"
    },
    "type": "exercise",
    "id": "66ee3178-014e-4bea-86e8-965bbe377eb3",
    "description": "Anta ett nytt sätt att ta hand om dig själv.",
    "wip": true
  },
  "pt": {
    "segments": [
      "ADULTS"
    ],
    "name": "Autocuidado",
    "thumbnail": "https://res.cloudinary.com/twentyninek/image/upload/f_auto,q_auto,t_global/v1620653669/Illustrations_Exercises/Thumbnail_self_care_exercise_zvz512.png",
    "featured": true,
    "conversations": [
      {
        "conversationId": "66ee3178-014e-4bea-86e8-965bbe377eb3",
        "title": "Autocuidado"
      }
    ],
    "duration": {
      "count": 15,
      "type": "minute"
    },
    "type": "exercise",
    "id": "66ee3178-014e-4bea-86e8-965bbe377eb3",
    "description": "Adota uma nova forma de cuidares de ti."
  }
}