{
  "en": {
    "segments": [
      "YOUNG_ADULTS",
      "ADULTS"
    ],
    "name": "Distance to your emotions",
    "thumbnail": "https://storage.googleapis.com/k-org-879a8.appspot.com/images/exercises/7f4ff310-06ae-4cd1-8021-d9a6bb6fa6db/synvillan_thumb_lg.png",
    "featured": true,
    "conversations": [
      {
        "conversationId": "synvillan",
        "title": "Distance to your emotions"
      }
    ],
    "duration": {
      "count": 10,
      "type": "minute"
    },
    "type": "exercise",
    "id": "7f4ff310-06ae-4cd1-8021-d9a6bb6fa6db",
    "description": "Brain shortcuts are often deceiving",
    "wip": false
  },
  "sv": {
    "segments": [
      "YOUNG_ADULTS",
      "ADULTS"
    ],
    "name": "Distans till känslor",
    "thumbnail": "https://storage.googleapis.com/k-org-879a8.appspot.com/images/exercises/7f4ff310-06ae-4cd1-8021-d9a6bb6fa6db/synvillan_thumb_lg.png",
    "featured": true,
    "conversations": [
      {
        "conversationId": "synvillan",
        "title": "Synvillan"
      }
    ],
    "duration": {
      "count": 10,
      "type": "minute"
    },
    "type": "exercise",
    "id": "7f4ff310-06ae-4cd1-8021-d9a6bb6fa6db",
    "description": "Hjärnans genvägar luras ofta"
  },
  "pt": {
    "segments": [
      "YOUNG_ADULTS",
      "ADULTS"
    ],
    "name": "Distancia-te das tuas emoções",
    "thumbnail": "https://storage.googleapis.com/k-org-879a8.appspot.com/images/exercises/7f4ff310-06ae-4cd1-8021-d9a6bb6fa6db/synvillan_thumb_lg.png",
    "featured": true,
    "conversations": [
      {
        "conversationId": "synvillan",
        "title": "Distancia-te das tuas emoções"
      }
    ],
    "duration": {
      "count": 10,
      "type": "minute"
    },
    "type": "exercise",
    "id": "7f4ff310-06ae-4cd1-8021-d9a6bb6fa6db",
    "description": "Os atalhos do nosso cérebro são muitas vezes enganadores ",
    "wip": false
  }
}