{
  "en": {
    "segments": ["YOUNG_ADULTS"],
    "name": "Focus on here and now",
    "thumbnail": "https://storage.googleapis.com/k-org-879a8.appspot.com/images/exercises/94c0cc8f-d6c2-47d3-beeb-b1cbb910b9f4/leafs_thumb_lg.png",
    "featured": false,
    "conversations": [
      {
        "title": "Here and now",
        "conversationId": "Exercisethreesenses"
      }
    ],
    "duration": {
      "type": "minute",
      "count": 5
    },
    "tags": ["Anxiety", "Stress", "Values"],
    "type": "meditation",
    "id": "94c0cc8f-d6c2-47d3-beeb-b1cbb910b9f4",
    "wip": false
  },
  "sv": {
    "segments": ["YOUNG_ADULTS"],
    "name": "Fokusera på här och nu",
    "thumbnail": "https://storage.googleapis.com/k-org-879a8.appspot.com/images/exercises/94c0cc8f-d6c2-47d3-beeb-b1cbb910b9f4/leafs_thumb_lg.png",
    "featured": false,
    "conversations": [
      {
        "title": "Här och nu",
        "conversationId": "Exercisethreesenses"
      }
    ],
    "duration": {
      "type": "minute",
      "count": 5
    },
    "tags": ["Stress"],
    "type": "meditation",
    "id": "94c0cc8f-d6c2-47d3-beeb-b1cbb910b9f4",
    "wip": false
  },
  "pt": {
    "segments": ["YOUNG_ADULTS"],
    "name": "Here and now",
    "thumbnail": "https://storage.googleapis.com/k-org-879a8.appspot.com/images/exercises/94c0cc8f-d6c2-47d3-beeb-b1cbb910b9f4/leafs_thumb_lg.png",
    "featured": false,
    "conversations": [
      {
        "title": "Here and now",
        "conversationId": "Exercisethreesenses"
      }
    ],
    "duration": {
      "type": "minute",
      "count": 5
    },
    "tags": [],
    "type": "meditation",
    "id": "94c0cc8f-d6c2-47d3-beeb-b1cbb910b9f4",
    "wip": true
  }
}
