{
  "en": {
    "id": "caa7dfa7-55c2-400b-99af-13441386eebc",
    "name": "Gratitude",
    "type": "exercise",
    "segments": [
      "ADULTS"
    ],
    "thumbnail": "https://res.cloudinary.com/twentyninek/image/upload/f_auto,q_auto,t_global/v1620653669/Illustrations_Exercises/Thumbnail_Gratitude_exercise_zid9oj.png",
    "duration": {
      "count": 15,
      "type": "minute"
    },
    "description": "",
    "conversations": [
      {
        "conversationId": "caa7dfa7-55c2-400b-99af-13441386eebc",
        "title": "Gratitude"
      }
    ]
  },
  "sv": {
    "segments": [
      "ADULTS"
    ],
    "name": "Tacksamhet",
    "thumbnail": "https://res.cloudinary.com/twentyninek/image/upload/f_auto,q_auto,t_global/v1620653669/Illustrations_Exercises/Thumbnail_Gratitude_exercise_zid9oj.png",
    "duration": {
      "count": 15,
      "type": "minute"
    },
    "type": "exercise",
    "id": "caa7dfa7-55c2-400b-99af-13441386eebc",
    "description": "",
    "wip": true,
    "conversations": [
      {
        "conversationId": "caa7dfa7-55c2-400b-99af-13441386eebc",
        "title": "Tacksamhet"
      }
    ]
  },
  "pt": {
    "id": "caa7dfa7-55c2-400b-99af-13441386eebc",
    "name": "Gratidão",
    "type": "exercise",
    "segments": [
      "ADULTS"
    ],
    "thumbnail": "https://res.cloudinary.com/twentyninek/image/upload/f_auto,q_auto,t_global/v1620653669/Illustrations_Exercises/Thumbnail_Gratitude_exercise_zid9oj.png",
    "duration": {
      "count": 15,
      "type": "minute"
    },
    "description": "",
    "conversations": [
      {
        "conversationId": "caa7dfa7-55c2-400b-99af-13441386eebc",
        "title": "Gratidão"
      }
    ]
  }
}