{
  "en": {
    "id": "218cd402-c094-491a-a31f-7b945f3ffe7e",
    "name": "Relationships",
    "tags": [
      "Relationships"
    ],
    "description": "Connecting to others is fundamental to our well-being, and the benefits are great. But — relationships can be hard. Improving your relationship skills will enable you to fully express yourself, find the courage to love and be loved, and strengthen the bonds to the people who matter most to you.",
    "coverImageUri": "https://res.cloudinary.com/twentyninek/image/upload/f_auto,q_auto,t_global/v1618470345/Categories/relations_o2jbcd.png"
  },
  "sv": {
    "id": "218cd402-c094-491a-a31f-7b945f3ffe7e",
    "name": "Relationer",
    "tags": [
      "Relationships"
    ],
    "description": "Relationer är nödvändiga för att vi människor ska må bra. Men — relationer kan vara svåra. Genom att utveckla dina relationsfärdigheter kan du lära dig uttrycka dig själv fullt ut, hitta modet att älska och bli älskad, och stärka banden till de människor som är viktiga för dig.",
    "coverImageUri": "https://res.cloudinary.com/twentyninek/image/upload/f_auto,q_auto,t_global/v1618470345/Categories/relations_o2jbcd.png"
  },
  "pt": {
    "id": "218cd402-c094-491a-a31f-7b945f3ffe7e",
    "coverImageUri": "https://res.cloudinary.com/twentyninek/image/upload/f_auto,q_auto,t_global/v1618470345/Categories/relations_o2jbcd.png",
    "description": "Conectarmo-nos com as outras pessoas é fundamental para o nosso bem-estar e os benefícios são enormes. Mas, os relacionamentos podem ser difíceis. Melhorar as tuas capacidades de relacionamento permitirá que te expresses de forma plena, encontres coragem para amar e ser amada/o e fortalecerá os laços com as pessoas mais importantes para ti.",
    "name": "Relações",
    "tags": [
      "Relações"
    ]
  }
}