{
  "en": {
    "id": "ae242e6d-c147-4e5a-b063-572ec905455c",
    "name": "Deal with stress",
    "tags": [
      "stress"
    ],
    "description": "What would your life look like if stress was less of a problem? Stress is an inevitable part of life. Creating balance between stress and recovery is key for our well-being. Change the things you can control and strengthen your resilience. ",
    "coverImageUri": "https://res.cloudinary.com/twentyninek/image/upload/f_auto,q_auto,t_global/v1618470345/Categories/stressres_nrmozw.png"
  },
  "sv": {
    "id": "ae242e6d-c147-4e5a-b063-572ec905455c",
    "name": "Stresshantering",
    "description": "Hur skulle ditt liv se ut om du var mindre stressad? Stress är en oundviklig del av livet. Att skapa balans mellan stress och återhämtning är nyckeln till att må bra på lång sikt. Ändra det du kan kontrollera och öka din stresstålighet.",
    "coverImageUri": "https://res.cloudinary.com/twentyninek/image/upload/f_auto,q_auto,t_global/v1618470345/Categories/stressres_nrmozw.png",
    "tags": [
      "stress"
    ]
  },
  "pt": {
    "id": "ae242e6d-c147-4e5a-b063-572ec905455c",
    "coverImageUri": "https://res.cloudinary.com/twentyninek/image/upload/f_auto,q_auto,t_global/v1618470345/Categories/stressres_nrmozw.png",
    "name": "Lidar com o stress",
    "tags": [
      "Stress"
    ],
    "description": "Como seria a tua vida se o stress fosse um problema menor? O stress é uma parte inevitável da nossa vida. Criar equilíbrio entre o stress e a recuperação é a chave para o nosso bem-estar. Muda as coisas que podes controlar e fortalece a tua resiliência."
  }
}