{
  "en": {
    "hideOnHome": false,
    "segments": ["ALL"],
    "conversations": [
      {
        "conversationId": "self-compassion-test",
        "title": "Self compassion"
      }
    ],
    "name": "Self compassion",
    "type": "test",
    "category": "c63b1190-9194-44c7-970c-a1db8a435363",
    "featured": true,
    "duration": {
      "type": "minute",
      "count": 2
    },
    "thumbnail": "https://res.cloudinary.com/twentyninek/image/upload/v1632988935/Illustrations_Tests/selfcompassiontestcolor_rxwrzz.png",
    "coverUri": "https://res.cloudinary.com/twentyninek/image/upload/v1632988935/Illustrations_Tests/selfcompassiontestcolor_rxwrzz.png",
    "id": "3299d5f5-1058-4149-9e7c-60876ef05106",
    "difficulty": ["Beginner"],
    "wip": false,
    "backgroundImageUri": "https://res.cloudinary.com/twentyninek/image/upload/v1632988935/Illustrations_Tests/selfcompassiontestcolor_rxwrzz.png"
  },
  "sv": {
    "hideOnHome": false,
    "segments": ["ALL"],
    "type": "test",
    "name": "Självmedkänsla",
    "category": "c63b1190-9194-44c7-970c-a1db8a435363",
    "featured": true,
    "duration": {
      "type": "minute",
      "count": 2
    },
    "conversations": [
      {
        "conversationId": "self-compassion-test",
        "title": "Self compassion"
      }
    ],
    "thumbnail": "https://res.cloudinary.com/twentyninek/image/upload/v1632988935/Illustrations_Tests/selfcompassiontestcolor_rxwrzz.png",
    "coverUri": "https://res.cloudinary.com/twentyninek/image/upload/v1632988935/Illustrations_Tests/selfcompassiontestcolor_rxwrzz.png",
    "id": "3299d5f5-1058-4149-9e7c-60876ef05106",
    "difficulty": ["Beginner"],
    "wip": false,
    "backgroundImageUri": "https://res.cloudinary.com/twentyninek/image/upload/v1632988935/Illustrations_Tests/selfcompassiontestcolor_rxwrzz.png"
  },
  "pt": {
    "hideOnHome": false,
    "segments": ["ALL"],
    "conversations": [
      {
        "conversationId": "self-compassion-test",
        "title": "Autocompaixão"
      }
    ],
    "name": "Autocompaixão",
    "type": "test",
    "category": "c63b1190-9194-44c7-970c-a1db8a435363",
    "featured": true,
    "duration": {
      "type": "minute",
      "count": 2
    },
    "thumbnail": "https://res.cloudinary.com/twentyninek/image/upload/v1632988935/Illustrations_Tests/selfcompassiontestcolor_rxwrzz.png",
    "coverUri": "https://res.cloudinary.com/twentyninek/image/upload/v1632988935/Illustrations_Tests/selfcompassiontestcolor_rxwrzz.png",
    "id": "3299d5f5-1058-4149-9e7c-60876ef05106",
    "difficulty": ["Beginner"],
    "wip": false,
    "backgroundImageUri": "https://res.cloudinary.com/twentyninek/image/upload/v1632988935/Illustrations_Tests/selfcompassiontestcolor_rxwrzz.png"
  }
}
