{
  "en": {
    "hideOnHome": false,
    "segments": ["ALL"],
    "type": "test",
    "name": "Stress",
    "featured": true,
    "cta": "Know more about yourself",
    "duration": {
      "type": "minute",
      "count": 5
    },
    "conversations": [
      {
        "conversationId": "stress-test",
        "title": "Stress"
      }
    ],
    "thumbnail": "https://res.cloudinary.com/twentyninek/image/upload/v1632988935/Illustrations_Tests/stresstestcolor_kjn2uk.png",
    "coverUri": "https://res.cloudinary.com/twentyninek/image/upload/v1632988935/Illustrations_Tests/stresstestcolor_kjn2uk.png",
    "id": "91b70886-5b69-4ffc-8895-533dea85c4bf",
    "difficulty": ["Beginner"],
    "wip": false,
    "backgroundImageUri": "https://res.cloudinary.com/twentyninek/image/upload/v1632988935/Illustrations_Tests/stresstestcolor_kjn2uk.png",
    "category": "ae242e6d-c147-4e5a-b063-572ec905455c"
  },
  "sv": {
    "hideOnHome": false,
    "segments": ["ALL"],
    "conversations": [
      {
        "conversationId": "stress-test",
        "title": "Stress"
      }
    ],
    "name": "Stress",
    "type": "test",
    "featured": true,
    "duration": {
      "type": "minute",
      "count": 5
    },
    "thumbnail": "https://res.cloudinary.com/twentyninek/image/upload/v1632988935/Illustrations_Tests/stresstestcolor_kjn2uk.png",
    "coverUri": "https://res.cloudinary.com/twentyninek/image/upload/v1632988935/Illustrations_Tests/stresstestcolor_kjn2uk.png",
    "id": "91b70886-5b69-4ffc-8895-533dea85c4bf",
    "difficulty": ["Beginner"],
    "wip": false,
    "backgroundImageUri": "https://res.cloudinary.com/twentyninek/image/upload/v1632988935/Illustrations_Tests/stresstestcolor_kjn2uk.png",
    "category": "ae242e6d-c147-4e5a-b063-572ec905455c"
  },
  "pt": {
    "hideOnHome": false,
    "segments": ["ALL"],
    "type": "test",
    "name": "Stress",
    "featured": true,
    "cta": "Conhece-te melhor",
    "duration": {
      "type": "minute",
      "count": 5
    },
    "conversations": [
      {
        "conversationId": "stress-test",
        "title": "Stress"
      }
    ],
    "thumbnail": "https://res.cloudinary.com/twentyninek/image/upload/v1632988935/Illustrations_Tests/stresstestcolor_kjn2uk.png",
    "coverUri": "https://res.cloudinary.com/twentyninek/image/upload/v1632988935/Illustrations_Tests/stresstestcolor_kjn2uk.png",
    "id": "91b70886-5b69-4ffc-8895-533dea85c4bf",
    "difficulty": ["Beginner"],
    "wip": false,
    "backgroundImageUri": "https://res.cloudinary.com/twentyninek/image/upload/v1632988935/Illustrations_Tests/stresstestcolor_kjn2uk.png",
    "category": "ae242e6d-c147-4e5a-b063-572ec905455c"
  }
}
